       IDENTIFICATION DIVISION.                                         00010008
       PROGRAM-ID.    UAPP403D.                                         00020008
       AUTHOR.        ACT                                               00030008
       DATE-WRITTEN.  MARCH 2009.                                       00040008
       DATE-COMPILED.                                                   00050008
      *REMARKS.                                                         00060008
      *                                                                 00070008
      *    BATCH COBOL PRINT PROGRAM TO PRODUCE                         00080008
      *            INVOICE WITH TRANSITION PO AGING REPORT              00090008
      *                                                                 00100008
      *    INPUT:                                                       00110008
      *            EXTRACT-FILE  - CREATED IN UAPXS40, RECORD LAYOUT    00120011
      *                            THE SAME AS UAP401
      *                                                                 00130008
      *    OUTPUT:                                                      00140008
      *            PRINT-FILE                                           00150011
      *            CONTROLR                                             00160047
      *                                                                 00160008
      ***---- MODIFICATIONS ----****                                    00170008
      ***  04/07/09  MLJ  NEW PROGRAM                            FP120  00180008
      ***************************************************************   00240008
       ENVIRONMENT DIVISION.                                            00250008
       CONFIGURATION SECTION.                                           00260008
       INPUT-OUTPUT SECTION.                                            00270008
       FILE-CONTROL.                                                    00280008
           COPY STDCRSL.                                                00300049
           SELECT EXTRACT-FILE ASSIGN TO EXTRACT.                       00290008
           SELECT PRINT-FILE   ASSIGN TO PRNTRT01.                      00300008
       DATA DIVISION.                                                   00310008
       FILE SECTION.                                                    00320008
           COPY STDCRFD.                                                00350049
                                                                        00360049
       FD  EXTRACT-FILE                                                 00330008
           RECORDING MODE IS F                                          00340008
           LABEL RECORDS ARE OMITTED                                    00350008
           BLOCK CONTAINS 0 RECORDS                                     00360008
           RECORD CONTAINS 440 CHARACTERS                               00370010
           DATA RECORD IS EXTRACT-RECORD.                               00380008
       01  EXTRACT-RECORD PIC X(440).                                   00390010
                                                                        00400011
       FD  PRINT-FILE                                                   00410008
           RECORDING MODE IS F                                          00420008
           LABEL RECORDS ARE OMITTED                                    00430008
           BLOCK CONTAINS 0 RECORDS                                     00440008
           RECORD CONTAINS 132 CHARACTERS                               00450018
           DATA RECORD IS PRINT-RECORD.                                 00460008
       01  PRINT-RECORD.                                                00470008
           03  PRN-LINE1 PIC X(132).                                    00480008
                                                                        00530047
       WORKING-STORAGE SECTION.                                         00490008
       COPY WSSTRTWS.                                                   00500008
       01  DBLINK-USER-CD   PIC X(8) VALUE 'UAPP403D'.
       01  PRN-SKIPX PIC X(01).                                         00510018
      ****************************************************************  00520008
      *                    SWITCHES                                     00530008
      ****************************************************************  00540008
       01  END-OF-EXTRACT                      PIC 9 VALUE 0.           00550013
       01  YES-1ST-RECORD-THRU                 PIC 9 VALUE 1.           00560021
      ****************************************************************  00570008
      *                    IO CONTROL AREA                              00580008
      ****************************************************************  00590008
           COPY FIOCNTRL.                                               00600008
      ****************************************************************  00610008
      *                    HOLD AREAS                                   00620008
      ****************************************************************  00630008
       01  WS-LAST-VNDR-CODE           PIC X(09) VALUE SPACES.          00650031
       01  WS-LAST-BYR-CODE            PIC X(04) VALUE SPACES.          00650031
       01  WS-LAST-DCMNT-TYPE          PIC X(01) VALUE SPACES.
       01  SAVE-PRN-SKIPX              PIC X(001) VALUE SPACES.         00660024
       01  SAVE-PRINT-RECORD           PIC X(132) VALUE SPACES.         00670023
       01  WS-DCMNT-NMBR.
           03  WS-DCMNT-TYPE           PIC X(01) VALUE SPACES.
           03  FILLER                  PIC X(07) VALUE SPACES.
       01  WS-PO-NMBR.
           03  FILLER                  PIC X(01) VALUE SPACES.
           03  WS-BYR-CODE             PIC X(04) VALUE SPACES.
           03  FILLER                  PIC X(03) VALUE SPACES.
       01  WS-BUYER-LST-NINE-BREAKDOWN.
           03  WS-BUYER-LST-NINE-1ST      PIC X(01).
           03  WS-BUYER-LST-NINE-2-7      PIC X(07).
           03  WS-BUYER-LST-NINE-IND      PIC X(01).
       01  WS-BUYER-PHONE-BREAKDOWN.
           03  WS-BUYER-PHONE-AREA        PIC X(03).
           03  WS-BUYER-PHONE-PRE         PIC X(03).
           03  WS-BUYER-PHONE-SUF         PIC X(04).
           03  FILLER                     PIC X(04).

       01  WS-BUYER-IREF                  PIC S9(07)V COMP-3.

      ****************************************************************  00680008
      *               TOTALS AREA                                       00690008
      ****************************************************************  00700008
       01  WORK-TOTALS.                                                 00710008
           03  WS-TOT-30-DAYS               PIC S9(10)V99 VALUE ZERO.   00720008
           03  WS-TOT-60-DAYS               PIC S9(10)V99 VALUE ZERO.   00730008
           03  WS-TOT-90-DAYS               PIC S9(10)V99 VALUE ZERO.   00740008
           03  WS-TOT-ALL                   PIC S9(12)V99 VALUE ZERO.   00750008
                                                                        00760008
      ****************************************************************  00770008
      *               COUNTERS AND SUBSCRIPTS                           00780008
      ****************************************************************  00790008
       01  INV-N-TRANS-PO-RECS-READ        PIC 9(08) VALUE 0.           00800034
       01  WS-PRINT-CNT                    PIC ZZZZZZZ9 VALUE ZEROS.    00860054
       01  WS-PAGE                         PIC 9(004) VALUE ZERO.       00810026
       01  LINE-CNT                        PIC 9(002) VALUE 0.          00820027
       01  EDIT-DATE.                                                   00830008
           03  EDIT-YY                         PIC X(002).              00840008
           03  EDIT-MM                         PIC X(002).              00850008
           03  EDIT-DD                         PIC X(002).              00860008
       01  EDITED-DATE.                                                 00870008
           03  EDITED-MM                       PIC X(002).              00880008
           03  FILLER                          PIC X(01) VALUE '/'.     00890008
           03  EDITED-DD                       PIC X(002).              00900008
           03  FILLER                          PIC X(01) VALUE '/'.     00910008
           03  EDITED-YY                       PIC X(002).              00920008
       01  EDIT-TIME.                                                   00921037
           03  EDIT-HH                         PIC X(002).              00922037
           03  EDIT-MM                         PIC X(002).              00923037
           03  EDIT-SS                         PIC X(002).              00924037
       01  EDITED-TIME.                                                 00925037
           03  EDITED-HH                       PIC X(002).              00926037
           03  FILLER                          PIC X(01) VALUE ':'.     00927037
           03  EDITED-MM                       PIC X(002).              00928037
           03  FILLER                          PIC X(01) VALUE ':'.     00929037
           03  EDITED-SS                       PIC X(002).              00929137
       01  WS-CONSTANTS.                                                00930008
           03  WS-CONSTANT-TOP-OF-PAGE         PIC X(001) VALUE '1'.    00940014
           03  WS-CONSTANT-1                   PIC X(001) VALUE ' '.    00950014
           03  WS-CONSTANT-2                   PIC X(001) VALUE '0'.    00960014
           03  WS-CONSTANT-3                   PIC X(001) VALUE '-'.    00970014
           03  WS-CONSTANT-MAX-LINE            PIC 9(002) VALUE 58.     00980043
           03  WS-CONSTANT-MAX-LINE-MINUS-2    PIC 9(002) VALUE 56.     00990043
           03  WS-CONSTANT-PROG-NAME           PIC X(08)  VALUE         01000008
               'UAPP403D'.                                              01010008
           03  WS-CONSTANT-RPT-TITLE           PIC X(60)  VALUE         01020008
               '            INV WITH TRANSITION PO AGING REPORT   '.    01030008
                                                                        01040008
       COPY WSCTRHED.                                                   01050008
       COPY WSBANNER.                                                   01060008
       COPY WSHEAD1.                                                    01070008
       COPY WSHEAD2.                                                    01080008
       01  WS-HEADING-AS-OF-DATE.                                       01090008
           03  FILLER                      PIC X(59) VALUE SPACES.      01100008
           03  FILLER                      PIC X(06) VALUE              01110008
               'AS OF '.                                                01120008
           03  WS-PRN-AS-OF-DATE           PIC X(08) VALUE SPACES.      01130008
           03  FILLER                      PIC X(59) VALUE SPACES.      01140008
       01  WS-BUYER-LINE.
           03 FILLER                       PIC X(02) VALUE SPACES.
           03 BL-BUYER-NAME                PIC X(35) VALUE SPACES.
           03 FILLER                       PIC X(01) VALUE SPACES.
           03 BL-EMAIL-ADR                 PIC X(40) VALUE SPACES.
           03 FILLER                       PIC X(01) VALUE SPACES.
           03 BL-BUYER-PHONE-AREA          PIC X(03) VALUE SPACES.
           03 FILLER                       PIC X(01) VALUE '-'.
           03 BL-BUYER-PHONE-PRE           PIC X(03) VALUE SPACES.
           03 FILLER                       PIC X(01) VALUE '-'.
           03 BL-BUYER-PHONE-SUF           PIC X(04) VALUE SPACES.
           03 FILLER                       PIC X(42) VALUE SPACES.
       01  WS-HEADING-3.                                                01150008
           03  FILLER                      PIC X(27) VALUE              01160008
               '  TRANS        VENDOR/PAYEE'.                           01170008
           03  FILLER                      PIC X(38) VALUE              01180008
               '                             DOCUMENT '.                01190009
           03  FILLER                      PIC X(43) VALUE              01200008
               'PAYMENT      VENDOR                        '.           01210008
           03  FILLER                      PIC X(24) VALUE              01220008
               '                        '.                              01230008
       01  WS-HEADING-3A.                                               01150008
           03  FILLER                      PIC X(27) VALUE              01160008
               '  TRANS        VENDOR/PAYEE'.                           01170008
           03  FILLER                      PIC X(38) VALUE              01180008
               '                             DOCUMENT '.                01190009
           03  FILLER                      PIC X(43) VALUE              01200008
               'PAYMENT        PO                          '.           01210008
           03  FILLER                      PIC X(24) VALUE              01220008
               '                        '.                              01230008
       01  WS-HEADING-4.                                                01240008
           03  FILLER                      PIC X(27) VALUE              01250008
               '   DATE    NUMBER      NAME'.                           01260008
           03  FILLER                      PIC X(29) VALUE SPACES.      01270008
           03  FILLER                      PIC X(44) VALUE              01280008
               'NUMBER   DUE DATE     INVOICE               '.          01290008
           03  FILLER                      PIC X(32) VALUE              01300008
               '                                '.                      01310008
       01  WS-HEADING-4A.                                               01240008
           03  FILLER                      PIC X(27) VALUE              01250008
               '   DATE    NUMBER      NAME'.                           01260008
           03  FILLER                      PIC X(29) VALUE SPACES.      01270008
           03  FILLER                      PIC X(44) VALUE              01280008
               'NUMBER   DUE DATE     NUMBER                '.          01290008
           03  FILLER                      PIC X(32) VALUE              01300008
               '                                '.                      01310008
       01  WS-HEADING-5.                                                01320008
           03  FILLER                      PIC X(44) VALUE              01330008
               ' -------- ----------------------------------'.          01340008
           03  FILLER                      PIC X(41) VALUE              01350008
               '----------- -------- -------- -----------'.             01360008
           03  FILLER                      PIC X(47) VALUE              01370008
               '-- ------------- ------------- --------------- '.       01380008
      *                                                                 01390008
      *  WS-HEADING-6 GET PRINTED B/4 TOTAL LINE PRINTS                 01400008
      *                                                                 01410008
       01  WS-HEADING-6.                                                01420008
           03  FILLER                      PIC X(88) VALUE SPACES.      01430008
           03  FILLER                      PIC X(46) VALUE              01440008
               '============= ============= ==============='.           01450008
       01  WS-TOTAL-LINE.                                               01460008
           03  FILLER                      PIC X(51) VALUE SPACES.      01470008
           03  FILLER                      PIC X(05) VALUE 'TOTAL'.     01480008
           03  FILLER                      PIC X(01) VALUE SPACES.      01490008
           03  WS-PRN-TOT-ALL              PIC $$$$,$$$,$$$.99-.        01500008
           03  FILLER                      PIC X(14) VALUE SPACES.      01510008
           03  WS-PRN-TOT-30-DAYS          PIC $$,$$$,$$$.99-.          01520008
           03  FILLER                      PIC X(01) VALUE SPACES.      01530008
           03  WS-PRN-TOT-60-DAYS          PIC $$,$$$,$$$.99-.          01540008
           03  FILLER                      PIC X(01) VALUE SPACES.      01550008
           03  WS-PRN-TOT-90-DAYS          PIC $$,$$$,$$$.99-.          01560008
       01  WS-PRN-DETAIL.                                               01570008
           03  FILLER                      PIC X(01) VALUE SPACES.      01580008
           03  WS-PRN-INVOICE-DATE         PIC X(08) VALUE SPACES.      01590008
           03  FILLER                      PIC X(01) VALUE SPACES.      01600008
           03  WS-PRN-VNDR-CODE            PIC X(09) VALUE SPACES.      01610008
           03  FILLER                      PIC X(01) VALUE SPACES.      01620008
           03  WS-PRN-VNDR-NAME            PIC X(35) VALUE SPACES.      01630008
           03  FILLER                      PIC X(01) VALUE SPACES.      01640008
           03  WS-PRN-INVOICE-NMBR         PIC X(08) VALUE SPACES.      01650008
           03  FILLER                      PIC X(01) VALUE SPACES.      01660008
           03  WS-PRN-PYMT-DATE            PIC X(08) VALUE SPACES.      01670008
           03  FILLER                      PIC X(03) VALUE SPACES.      01680008
           03  WS-PRN-VNDR-INV-NMBR        PIC X(09) VALUE SPACES.      01690008
           03  FILLER                      PIC X(02) VALUE SPACES.      01700008
           03  WS-PRN-30-DAYS              PIC X(14) VALUE SPACES.      01710008
           03  FILLER                      PIC X(01) VALUE SPACES.      01720008
           03  WS-PRN-60-DAYS              PIC X(14) VALUE SPACES.      01730008
           03  FILLER                      PIC X(01) VALUE SPACES.      01740008
           03  WS-PRN-90-DAYS              PIC X(14) VALUE SPACES.      01750008
           03  FILLER                      PIC X(01) VALUE SPACES.      01760008
           03  WS-PRN-INDICATOR            PIC X(01) VALUE SPACES.      01770008
       01  WS-COMMON-DAYS                  PIC $$,$$$,$$$.99-.          01780008
                                                                        01790008
           COPY UAP401.                                                 01800008
                                                                        01970047
           COPY STDWS.                                                  01980047
                                                                        01990047
           COPY WSDONEWS.                                               01810008

      *%****************************** *
      *%CONVERT/DB COMMAREA
      *%****************************** *
           EXEC SQL
               INCLUDE SQLCA
           END-EXEC.

      *%****************************** *
      *%BYR_BUYER_V AREAS(HOST VAR INCLUDE)
      *%****************************** *
           EXEC SQL
               INCLUDE HVBYR
           END-EXEC.

      *%****************************** *
      *%PRA_PRSN_ADR_V AREAS(HOST VAR INCLUDE
      *%****************************** *
           EXEC SQL
               INCLUDE HVPRA
           END-EXEC.                                                    01820023

           EXEC SQL
               INCLUDE CBCVDBCA
           END-EXEC.

      *%-------------------------------------------------------------- *
      *%                                                               *
      *%          STANDARD CONVERT/DB COMMUNICATION AREAS              *
      *%                                                               *
      *%-------------------------------------------------------------- *
           COPY CBCVDBXD.
           COPY BTCHWS.

      *LINKAGE SECTION.                                                 01830008
           COPY WSLKDATA.                                               01840008
       PROCEDURE DIVISION.                                              01850008
      ****************************************************************  01860008
      *  THE FOLLOWING PARAGRAPH WILL CONTROL THE PROCESSING OF THE  *  01870008
      *  EXTRACT RECORDS PASSED TO THIS PROGRAM.                      * 02070047
      ****************************************************************  01890008
       1000-DRIVER.                                                     01900008
           OPEN INPUT EXTRACT-FILE.                                     01910008
           OPEN OUTPUT PRINT-FILE.                                      01920008

           MOVE 0 TO END-OF-EXTRACT.                                    01940021
           PERFORM 2000-INIT.                                           01950008
           IF STD-WS-PROGRAM-FAILED = 'N'                               02141060
             PERFORM 9100-READ-EXTRACT                                  02150060
             IF  END-OF-EXTRACT = 0                                     02170060
               MOVE HIGH-VALUES        TO WS-LAST-VNDR-CODE             02190060
               MOVE HIGH-VALUES        TO WS-LAST-BYR-CODE              02190060
               PERFORM 3000-MAINLINE THRU 3000-EXIT                     02200060
                 UNTIL END-OF-EXTRACT = 1.                              02210060
      *        PERFORM 6100-TOTALS.                                     02220060
                                                                        02230008
           CLOSE EXTRACT-FILE.                                          02240008
           IF STD-WS-PROGRAM-FAILED = 'N'                               02250061
             MOVE ALL 'END OF REPORT - ' TO PRN-LINE1                   02270061
           ELSE                                                         02270161
             MOVE ALL 'PROGRAM FAILED - OUTPUT INCOMPLETE *** '         02271061
                                         TO PRN-LINE1.                  02272061
           MOVE '-' TO PRN-SKIPX.                                       02092046
           PERFORM 9300-PRN-LINE1.                                      02093045
           CLOSE PRINT-FILE.                                            02100008

           PERFORM 99999-STD-CRPT-WRITE-STATS.                          02301061
           PERFORM 99999-STD-CRPT-FINISH.                               02302061
           STOP RUN.                                                    02110008
                                                                        02120008
       2000-INIT.                                                       02130008
           MOVE 'UAPP403D' TO STD-WS-PROGRAM-NAME.                      02340049
           MOVE 'INVOICE WITH TRANSITION PO AGING REPORT'               02350049
                                       TO STD-WS-CRPT-DESCR-1.          02350049
           MOVE ZEROS TO STD-WS-CRPT-RETAIN-DAYS.                       02360051
           PERFORM 99999-STD-CRPT-BEGIN.                                02370049
           PERFORM 99999-STD-CRPT-INPUT-CNTRL-HDR.                      02380049
           MOVE 'NO INPUT PARAMETERS' TO STD-WS-CRPT-LINE.              02390049
           PERFORM 99999-STD-CRPT-WRITE-LINE.                           02400050
           PERFORM 99999-STD-CRPT-PROCESS-MSG-HDR.                      02410049
                                                                        02420049
      **   READ RECORD TYPE 1 TO GET INFO FOR BANNER PAGE *             02140008
      **   AND STANDARD HEADING 1.                                      02150008
           PERFORM 9100-READ-EXTRACT.                                   02160008
                                                                        02170008
           IF END-OF-EXTRACT = 1                                        02180012
             PERFORM 8100-PRINT-NO-RPT-BANNER                           02190011
             MOVE 'NO EXTRACT RECORDS' TO STD-WS-CRPT-LINE              02490049
             PERFORM 99999-STD-CRPT-WRITE-LINE                          02500049
             MOVE 'Y' TO STD-WS-PROGRAM-FAILED                          02510049
           ELSE                                                         02200009
             MOVE UAP401-AS-OF-DATE          TO WS-PRN-AS-OF-DATE       02210009
             MOVE ' '                        TO WS-SEQ-NMBR             02211044
             MOVE UAP401-USER-ID             TO WS-USER-ID              02220009
             MOVE UAP401-USER-NAME           TO WS-USER-NAME            02230009
             MOVE UAP401-INST-TITLE          TO WS-INSTITUTION          02240009
             PERFORM 8000-PRINT-BANNER-PAGE                             02250009
             ACCEPT EDIT-DATE FROM DATE                                 02251037
             MOVE EDIT-YY              TO EDITED-YY                     02252039
             MOVE EDIT-MM OF EDIT-DATE TO EDITED-MM OF EDITED-DATE      02252138
             MOVE EDIT-DD              TO EDITED-DD                     02252239
             MOVE EDITED-DATE TO WS-DATE                                02253037
             MOVE WS-DATE              TO SRH1-RUN-DATE                 02260009
             ACCEPT EDIT-TIME FROM TIME                                 02261037
             MOVE EDIT-HH              TO EDITED-HH                     02262039
             MOVE EDIT-MM OF EDIT-TIME TO EDITED-MM OF EDITED-TIME      02262139
             MOVE EDIT-SS              TO EDITED-SS                     02262239
             MOVE EDITED-TIME TO WS-TIME.                               02263037
             MOVE WS-TIME              TO SRH1-RUN-TIME                 02270009
             MOVE 99                   TO LINE-CNT                      02280009
             MOVE ZERO                 TO WS-PAGE.                      02290009
                                                                        02300008
       3000-MAINLINE.                                                   02310008

           MOVE UAP401-VNDR-INV-NMBR TO WS-PO-NMBR.

      *    IF UAP401-VNDR-CODE NOT = WS-LAST-VNDR-CODE                  02320031
      *      IF WS-LAST-VNDR-CODE NOT = HIGH-VALUES                     02330031
      *        PERFORM 6100-TOTALS THRU 6100-EXIT.                      02340030

           IF WS-BYR-CODE NOT = WS-LAST-BYR-CODE
             PERFORM 7000-NEW-BUYER THRU 7000-EXIT.
                                                                        02350008
           PERFORM 4000-PRINT-RECORD-TWO THRU 4000-EXIT.                02370011
                                                                        02380026
           PERFORM 9100-READ-EXTRACT.                                   02390026
                                                                        02400008
       3000-EXIT.
           EXIT.

       4000-PRINT-RECORD-TWO.                                           02410008

           MOVE SPACES               TO WS-PRN-DETAIL.                  02420031
           IF UAP401-VNDR-CODE = WS-LAST-VNDR-CODE                      02430023
             MOVE ' '                TO WS-PRN-VNDR-CODE                02440031
             MOVE ' '                TO WS-PRN-VNDR-NAME                02450032
           ELSE                                                         02460008
             MOVE UAP401-VNDR-CODE   TO WS-LAST-VNDR-CODE               02470030
             MOVE WS-DCMNT-TYPE      TO WS-LAST-DCMNT-TYPE              02470030
             MOVE UAP401-VNDR-CODE   TO WS-PRN-VNDR-CODE                02480030
             MOVE UAP401-VNDR-NAME   TO WS-PRN-VNDR-NAME.               02490023
                                                                        02500008
           MOVE UAP401-TRANS-DATE    TO WS-PRN-INVOICE-DATE.            02510031
           MOVE UAP401-DCMNT-NMBR    TO WS-PRN-INVOICE-NMBR.            02520008
           MOVE UAP401-PYMT-DUE-DATE TO EDIT-DATE.                      02530008

           MOVE EDIT-YY              TO EDITED-YY.                      02540008
           MOVE EDIT-MM OF EDIT-DATE TO EDITED-MM OF EDITED-DATE.       02550039
           MOVE EDIT-DD              TO EDITED-DD.                      02560008
           MOVE EDITED-DATE          TO WS-PRN-PYMT-DATE.               02570008
           MOVE UAP401-VNDR-INV-NMBR TO WS-PRN-VNDR-INV-NMBR.           02580008
           MOVE UAP401-SUSP-IND      TO WS-PRN-INDICATOR.               02590008
                                                                        02600008
      *    IF UAP401-CRDT-MEMO = 'Y'                                    02610008
      *      COMPUTE UAP401-NET-AMT = UAP401-NET-AMT * -1               02620011
      *      MOVE UAP401-NET-AMT   TO WS-COMMON-DAYS                    02630011
      *    ELSE                                                         02640008
      *      MOVE UAP401-NET-AMT   TO WS-COMMON-DAYS.                   02650011
                                                                        02660008
      *    IF UAP401-COL-NMBR = 1                                       02670008
      *      MOVE WS-COMMON-DAYS   TO WS-PRN-30-DAYS                    02680011
      *      ADD  UAP401-NET-AMT   TO WS-TOT-30-DAYS WS-TOT-ALL.        02690011
                                                                        02700008
      *    IF UAP401-COL-NMBR = 2                                       02710008
      *      MOVE WS-COMMON-DAYS   TO WS-PRN-60-DAYS                    02720011
      *      ADD  UAP401-NET-AMT   TO WS-TOT-60-DAYS WS-TOT-ALL.        02730011
                                                                        02740008
      *    IF UAP401-COL-NMBR = 3 OR 4                                  02750008
      *      MOVE WS-COMMON-DAYS   TO WS-PRN-90-DAYS                    02760011
      *      ADD  UAP401-NET-AMT   TO WS-TOT-90-DAYS WS-TOT-ALL.        02770011
                                                                        02780008
           MOVE WS-PRN-DETAIL              TO PRN-LINE1.                02790008
           MOVE WS-CONSTANT-1              TO PRN-SKIPX.                02800008
           PERFORM 9300-PRN-LINE1.                                      02810020
                                                                        02820008
       4000-EXIT.                                                       02820008
           EXIT.

       6100-TOTALS.                                                     02830008

           MOVE WS-HEADING-6               TO PRN-LINE1.                02840008
           MOVE WS-CONSTANT-1              TO PRN-SKIPX.                02850008
           PERFORM 9300-PRN-LINE1.                                      02860020
                                                                        02870008
           MOVE WS-TOT-30-DAYS             TO WS-PRN-TOT-30-DAYS.       02880008
           MOVE WS-TOT-60-DAYS             TO WS-PRN-TOT-60-DAYS.       02890008
           MOVE WS-TOT-90-DAYS             TO WS-PRN-TOT-90-DAYS.       02900008
           MOVE WS-TOT-ALL                 TO WS-PRN-TOT-ALL.           02910008
           MOVE WS-TOTAL-LINE              TO PRN-LINE1.                02920008
           MOVE WS-CONSTANT-1              TO PRN-SKIPX.                02930008
           PERFORM 9300-PRN-LINE1.                                      02940020
                                                                        02950008
           MOVE SPACES                     TO PRN-LINE1.                02960008
           MOVE WS-CONSTANT-1              TO PRN-SKIPX.                02970008
           PERFORM 9300-PRN-LINE1.                                      02980020
                                                                        02990008
           MOVE ZERO                       TO WS-TOT-30-DAYS,           03000008
                                              WS-TOT-60-DAYS,           03010008
                                              WS-TOT-90-DAYS,           03020008
                                              WS-TOT-ALL.               03030008

       6100-EXIT.                                                       03030008
           EXIT.                                                        02950008

       7000-NEW-BUYER.

           IF WS-LAST-BYR-CODE NOT = HIGH-VALUES
              MOVE SPACES             TO PRN-LINE1
              MOVE WS-CONSTANT-1      TO PRN-SKIPX
              PERFORM 9300-PRN-LINE1.

           MOVE '7000-NEW-BUYER  ' TO DBLINK-CURR-PARAGRAPH.
           MOVE 0001 TO DBLINK-CURR-IO-NUM.

           MOVE ZERO TO ERROR-STATUS.
           EXEC SQL
               SELECT
                  BUYER_NAME
                 ,BUYER_TLPHN_ID
                 ,BUYER_ID_LST_NINE
               INTO
                  :BYR-BUYER-NAME
                 ,:BYR-BUYER-TLPHN-ID
                 ,:BYR-BUYER-ID-LST-NINE
               FROM BYR_BUYER_V
               WHERE BUYER_CD = :WS-BYR-CODE
           END-EXEC.

           IF SQLCODE NOT = 0
               MOVE DBLINK-DB2-ERROR TO ERROR-STATUS
               PERFORM 999-SQL-STATUS
                  THRU 999-SQL-STATUS-EXIT
               GO TO 7000-EXIT
           END-IF.

           MOVE BYR-BUYER-ID-LST-NINE TO WS-BUYER-LST-NINE-BREAKDOWN.
           MOVE WS-BUYER-LST-NINE-2-7 TO WS-BUYER-IREF.

           MOVE 0002 TO DBLINK-CURR-IO-NUM.
           MOVE +0 TO SQLCODE.
           MOVE ZERO TO ERROR-STATUS.

           EXEC SQL
              SELECT
                     PRA.ADR_TYP_CD
                    ,PRA.EMADR_LINE
                    ,PRA.FK_PRS_IREF_ID
               INTO
                     :PRA-ADR-TYP-CD
                    ,:PRA-EMADR-LINE
                    ,:PRA-FK-PRS-IREF-ID
                FROM PRA_PRSN_ADR_V  PRA
               WHERE PRA.FK_PRS_IREF_ID = :WS-BUYER-IREF
                 AND PRA.ADR_TYP_CD     = 'ZZ'
                 AND PRA.START_DT       = (SELECT MAX(PRA2.START_DT)
                     FROM  PRA_PRSN_ADR_V PRA2
                     WHERE PRA2.FK_PRS_IREF_ID = PRA.FK_PRS_IREF_ID
                       AND PRA2.ADR_TYP_CD     = PRA.ADR_TYP_CD)
           END-EXEC.

           IF SQLCODE = 0
              MOVE PRA-EMADR-LINE TO BL-EMAIL-ADR
           ELSE
              IF SQLCODE = +100
                  MOVE SPACES TO BL-EMAIL-ADR
              ELSE
                  MOVE DBLINK-DB2-ERROR TO ERROR-STATUS
                  PERFORM 999-SQL-STATUS
                     THRU 999-SQL-STATUS-EXIT
                  GO TO 7000-EXIT
              END-IF
           END-IF.

           MOVE BYR-BUYER-NAME      TO BL-BUYER-NAME.
           MOVE BYR-BUYER-TLPHN-ID  TO WS-BUYER-PHONE-BREAKDOWN.
           MOVE WS-BUYER-PHONE-AREA TO BL-BUYER-PHONE-AREA.
           MOVE WS-BUYER-PHONE-PRE  TO BL-BUYER-PHONE-PRE.
           MOVE WS-BUYER-PHONE-SUF  TO BL-BUYER-PHONE-SUF.

           MOVE WS-BYR-CODE TO WS-LAST-BYR-CODE.

           MOVE WS-BUYER-LINE              TO PRN-LINE1.
           MOVE WS-CONSTANT-1              TO PRN-SKIPX.
           PERFORM 9300-PRN-LINE1.

       7000-EXIT.
           EXIT.

      ****************************************************************  03040008
      ***              PRINT BANNER PAGE                           ***  03050008
      ****************************************************************  03060008
           COPY PRTBANPG.                                               03070008
           COPY UNVRSHED.                                               03080008
                                                                        03090008
       9100-READ-EXTRACT.                                               03110008

           READ EXTRACT-FILE                                            03120008
             AT END MOVE 1 TO END-OF-EXTRACT.                           03130012
           IF END-OF-EXTRACT = 0                                        03140013
             MOVE EXTRACT-RECORD TO UAP401-EXTRACT-O                    03160012
             MOVE UAP401-DCMNT-NMBR TO WS-DCMNT-NMBR
             ADD 1 TO INV-N-TRANS-PO-RECS-READ.                         03150034
                                                                        03170008
       9300-PRN-LINE1.                                                  03180008

           IF LINE-CNT > WS-CONSTANT-MAX-LINE-MINUS-2                   03190014
             PERFORM 9350-PRINT-HEAD-1-2-3-4-5.                         03200014
           IF PRN-SKIPX = ' '                                           03210014
             WRITE PRINT-RECORD AFTER ADVANCING 1 LINE                  03220014
             ADD 1                        TO  LINE-CNT                  03230014
           ELSE                                                         03240014
           IF PRN-SKIPX = '0'                                           03250014
             WRITE PRINT-RECORD AFTER ADVANCING 2 LINES                 03260014
             ADD 2                        TO  LINE-CNT                  03270014
           ELSE                                                         03280014
           IF PRN-SKIPX = '-'                                           03290014
             WRITE PRINT-RECORD AFTER ADVANCING 3 LINES                 03300014
             ADD 3                        TO  LINE-CNT.                 03310014
                                                                        03320014
       9350-PRINT-HEAD-1-2-3-4-5.                                       03330014

           MOVE PRINT-RECORD           TO SAVE-PRINT-RECORD.            03340019
           MOVE PRN-SKIPX              TO SAVE-PRN-SKIPX.               03350023
           MOVE SPACES                     TO PRN-LINE1.                03360014
           MOVE SRH-HEADING-1              TO PRN-LINE1.                03370014
           MOVE WS-CONSTANT-TOP-OF-PAGE TO PRN-SKIPX.                   03380014
           WRITE PRINT-RECORD AFTER ADVANCING PAGE.                     03390017
                                                                        03400014
           ADD 1                           TO WS-PAGE.                  03410014
           MOVE WS-PAGE                    TO SRH2-PAGE-NMBR.           03420014
           MOVE WS-CONSTANT-RPT-TITLE      TO SRH2-REPORT-TITLE.
           MOVE SRH-HEADING-2              TO PRN-LINE1.                03430014
           MOVE WS-CONSTANT-1              TO PRN-SKIPX.                03440014
           WRITE PRINT-RECORD AFTER ADVANCING 1 LINE.                   03450017
                                                                        03460014
           MOVE WS-HEADING-AS-OF-DATE      TO PRN-LINE1.                03470014
           MOVE WS-CONSTANT-1              TO PRN-SKIPX.                03480014
           WRITE PRINT-RECORD AFTER ADVANCING 1 LINE.                   03490017
                                                                        03500014
           MOVE SPACES                     TO PRN-LINE1.                03510014
           MOVE WS-CONSTANT-1              TO PRN-SKIPX.                03520014
           WRITE PRINT-RECORD AFTER ADVANCING 1 LINE.                   03530017
                                                                        03540014
           MOVE WS-HEADING-3A              TO PRN-LINE1.                03550014
           MOVE WS-CONSTANT-1              TO PRN-SKIPX.                03560014
           WRITE PRINT-RECORD AFTER ADVANCING 1 LINE.                   03570017
                                                                        03580014
           MOVE WS-HEADING-4A              TO PRN-LINE1.                03590014
           MOVE WS-CONSTANT-1              TO PRN-SKIPX.                03600014
           WRITE PRINT-RECORD AFTER ADVANCING 1 LINE.                   03610017
                                                                        03620014
           MOVE WS-HEADING-5               TO PRN-LINE1.                03630014
           MOVE WS-CONSTANT-1              TO PRN-SKIPX.                03640014
           WRITE PRINT-RECORD AFTER ADVANCING 1 LINE.                   03650017
           MOVE 7                          TO LINE-CNT.                 03660014
           MOVE SPACES                     TO PRN-LINE1.                03670014
                                                                        03680019
           MOVE SAVE-PRINT-RECORD TO PRINT-RECORD.                      03690019
           MOVE SAVE-PRN-SKIPX    TO PRN-SKIPX.                         03700023
      *    COPY STDCD.                                                  04140048
           MOVE ' ' TO STD-WS-CRPT-LINE.                                04150049
           MOVE INV-N-TRANS-PO-RECS-READ TO WS-PRINT-CNT.               04160053
           STRING WS-PRINT-CNT          DELIMITED BY SIZE               04170053
                ' EXTRACT RECORDS READ' DELIMITED BY SIZE               04180049
             INTO STD-WS-CRPT-LINE.                                     04190049
           PERFORM 99999-STD-CRPT-WRITE-LINE.                           04200049
                                                                        03320014
      *%-------------------------------------------------------------- *03320014
      *%                                                               *03320014
      *%                  999-SQL-STATUS ROUTINE                       *03320014
      *%                                                               *03320014
      *%-------------------------------------------------------------- *03320014
       999-SQL-STATUS.                                                  03320014
           EXEC SQL                                                     03320014
               INCLUDE BTCHERR                                          03320014
           END-EXEC.                                                    03320014
       999-SQL-STATUS-EXIT.                                             03320014
           EXIT.                                                        03320014
                                                                        03320014
      *  STANDARD CONTROL REPORT ROUTINES
           COPY STDCD.                                                  04140048
