       IDENTIFICATION DIVISION.                                         00000110
       PROGRAM-ID. UAPX190.                                             00000120
       AUTHOR.     ADCOM.                                               00000130
       DATE-WRITTEN.  SEPTEMBER 2000.                                   00000140
       DATE-COMPILED.                                                   00000150
      *REMARKS.                                                         00000160
      *                                                                 00000170
      *    THIS PROGRAM WILL READ R4153-1099 RECORDS AND TOTAL THE      00000180
      *    PAYMENTS.  IF THE TOTAL PAID IS $600 OR MORE, DATA IS        00000190
      *    EXTRACTED TO THE EDD FILE AND THE VENDOR ID IS ADDED TO      00000200
      *    THE VSAM FILE.                                               00000210
      *                                                                 00000210
      *    A SIMILAR PROCESS IS USED TO FIND THE APPLICABLE PURCHASE
      *    ORDERS.  THE R4083-PO-HDR RECORDS ARE READ AND IF THE
      *    PURCHASE ORDER IS APPROVED, THE VENDOR IS A 1099 VENDOR AND
      *    THE TOTAL AMOUNT PAID FOR SERVICES IS $600 OR MORE, THE
      *    DATA IS EXTRACTED TO THE EDD FILE AND THE VENDOR ID IS
      *    ADDED TO THE VSAM FILE.  A SERVICE PO HAS ACCOUNT NUMBERS
      *    STARTING WITH 6372XX.  THE FIELD WS-SERVICE-ACCT IS HARD-
      *    CODED WITH THIS DATA.
      *
      *    INPUT:                                                       00000220
      *          DATEFILE      :  A FILE CONTAINING THE LAST RUN DATE   00000240
      *                                                                 00000270
      *    OUTPUT:                                                      00000280
      *          EDDEXT        :  EXTRACT FILE TO BE SENT TO EDD
      *          ERREXT        :  EXTRACT FILE OF EDIT ERRORS
      *****************************************************************
      *  MODIFIED:                                                      00000320
      **  FP5148  02/03/14     ADD FIXES TO THE 1099 FILE TO EDD
      *****************************************************************
                                                                        00000330
003600/
       ENVIRONMENT DIVISION.                                            00000350
                                                                        00000360
       CONFIGURATION SECTION.                                           00000370
                                                                        00000380
       INPUT-OUTPUT SECTION.                                            00000420
       FILE-CONTROL.                                                    00000430
                                                                        00000440
           SELECT DATEFILE                                              00000460
                ASSIGN UT-S-DATEFILE.                                   00440004
                                                                        00450004
           SELECT EDDEXT                                                00460004
                ASSIGN UT-S-EDDEXT.                                     00470004
                                                                        00450004
           SELECT ERREXT                                                00460004
                ASSIGN UT-S-ERREXT.                                     00470004
                                                                        00480004
           SELECT REPORTED-VENDOR-FILE ASSIGN TO UT-REPTVEN
              ACCESS IS DYNAMIC
              ORGANIZATION IS INDEXED
              RECORD KEY IS REPT-VENDOR-VSAM-KEY
              FILE STATUS IS VSAM-FILE-STATUS.

           COPY STDCRSL.
006300/
       DATA DIVISION.                                                   00000530
                                                                        00000570
       FILE SECTION.                                                    00000580
                                                                        00000590
       FD  DATEFILE                                                     00000600
           RECORDING MODE IS F                                          00000610
           LABEL RECORDS ARE OMITTED                                    00000620
           BLOCK CONTAINS 0 RECORDS                                     00000630
           RECORD CONTAINS 80 CHARACTERS.                               00000640
                                                                        00000660
       01  DATEFILE-REC                    PIC X(80).                   00000670
                                                                        00000680
       FD  EDDEXT                                                       00000690
           RECORDING MODE IS F                                          00000700
           LABEL RECORDS ARE STANDARD                                   00000710
           BLOCK CONTAINS 0 RECORDS                                     00000720
           RECORD CONTAINS 175 CHARACTERS                               00000730
           DATA RECORD IS EDDEXT-REC.
                                                                        00000750
       01  EDDEXT-REC                      PIC X(175).                  00000760
                                                                        00000680
       FD  REPORTED-VENDOR-FILE
           DATA RECORD IS REPORTED-VENDOR-REC.

       01  REPORTED-VENDOR-REC.
           03  FILLER                      PIC X(06).
           03  REPT-VENDOR-VSAM-KEY        PIC X(09).
           03  FILLER                      PIC X(65).
                                                                        00000680
       FD  ERREXT                                                       00000690
           RECORDING MODE IS F                                          00000700
           LABEL RECORDS ARE STANDARD                                   00000710
           BLOCK CONTAINS 0 RECORDS                                     00000720
           RECORD CONTAINS 175 CHARACTERS                               00000730
           DATA RECORD IS ERROR-REC.
                                                                        00000750
       01  ERROR-REC                      PIC X(175).                   00000760

       COPY STDCRFD.
011100/
011200 WORKING-STORAGE SECTION.

011400 01  WS-ABEND-AREA.
011500     05  WS-ABEND-PARAGRAPH      PIC X(30)      VALUE SPACES.
011600     05  WS-ABEND-SQL-NBR        PIC S9(4)      VALUE ZEROES.
011700     05  WS-ABEND-CODE           PIC  9(4)      VALUE ZEROES.
                                                                        00001820
       01  VSAM-FILE-STATUS            PIC X(02) VALUE SPACES.
           88  VSAM-STATUS-OK            VALUE '00'.
           88  VSAM-REC-NOT-FND          VALUE '23'.
           88  VSAM-FILE-ERROR           VALUE '01' THRU '22'
                                               '24' THRU '99'.

       01  WORK-DATEFILE-REC.                                           00001820
           05  FILLER                  PIC X(05)      VALUE SPACES.     00001820
           05  WS-PARM-UNVRS-CODE      PIC X(02)      VALUE SPACES.
           05  FILLER                  PIC X(04)      VALUE SPACES.     00001820
FP5148     05  WS-RUN-YEAR             PIC X(04)      VALUE '0000'.     00001820
           05  FILLER                  PIC X(65)      VALUE SPACES.     00001820
                                                                        00001820
                                                                        00001820
       01  VALIDATION-FLAGS.                                            00001820
           05  ANY-MORE-DATEFILE       PIC X(03)      VALUE 'YES'.      00001820
               88  NO-MORE-DATEFILE                   VALUE 'NO '.      00001820
               88  STILL-MORE-DATEFILE                VALUE 'YES'.      00001820
                                                                        00001820
           05  THIS-NEW-VENDOR         PIC X(03)      VALUE 'YES'.      00001820
               88  REPORTED-VENDOR                    VALUE 'NO '.      00001820
               88  NEW-VENDOR                         VALUE 'YES'.      00001820
                                                                        00001820
           05  EDD-1099-VENDOR-IND     PIC X(03)      VALUE 'NO '.      00001820
               88  EDD-1099-VENDOR                    VALUE 'YES'.      00001820
                                                                        00001820
           05  THIS-VALID-SSN          PIC X(03)      VALUE 'YES'.      00001820
               88  VALID-SSN                          VALUE 'YES'.      00001820
               88  INVALID-SSN                        VALUE 'NO '.      00001820
                                                                        00001820
           05  BINDS-FLAG              PIC X(01)      VALUE 'N'.        00001820
               88  BINDS-OK                           VALUE 'Y'.        00001820

       COPY STDWS.
                                                                        00001820

       01  WORK-PIC-EDDEXT-REC.
           05  PIC-REC-ID                  PIC X(03) VALUE 'PIC'.
           05  PIC-PROVIDER-SSN            PIC X(09).
           05  PIC-PROVIDER-FIRST-NAME     PIC X(16).
           05  PIC-PROVIDER-MI             PIC X(01).
           05  PIC-PROVIDER-LAST-NAME      PIC X(30).
           05  PIC-PROVIDER-ADDR           PIC X(40).
           05  PIC-PROVIDER-CITY           PIC X(25).
           05  PIC-PROVIDER-STATE          PIC X(02).
           05  PIC-PROVIDER-ZIP-CODE       PIC X(05).
           05  PIC-PROVIDER-ZIP-PLUS-4     PIC X(04).
           05  PIC-CONTRACT-DATE           PIC X(08).
           05  PIC-CONTRACT-AMOUNT         PIC 9(09)V99 VALUE ZEROES.
           05  PIC-EXPIRATION-DATE         PIC X(08).
           05  PIC-CONTRACT-IND            PIC X(01) VALUE SPACES.
FP5148     05  PIC-VENDOR                  PIC X(09) VALUE SPACES.
FP5148     05  PIC-ADR-TYPE                PIC X(02) VALUE SPACES.
FP5148     05  PIC-DBA-ADDR                PIC X(01) VALUE SPACES.

020500 01  SYSTEM-DATE                 PIC 9(08)   VALUE ZEROES.
020600 01  WS-PARM-YEAR                PIC S9(8)   COMP
020800                                             VALUE ZEROES.
       01  WS-ZIP-CODE.
           05  WS-ZIP                  PIC X(05).
           05  FILLER                  PIC X(01).
           05  WS-ZIP-PLUS-4           PIC X(04).

       01  WS-SSN-CHECK.
           05 WS-SSN-PREFIX.
              10 WS-SSN-1ST-DIGIT      PIC X(01).
              10 FILLER                PIC X(02).
           05 FILLER                   PIC X(06).

       01  VALID-SSN-PREFIX            PIC X(03).
           88 VALID-SSN-1       VALUE '001' THRU '665'.
           88 VALID-SSN-2       VALUE '667' THRU '728'.
           88 VALID-SSN-3       VALUE '750' THRU '765'.

       01  VALIDATE-SSN                PIC X(09).
           88 SSN-ALL-ONES      VALUE '111111111'.
           88 SSN-ALL-THREES    VALUE '333333333'.
           88 SSN-ONE2NINE      VALUE '123456789'.

       01  WS-SERVICE-ACCT             PIC X(04) VALUE '6372'.
023100 01  WS-PREV-VENDOR              PIC X(09) VALUE SPACES.
       01  WS-1099-REPORTED            PIC 9(06).
       01  WS-PO-RECS-READ             PIC 9(06).
       01  WS-PO-RECS-REPORTED         PIC 9(06).
       01  WS-EDIT-ERRORS              PIC 9(06).
       01  PRNT-CNT                    PIC ZZZZZ9.
       01  MSG-TEXT                    PIC X(35).
       01  WS-TOTAL-VENDORS-REPORTED   PIC 9(11) VALUE ZEROES.
       01  WS-NAME-FIELD               PIC X(35).
       01  WS-FIRST-NAME               PIC X(16).
       01  WS-MIDDLE-INITIAL           PIC X(01).
       01  WS-LAST-NAME                PIC X(30).
       01  WS-FIRST-MIDDLE             PIC X(35).
       01  CONST-E                     PIC X(01) VALUE 'E'.
       01  CONST-P                     PIC X(01) VALUE 'P'.
       01  CONST-Y                     PIC X(01) VALUE 'Y'.
FP5148 01  REPORTING-YR                PIC X(02).

       01  UPLO-DATA                   PIC X(50).
       01  UPLO-CTRL                   PIC X(01) VALUE 'U'.
025000/
025100******************************************************************
025200*    DB2 ERROR HANDLING WORK AREA
025300******************************************************************

025500     EXEC SQL INCLUDE DB2ERRBW
025600     END-EXEC.
025700/
025800******************************************************************
025900*    SQL AREA AND TABLE DB2 TABLE DCLGENS
026000******************************************************************
                                                                        00002180
026200     EXEC SQL INCLUDE SQLCA
026300     END-EXEC.
026400/
026500 01  VDR-R4073-VENDOR-SQLAREA.
026600     05  FILLER                  PIC X(04)       VALUE 'VDR*'.
026700     05  VDR-COUNT               PIC 9(08)       VALUE ZEROES.
026800     05  VDR-SQLCODE             PIC S9(9)       COMP-4
026900                                                 VALUE +0.
027000     EXEC SQL INCLUDE HVVDR
027100     END-EXEC.
027200/
027300 01  TXX-R4153-1099-SQLAREA.
027400     05  FILLER                  PIC X(04)       VALUE 'TXX*'.
027500     05  TXX-COUNT               PIC 9(08)       VALUE ZEROES.
027600     05  TXX-SQLCODE             PIC S9(9)       COMP-4
027700                                                 VALUE +0.
027800     EXEC SQL INCLUDE HVTXX
027900     END-EXEC.
028000/
028100 01  POH-R4083-PO-HDR-SQLAREA.
028200     05  FILLER                  PIC X(04)       VALUE 'POH*'.
028300     05  POH-COUNT               PIC 9(08)       VALUE ZEROES.
028400     05  POH-SQLCODE             PIC S9(9)       COMP-4
028500                                                 VALUE +0.
028600     EXEC SQL INCLUDE HVPOH
028700     END-EXEC.
028800/
028900 01  POS-R4097-PO-HDR-SEQ-SQLAREA.
029000     05  FILLER                  PIC X(04)       VALUE 'POS*'.
029100     05  POS-COUNT               PIC 9(08)       VALUE ZEROES.
029200     05  POS-SQLCODE             PIC S9(9)       COMP-4
029300                                                 VALUE +0.
029400     EXEC SQL INCLUDE HVPOS
029500     END-EXEC.
029600/
029700 01  POD-R4085-PO-DTL-SQLAREA.
029800     05  FILLER                  PIC X(04)       VALUE 'POD*'.
029900     05  POD-COUNT               PIC 9(08)       VALUE ZEROES.
030000     05  POD-SQLCODE             PIC S9(9)       COMP-4
030100                                                 VALUE +0.
030200     EXEC SQL INCLUDE HVPOD
030300     END-EXEC.
030400/
030500 01  POA-R4061-PO-ACCT-SQLAREA.
030600     05  FILLER                  PIC X(04)       VALUE 'POA*'.
030700     05  POA-COUNT               PIC 9(08)       VALUE ZEROES.
030800     05  POA-SQLCODE             PIC S9(9)       COMP-4
030900                                                 VALUE +0.
031000     EXEC SQL INCLUDE HVPOA
031100     END-EXEC.
031200/
031300 01  PRS-R6117-PRSN-SQLAREA.
031400     05  FILLER                  PIC X(04)       VALUE 'PRS*'.
031500     05  PRS-COUNT               PIC 9(08)       VALUE ZEROES.
031600     05  PRS-SQLCODE             PIC S9(9)       COMP-4
031700                                                 VALUE +0.
031800     EXEC SQL INCLUDE HVPRS
031900     END-EXEC.
032000/
032100 01  PRA-R6139-PRSN-ADR-SQLAREA.
032200     05  FILLER                  PIC X(04)       VALUE 'PRA*'.
032300     05  PRA-COUNT               PIC 9(08)       VALUE ZEROES.
032400     05  PRA-SQLCODE             PIC S9(9)       COMP-4
032500                                                 VALUE +0.
032600     EXEC SQL INCLUDE HVPRA
032700     END-EXEC.
032800/
032900 01  ENT-R6311-ENTY-SQLAREA.
033000     05  FILLER                  PIC X(04)       VALUE 'ENT*'.
033100     05  ENT-COUNT               PIC 9(08)       VALUE ZEROES.
033200     05  ENT-SQLCODE             PIC S9(9)       COMP-4
033300                                                 VALUE +0.
033400     EXEC SQL INCLUDE HVENT
033500     END-EXEC.
033600/
033700 01  ENA-R6185-ENTY-ADR-SQLAREA.
033800     05  FILLER                  PIC X(04)       VALUE 'ENA*'.
033900     05  ENA-COUNT               PIC 9(08)       VALUE ZEROES.
034000     05  ENA-SQLCODE             PIC S9(9)       COMP-4
034100                                                 VALUE +0.
034200     EXEC SQL INCLUDE HVENA
034300     END-EXEC.
034400/
      ***************************************************************** 00002490
       PROCEDURE DIVISION.                                              00002500
034700/
       0000-START.                                                      00002510
                                                                        00002530
           PERFORM 9100-BOJ.                                            00002540
           PERFORM 1000-INITIALIZATION THRU 1000-EXIT.                  00002550

035300     PERFORM 2000-EXTRACT-1099   THRU 2000-EXIT.

035500     PERFORM 3000-EXTRACT-PO     THRU 3000-EXIT.

      *9000-END-OF-JOB.                                                 00002580
                                                                        00002590
           PERFORM 9400-EOJ.                                            00002600
           STOP RUN.                                                    00002610
                                                                        00002620
036600/
      ***************************************************************** 00002640
      *                      SUBROUTINE  DEFINITION                   * 00002650
      ***************************************************************** 00002660
                                                                        00002670
       1000-INITIALIZATION SECTION.                                     00002680
                                                                        00002690
           MOVE 'UAPX190' TO STD-WS-PROGRAM-NAME.
           MOVE 'INDEPENDENT CONTRACTOR REPORT' TO STD-WS-CRPT-DESCR-1
           MOVE 0 TO STD-WS-CRPT-RETAIN-DAYS.
           PERFORM 99999-STD-CRPT-BEGIN.
           PERFORM 99999-STD-CRPT-INPUT-CNTRL-HDR.

           READ DATEFILE INTO WORK-DATEFILE-REC                         00002880
               AT END                                                   00002880
                   MOVE 'NO ' TO ANY-MORE-DATEFILE.                     00002880
                                                                        00002890
           IF NO-MORE-DATEFILE                                          00002880
              MOVE 'DATEFILE DATA SET IS EMPTY' TO MSG-TEXT.
                                                                        00002900
           ACCEPT SYSTEM-DATE  FROM  DATE.                              00002910
           IF SYSTEM-DATE > 800000                                      00002920
             ADD 19000000  TO  SYSTEM-DATE                              00002930
           ELSE                                                         00002940
             ADD 20000000  TO  SYSTEM-DATE.                             00002950
                                                                        00003090
           MOVE WS-RUN-YEAR      TO WS-PARM-YEAR.
FP5148     MOVE WS-RUN-YEAR(3:2) TO REPORTING-YR.

039600     MOVE ZEROES TO WS-TOTAL-VENDORS-REPORTED
                          WS-EDIT-ERRORS
                          WS-1099-REPORTED
                          WS-PO-RECS-READ
                          WS-PO-RECS-REPORTED.

       1000-EXIT.                                                       00003160
           EXIT.                                                        00003170
040400/
040500 2000-EXTRACT-1099.
                                                                        00003180
040700     PERFORM 2500-OPEN-VDR-TXX-CURSOR.
040800
040900     PERFORM 2510-FETCH-VDR-TXX-CURSOR.
                                                                        00003200
041100     PERFORM 2100-SEARCH-1099-RECORDS THRU 2100-EXIT
041200         UNTIL VDR-SQLCODE = +100.
                                                                        00003200
041400     PERFORM 2520-CLOSE-VDR-TXX-CURSOR.
                                                                        00003200
       2000-EXIT.                                                       00003430
           EXIT.                                                        00003440
                                                                        00003800
041900 2100-SEARCH-1099-RECORDS.

042100     MOVE 'YES' TO THIS-NEW-VENDOR.
042200     PERFORM 4000-CHECK-REPORTED-VENDOR THRU 4000-EXIT.

042400     IF NEW-VENDOR
042700        PERFORM 4100-EDD-EXTRACT THRU 4100-EXIT.

042900     PERFORM 2510-FETCH-VDR-TXX-CURSOR.

043100 2100-EXIT.
           EXIT.
043300/
043400 2500-OPEN-VDR-TXX-CURSOR.
043500******************************************************************
043600*    OPEN THE VDR-TXX-CURSOR TO RETRIEVE VENDORS REPORTING
043700*    OVER $599.99.
043800******************************************************************

044000     MOVE '2500-OPEN-VDR-TXX-CURSOR' TO WS-ABEND-PARAGRAPH.
044100     MOVE +2500                      TO WS-ABEND-SQL-NBR.

044300     EXEC SQL
044400       DECLARE   VDR-TXX-CURSOR CURSOR FOR
044500         SELECT  VDR.VNDR_ID_DGT_ONE
044600                ,VDR.VNDR_ID_LST_NINE
044700                ,VDR.IREF_ID
044800                ,VDR.ENTPSN_IND
044900                ,VDR.ADR_TYP_CD
001MLJ                ,VDR.A1099_RPRT_ID
045000                ,SUM(TXX.RPRT_AMT)
045100           FROM  VDR_VENDOR_V       VDR
045200                ,TXX_1099_V         TXX
045300          WHERE  TXX.FK_VDR_IREF_ID = VDR.IREF_ID
                   AND TXX.FK_VDR_ENTPSN_IND = VDR.ENTPSN_IND
FP5148             AND VDR.ENTPSN_IND = 'P'
FP5148             AND TXX.RPRT_YR    = :REPORTING-YR
045400          GROUP BY
045500                 VDR.VNDR_ID_DGT_ONE
045600                ,VDR.VNDR_ID_LST_NINE
045700                ,VDR.IREF_ID
045800                ,VDR.ENTPSN_IND
045900                ,VDR.ADR_TYP_CD
001MLJ                ,VDR.A1099_RPRT_ID
046000          HAVING SUM(TXX.RPRT_AMT)  > 599.99
046100     END-EXEC.

046300     EXEC SQL
046400       OPEN      VDR-TXX-CURSOR
046500     END-EXEC.

046700     MOVE SQLCODE                TO VDR-SQLCODE.

046900     EVALUATE SQLCODE
047000       WHEN +0
047100         CONTINUE
047200       WHEN OTHER
047300         GO TO 9999-DB2-ERROR
047400     END-EVALUATE.
047500/
047600 2510-FETCH-VDR-TXX-CURSOR.
047700******************************************************************
047800*    GET THE NEXT ROW FOR VDR-TXX-CURSOR.
047900******************************************************************
048000
048100     MOVE '2510-FETCH-VDR-TXX-CURSOR' TO WS-ABEND-PARAGRAPH.
048200     MOVE +2510                       TO WS-ABEND-SQL-NBR.
048300
048400     EXEC SQL
048500         FETCH   VDR-TXX-CURSOR
048600          INTO  :VDR-VNDR-ID-DGT-ONE
048700               ,:VDR-VNDR-ID-LST-NINE
048800               ,:VDR-IREF-ID
048900               ,:VDR-ENTPSN-IND
049000               ,:VDR-ADR-TYP-CD
001MLJ               ,:VDR-A1099-RPRT-ID
049100               ,:TXX-RPRT-AMT
049200     END-EXEC.
                                                                        00003750
049400     MOVE SQLCODE                TO VDR-SQLCODE.
                                                                        00003800
049600     EVALUATE SQLCODE
049700       WHEN +0
049800         ADD 1                   TO VDR-COUNT
049900       WHEN +100
050000         CONTINUE
050100       WHEN OTHER
050200         GO TO 9999-DB2-ERROR
050300     END-EVALUATE.

050500 2520-CLOSE-VDR-TXX-CURSOR.
050600******************************************************************
050700*    CLOSE THE VDR-TXX-CURSOR.
050800******************************************************************
050900
051000     MOVE '2520-CLOSE-VDR-TXX-CURSOR' TO WS-ABEND-PARAGRAPH.
051100     MOVE +2520                       TO WS-ABEND-SQL-NBR.
051200
051300     EXEC SQL
051400         CLOSE   VDR-TXX-CURSOR
051500     END-EXEC.
051600
051700     MOVE SQLCODE                TO VDR-SQLCODE.
051800
051900     EVALUATE SQLCODE
052000       WHEN +0
052100         CONTINUE
052200       WHEN OTHER
052300         GO TO 9999-DB2-ERROR
052400     END-EVALUATE.
052500/
052600 3000-EXTRACT-PO.
052700
052800     PERFORM 3500-OPEN-VDR-POS-CURSOR.
052900
053000     PERFORM 3510-FETCH-VDR-POS-CURSOR.
053100
053200     PERFORM 3100-SEARCH-PO-RECORDS THRU 3100-EXIT
053300         UNTIL VDR-SQLCODE = +100.

053500     PERFORM 3520-CLOSE-VDR-POS-CURSOR.

053700 3000-EXIT.
           EXIT.

054000 3100-SEARCH-PO-RECORDS.

054200     MOVE 'YES' TO THIS-NEW-VENDOR.
054300     PERFORM 4000-CHECK-REPORTED-VENDOR THRU 4000-EXIT.

054500     IF NEW-VENDOR
054800        PERFORM 4200-PO-EDD-EXTRACT THRU 4200-EXIT.

055000     PERFORM 3510-FETCH-VDR-POS-CURSOR.
055100
055200 3100-EXIT.
           EXIT.
055400/
055500 3500-OPEN-VDR-POS-CURSOR.
055600******************************************************************
055700*    OPEN THE VDR-POS-CURSOR TO RETRIEVE VENDORS WITH YTD PO'S
055800*    FOR ACCOUNT#6372 EXCEEDING $599.99.
055900******************************************************************

056100     MOVE '3500-OPEN-VDR-POS-CURSOR' TO WS-ABEND-PARAGRAPH.
056200     MOVE +3500                      TO WS-ABEND-SQL-NBR.
056300
056400     EXEC SQL
056500       DECLARE   VDR-POS-CURSOR CURSOR FOR
056600         SELECT  VDR.VNDR_ID_DGT_ONE
056700                ,VDR.VNDR_ID_LST_NINE
056800                ,VDR.IREF_ID
056900                ,VDR.ENTPSN_IND
057000                ,VDR.ADR_TYP_CD
001MLJ                ,VDR.A1099_RPRT_ID
057100                ,POS.TOTAL_AMT
057200                ,POS.ORDER_DT
057300           FROM  VDR_VENDOR_V   VDR
057400                ,POH_PO_HDR     POH
057500                ,POS_PO_HDR_SEQ POS
057600          WHERE  VDR.A1099_RPRT_ID      > ' '
057700            AND  POH.FK_VDR_IREF_ID     = VDR.IREF_ID
057800            AND  POH.FK_VDR_ENTPSN_IND  = VDR.ENTPSN_IND
057900            AND  POS.FK_POH_PO_NBR      = POH.PO_NBR
058000            AND  POS.APRVL_IND          = 'Y'
058100            AND  POS.CNCL_IND          ^= 'Y'
058200            AND  POS.TOTAL_AMT          > 599.99
058300            AND  YEAR(POS.ORDER_DT)     = :WS-PARM-YEAR
058400            AND  599.99 <
058500                (SELECT  SUM(POA2.AMT)
058600                   FROM  POH_PO_HDR     POH2
058700                        ,POS_PO_HDR_SEQ POS2
058800                        ,POD_PO_DTL     POD2
058900                        ,POA_PO_ACCT    POA2
059000                  WHERE  POH2.FK_VDR_IREF_ID
059100                                        = VDR.IREF_ID
059200                    AND  POH2.FK_VDR_ENTPSN_IND
059300                                        = VDR.ENTPSN_IND
059400                    AND  POS2.FK_POH_PO_NBR
059500                                        = POS.FK_POH_PO_NBR
059600                    AND  POS2.CHNG_SEQ_NBR
059700                                        = POS.CHNG_SEQ_NBR
059800                    AND  POS2.FK_POH_PO_NBR
059900                                        = POH2.PO_NBR
060000                    AND  POD2.FK_POS_PO_NBR
060100                                        = POS2.FK_POH_PO_NBR
060200                    AND  POD2.FK_POS_CHG_SEQ_NBR
060300                                        = POS2.CHNG_SEQ_NBR
060400                    AND  POA2.FK_POD_PO_NBR
060500                                        = POD2.FK_POS_PO_NBR
060600                    AND  POA2.FK_POD_CHG_SEQ_NBR
060700                                        = POD2.FK_POS_CHG_SEQ_NBR
060800                    AND  POA2.FK_POD_ITEM_NBR
060900                                        = POD2.ITEM_NBR
061000                    AND  SUBSTR(POA2.ACCT_CD,1,4)
061100                                        = :WS-SERVICE-ACCT)
061200          ORDER BY
061300                 VDR.VNDR_ID_LST_NINE
061400                ,VDR.IREF_ID
061500                ,POS.ORDER_DT
061600     END-EXEC.
061700
061800     EXEC SQL
061900       OPEN      VDR-POS-CURSOR
062000     END-EXEC.
062100
062200     MOVE SQLCODE                TO VDR-SQLCODE.
062300
062400     EVALUATE SQLCODE
062500       WHEN +0
062600         CONTINUE
062700       WHEN OTHER
062800         GO TO 9999-DB2-ERROR
062900     END-EVALUATE.
063000/
063100 3510-FETCH-VDR-POS-CURSOR.
063200******************************************************************
063300*    GET THE NEXT ROW FOR VDR-POS-CURSOR.
063400******************************************************************
063500
063600     MOVE '3510-FETCH-VDR-POS-CURSOR' TO WS-ABEND-PARAGRAPH.
063700     MOVE +3510                       TO WS-ABEND-SQL-NBR.
063800
063900     EXEC SQL
064000         FETCH   VDR-POS-CURSOR
064100          INTO  :VDR-VNDR-ID-DGT-ONE
064200               ,:VDR-VNDR-ID-LST-NINE
064300               ,:VDR-IREF-ID
064400               ,:VDR-ENTPSN-IND
064500               ,:VDR-ADR-TYP-CD
001MLJ               ,:VDR-A1099-RPRT-ID
064600               ,:POS-TOTAL-AMT
064700               ,:POS-ORDER-DT
064800     END-EXEC.
064900
065000     MOVE SQLCODE                TO VDR-SQLCODE.
065100
065200     EVALUATE SQLCODE
065300       WHEN +0
065400         ADD 1                   TO WS-PO-RECS-READ
065500       WHEN +100
065600         CONTINUE
065700       WHEN OTHER
065800         GO TO 9999-DB2-ERROR
065900     END-EVALUATE.
066000
066100 3520-CLOSE-VDR-POS-CURSOR.
066200******************************************************************
066300*    CLOSE THE VDR-POS-CURSOR.
066400******************************************************************
066500
066600     MOVE '3520-CLOSE-VDR-POS-CURSOR' TO WS-ABEND-PARAGRAPH.
066700     MOVE +3520                       TO WS-ABEND-SQL-NBR.
066800
066900     EXEC SQL
067000         CLOSE   VDR-POS-CURSOR
067100     END-EXEC.
067200
067300     MOVE SQLCODE                TO VDR-SQLCODE.
067400
067500     EVALUATE SQLCODE
067600       WHEN +0
067700         CONTINUE
067800       WHEN OTHER
067900         GO TO 9999-DB2-ERROR
068000     END-EVALUATE.
068100/
       4000-CHECK-REPORTED-VENDOR.

068400     IF VDR-VNDR-ID-LST-NINE = WS-PREV-VENDOR
068500        MOVE 'NO ' TO THIS-NEW-VENDOR
068600        GO TO 4000-EXIT.
068700
FP5148     IF VDR-ENTPSN-IND   = 'E'
FP5148        MOVE 'NO ' TO THIS-NEW-VENDOR
FP5148        GO TO 4000-EXIT.
068700
068800     MOVE VDR-VNDR-ID-LST-NINE TO WS-PREV-VENDOR.
FP5148*    MOVE VDR-VNDR-ID-LST-NINE TO REPT-VENDOR-VSAM-KEY.
FP5148     MOVE VDR-A1099-RPRT-ID    TO REPT-VENDOR-VSAM-KEY.
069000
069100     READ REPORTED-VENDOR-FILE.
069200
069300     IF VSAM-FILE-ERROR
069400        MOVE 'VSAM READ ERROR' TO MSG-TEXT
069500        PERFORM 9900-ABORT.

           IF VSAM-STATUS-OK
FP5148*       DISPLAY  'VENDOR:' REPT-VENDOR-VSAM-KEY ' IN VSAM FILE'
              MOVE 'NO ' TO THIS-NEW-VENDOR.

       4000-EXIT.
           EXIT.
                                                                        00005300
070300
       4100-EDD-EXTRACT.

070600     MOVE SPACES                 TO WORK-PIC-EDDEXT-REC.
070700     MOVE 'PIC'                  TO PIC-REC-ID.
001MLJ     MOVE VDR-A1099-RPRT-ID      TO WS-SSN-CHECK.
           PERFORM 4155-VALIDATE-SSN THRU 4155-EXIT.
071000     MOVE WS-SSN-CHECK           TO PIC-PROVIDER-SSN.
071100
FP5148     MOVE VDR-VNDR-ID-LST-NINE   TO PIC-VENDOR.
FP5148     MOVE VDR-ADR-TYP-CD         TO PIC-ADR-TYPE.
071200     PERFORM 5000-GET-VENDOR-NAME THRU 5000-EXIT.
071300     MOVE WS-FIRST-NAME          TO PIC-PROVIDER-FIRST-NAME
071400     MOVE WS-MIDDLE-INITIAL      TO PIC-PROVIDER-MI.
071500     MOVE WS-LAST-NAME           TO PIC-PROVIDER-LAST-NAME.
071600     MOVE SYSTEM-DATE            TO PIC-CONTRACT-DATE.
071700     MOVE TXX-RPRT-AMT           TO PIC-CONTRACT-AMOUNT.
071800     MOVE SPACES                 TO PIC-EXPIRATION-DATE.
071900     MOVE 'Y'                    TO PIC-CONTRACT-IND.
           IF INVALID-SSN OR WS-FIRST-NAME = SPACES
FP5148     OR PIC-PROVIDER-ADDR = 'UNIV OF CALIF, SAN DIEGO'
              MOVE 'ERR' TO PIC-REC-ID
              WRITE ERROR-REC FROM WORK-PIC-EDDEXT-REC
              ADD 1 TO WS-EDIT-ERRORS
           ELSE
              WRITE EDDEXT-REC FROM WORK-PIC-EDDEXT-REC
              ADD 1 TO WS-TOTAL-VENDORS-REPORTED
              ADD 1 TO WS-1099-REPORTED.

       4100-EXIT.
           EXIT.


       4155-VALIDATE-SSN.

           MOVE 'YES' TO THIS-VALID-SSN.

FP5148     IF   WS-SSN-1ST-DIGIT  = 'F'
FP5148          MOVE 'NO ' TO THIS-VALID-SSN
FP5148          GO TO 4155-EXIT.

           MOVE WS-SSN-PREFIX TO VALID-SSN-PREFIX.
           IF NOT VALID-SSN-1 AND
              NOT VALID-SSN-2 AND
              NOT VALID-SSN-3
                MOVE 'NO ' TO THIS-VALID-SSN
                GO TO 4155-EXIT.

           MOVE WS-SSN-CHECK TO VALIDATE-SSN.
           IF SSN-ALL-ONES OR
              SSN-ALL-THREES OR
              SSN-ONE2NINE
                MOVE 'NO ' TO THIS-VALID-SSN.

       4155-EXIT.
           EXIT.

075300
       4200-PO-EDD-EXTRACT.
075500
075600     MOVE SPACES                 TO WORK-PIC-EDDEXT-REC.
075700     MOVE 'PIC'                  TO PIC-REC-ID.
      *    MOVE VDR-VNDR-ID-LST-NINE   TO WS-SSN-CHECK.
001MLJ     MOVE VDR-A1099-RPRT-ID      TO WS-SSN-CHECK.
075900     PERFORM 4155-VALIDATE-SSN THRU 4155-EXIT.
076000     MOVE WS-SSN-CHECK           TO PIC-PROVIDER-SSN.

FP5148     MOVE VDR-VNDR-ID-LST-NINE   TO PIC-VENDOR.
FP5148     MOVE VDR-ADR-TYP-CD         TO PIC-ADR-TYPE.
076200     PERFORM 5000-GET-VENDOR-NAME THRU 5000-EXIT.
076300     MOVE WS-FIRST-NAME          TO PIC-PROVIDER-FIRST-NAME
076400     MOVE WS-MIDDLE-INITIAL      TO PIC-PROVIDER-MI.
076500     MOVE WS-LAST-NAME           TO PIC-PROVIDER-LAST-NAME.
076600     MOVE POS-ORDER-DT(1:4)      TO PIC-CONTRACT-DATE(1:4).
076700     MOVE POS-ORDER-DT(6:2)      TO PIC-CONTRACT-DATE(5:2).
076800     MOVE POS-ORDER-DT(9:2)      TO PIC-CONTRACT-DATE(7:2).
076900     MOVE POS-TOTAL-AMT          TO PIC-CONTRACT-AMOUNT.
077000     MOVE SPACES                 TO PIC-EXPIRATION-DATE.
077100     MOVE 'Y'                    TO PIC-CONTRACT-IND.

           IF WS-FIRST-NAME = SPACES
              MOVE 'ERR' TO PIC-REC-ID
              WRITE ERROR-REC FROM WORK-PIC-EDDEXT-REC
              ADD 1 TO WS-EDIT-ERRORS
           ELSE
              WRITE EDDEXT-REC FROM WORK-PIC-EDDEXT-REC
              ADD 1 TO WS-TOTAL-VENDORS-REPORTED
              ADD 1 TO WS-PO-RECS-REPORTED.

       4200-EXIT.
           EXIT.
078300/
078400 5000-GET-VENDOR-NAME.
078500
078600     IF VDR-ENTPSN-IND = CONST-E
078700        PERFORM 5940-ENTITY-NAME-ADDRESS THRU 5940-EXIT
078800     ELSE
078900        PERFORM 5920-PERSON-NAME-ADDRESS THRU 5920-EXIT.
079000
079100     MOVE SPACES TO WS-LAST-NAME
079200                    WS-FIRST-MIDDLE
079300                    WS-FIRST-NAME
079400                    WS-MIDDLE-INITIAL.
079500
079600     MOVE WS-NAME-FIELD TO UPLO-DATA.
079700     CALL 'FUTUPLOS' USING UPLO-DATA UPLO-CTRL.
079800     MOVE UPLO-DATA TO WS-NAME-FIELD.
079900
080000     UNSTRING WS-NAME-FIELD DELIMITED BY ', '
080100        INTO WS-LAST-NAME
080200             WS-FIRST-MIDDLE
080300             WS-MIDDLE-INITIAL.
080400
080500     UNSTRING WS-FIRST-MIDDLE DELIMITED BY SPACE
080600        INTO WS-FIRST-NAME
080700             WS-MIDDLE-INITIAL.
080800
080900 5000-EXIT.
081000     EXIT.
081100/
081200 5920-PERSON-NAME-ADDRESS.
081300
081400     MOVE '5920-PERSON-NAME-ADDRESS' TO WS-ABEND-PARAGRAPH.
081500     MOVE +5920                      TO WS-ABEND-SQL-NBR.
081600
081700     EXEC SQL
081800         SELECT  PRS.NAME_KEY
081900           INTO :PRS-NAME-KEY
082000           FROM  PRS_PRSN_V PRS
082100          WHERE  PRS.IREF_ID = :VDR-IREF-ID
082200     END-EXEC.
082300
082400     MOVE SQLCODE                TO PRS-SQLCODE.
082500
082600     EVALUATE SQLCODE
082700       WHEN +0
082800         ADD 1                   TO PRS-COUNT
082900       WHEN +100
083000         MOVE SPACES             TO PRS-NAME-KEY
083100       WHEN OTHER
083200         GO TO 9999-DB2-ERROR
083300     END-EVALUATE.
083400
083500     MOVE PRS-NAME-KEY           TO WS-NAME-FIELD.
083600
083700     MOVE +5921                  TO WS-ABEND-SQL-NBR.

083900     EXEC SQL
084000         SELECT  PRA.LINE_ADR_2
FP5148               , PRA.LINE_ADR_3
084100               , PRA.CITY_NAME
084200               , PRA.STATE_CD
084300               , PRA.ZIP_CD
084400               , PRA.FK_ZIP_CNTRY_CD
084500           INTO :PRA-LINE-ADR-2
FP5148               ,:PRA-LINE-ADR-3
084600               ,:PRA-CITY-NAME
084700               ,:PRA-STATE-CD
084800               ,:PRA-ZIP-CD
084900               ,:PRA-FK-ZIP-CNTRY-CD
085000           FROM  PRA_PRSN_ADR_V PRA
085100          WHERE  PRA.FK_PRS_IREF_ID = :VDR-IREF-ID
085200            AND  PRA.ADR_TYP_CD     = :VDR-ADR-TYP-CD
085300            AND  PRA.END_DT         =
085400                (SELECT  MIN(PRA2.END_DT)
085500                   FROM  PRA_PRSN_ADR_V PRA2
085600                  WHERE  PRA2.FK_PRS_IREF_ID = :VDR-IREF-ID
085700                    AND  PRA2.ADR_TYP_CD     = :VDR-ADR-TYP-CD
085800                    AND  PRA2.END_DT        >= CURRENT DATE)
085900     END-EXEC.

086100     MOVE SQLCODE                TO PRA-SQLCODE.

086300     EVALUATE SQLCODE
086400       WHEN +0
086500         ADD 1                   TO PRA-COUNT
086600       WHEN +100
086700         MOVE SPACES             TO PRA-LINE-ADR-2
FP5148                                    PRA-LINE-ADR-3
086800                                    PRA-CITY-NAME
086900                                    PRA-STATE-CD
087000                                    PRA-ZIP-CD
087100                                    PRA-FK-ZIP-CNTRY-CD
087200         DISPLAY 'NO ADDRESS FOR: ' VDR-VNDR-ID-LST-NINE
087300         GO TO 5920-EXIT
087400       WHEN OTHER
087500         GO TO 9999-DB2-ERROR
087600     END-EVALUATE.

      *                           MAKE ALL DATA UPPERCASE
087900     MOVE PRA-LINE-ADR-2             TO UPLO-DATA.
           CALL 'FUTUPLOS' USING UPLO-DATA UPLO-CTRL.
088100     MOVE UPLO-DATA                  TO PRA-LINE-ADR-2.

FP5148     IF   PRA-LINE-ADR-2 (1:3)        = 'DBA'
FP5148          MOVE PRA-LINE-ADR-3        TO UPLO-DATA
FP5148          CALL 'FUTUPLOS' USING UPLO-DATA UPLO-CTRL
FP5148          MOVE UPLO-DATA             TO PRA-LINE-ADR-2
FP5148          MOVE 'Y'                   TO PIC-DBA-ADDR
FP5148     END-IF.

088300     MOVE PRA-CITY-NAME              TO UPLO-DATA.
           CALL 'FUTUPLOS' USING UPLO-DATA UPLO-CTRL.
088500     MOVE UPLO-DATA                  TO PRA-CITY-NAME.

088700     MOVE PRA-STATE-CD               TO UPLO-DATA.
           CALL 'FUTUPLOS' USING UPLO-DATA UPLO-CTRL.
088900     MOVE UPLO-DATA                  TO PRA-STATE-CD.

089100     MOVE PRA-LINE-ADR-2             TO PIC-PROVIDER-ADDR.
089200     MOVE PRA-CITY-NAME              TO PIC-PROVIDER-CITY.
089300     MOVE PRA-STATE-CD               TO PIC-PROVIDER-STATE.
089400     MOVE PRA-ZIP-CD                 TO WS-ZIP-CODE.
089500     IF PRA-STATE-CD = SPACES
089600        MOVE PRA-FK-ZIP-CNTRY-CD     TO UPLO-DATA
              CALL 'FUTUPLOS' USING UPLO-DATA UPLO-CTRL
089800        MOVE UPLO-DATA               TO PRA-FK-ZIP-CNTRY-CD
089900        MOVE PRA-FK-ZIP-CNTRY-CD     TO PIC-PROVIDER-STATE
              MOVE SPACES                  TO PIC-PROVIDER-ZIP-CODE
           ELSE
090100        MOVE WS-ZIP                  TO PIC-PROVIDER-ZIP-CODE
090200     END-IF.
           MOVE WS-ZIP-PLUS-4              TO PIC-PROVIDER-ZIP-PLUS-4.

       5920-EXIT.
           EXIT.
090700/
090800 5940-ENTITY-NAME-ADDRESS.
090900
091000     MOVE '5940-ENTITY-NAME-ADDRESS' TO WS-ABEND-PARAGRAPH.
091100     MOVE +5940                      TO WS-ABEND-SQL-NBR.
091200
091300     EXEC SQL
091400         SELECT  ENT.NAME_KEY
091500           INTO :ENT-NAME-KEY
091600           FROM  ENT_ENTY_V ENT
091700          WHERE  ENT.IREF_ID          = :VDR-IREF-ID
091800            AND  ENT.ENTY_ID_DGT_ONE  = :VDR-VNDR-ID-DGT-ONE
091900            AND  ENT.ENTY_ID_LST_NINE = :VDR-VNDR-ID-LST-NINE
092000     END-EXEC.
092100
092200     MOVE SQLCODE                TO ENT-SQLCODE.
092300
092400     EVALUATE SQLCODE
092500       WHEN +0
092600         ADD 1                   TO ENT-COUNT
092700       WHEN +100
092800         MOVE SPACES             TO ENT-NAME-KEY
092900       WHEN OTHER
093000         GO TO 9999-DB2-ERROR
093100     END-EVALUATE.
093200
093300     MOVE ENT-NAME-KEY           TO WS-NAME-FIELD.

093500     MOVE +5941                  TO WS-ABEND-SQL-NBR.

093700     EXEC SQL
093800         SELECT  ENA.LINE_ADR_2
FP5148               , ENA.LINE_ADR_3
093900               , ENA.CITY_NAME
094000               , ENA.STATE_CD
094100               , ENA.ZIP_CD
094200               , ENA.FK_ZIP_CNTRY_CD
094300           INTO :ENA-LINE-ADR-2
FP5148               ,:ENA-LINE-ADR-3
094400               ,:ENA-CITY-NAME
094500               ,:ENA-STATE-CD
094600               ,:ENA-ZIP-CD
094700               ,:ENA-FK-ZIP-CNTRY-CD
094800           FROM  ENA_ENTY_ADR_V ENA
094900          WHERE  ENA.FK_ENT_ENTY_ONE  = :VDR-VNDR-ID-DGT-ONE
095000            AND  ENA.FK_ENT_ENTY_NINE = :VDR-VNDR-ID-LST-NINE
095100            AND  ENA.ADR_TYP_CD       = :VDR-ADR-TYP-CD
095200            AND  ENA.END_DT           =
095300                (SELECT  MIN(ENA2.END_DT)
095400                   FROM  ENA_ENTY_ADR_V ENA2
095500                  WHERE  ENA2.FK_ENT_ENTY_ONE
095600                                          = :VDR-VNDR-ID-DGT-ONE
095700                    AND  ENA2.FK_ENT_ENTY_NINE
095800                                          = :VDR-VNDR-ID-LST-NINE
095900                    AND  ENA2.ADR_TYP_CD  = :VDR-ADR-TYP-CD
096000                    AND  ENA2.END_DT     >= CURRENT DATE)
096100     END-EXEC.

096300     MOVE SQLCODE                TO ENA-SQLCODE.

096500     EVALUATE SQLCODE
096600       WHEN +0
096700         ADD 1                   TO ENA-COUNT
096800       WHEN +100
096900         MOVE SPACES             TO ENA-LINE-ADR-2
FP5148                                    ENA-LINE-ADR-3
097000                                    ENA-CITY-NAME
097100                                    ENA-STATE-CD
097200                                    ENA-ZIP-CD
097300                                    ENA-FK-ZIP-CNTRY-CD
097400         DISPLAY 'NO ADDRESS FOR: ' VDR-VNDR-ID-LST-NINE
097500         GO TO 5940-EXIT
097600       WHEN OTHER
097700         GO TO 9999-DB2-ERROR
097800     END-EVALUATE.

      *                           MAKE ALL DATA UPPERCASE
098100     MOVE ENA-LINE-ADR-2             TO UPLO-DATA.
           CALL 'FUTUPLOS' USING UPLO-DATA UPLO-CTRL.
098300     MOVE UPLO-DATA                  TO ENA-LINE-ADR-2.

FP5148     IF   ENA-LINE-ADR-2 (1:3)        = 'DBA'
FP5148          MOVE ENA-LINE-ADR-3        TO UPLO-DATA
FP5148          CALL 'FUTUPLOS' USING UPLO-DATA UPLO-CTRL
FP5148          MOVE UPLO-DATA             TO ENA-LINE-ADR-2
FP5148          MOVE 'Y'                   TO PIC-DBA-ADDR
FP5148     END-IF.

098500     MOVE ENA-CITY-NAME              TO UPLO-DATA.
           CALL 'FUTUPLOS' USING UPLO-DATA UPLO-CTRL.
098700     MOVE UPLO-DATA                  TO ENA-CITY-NAME.

098900     MOVE ENA-STATE-CD               TO UPLO-DATA.
           CALL 'FUTUPLOS' USING UPLO-DATA UPLO-CTRL.
099100     MOVE UPLO-DATA                  TO ENA-STATE-CD.

099300     MOVE ENA-LINE-ADR-2             TO PIC-PROVIDER-ADDR.
099400     MOVE ENA-CITY-NAME              TO PIC-PROVIDER-CITY.
099500     MOVE ENA-STATE-CD               TO PIC-PROVIDER-STATE.
099600     MOVE ENA-ZIP-CD                 TO WS-ZIP-CODE.
099700     IF ENA-STATE-CD = SPACES
099800        MOVE ENA-FK-ZIP-CNTRY-CD     TO UPLO-DATA
              CALL 'FUTUPLOS' USING UPLO-DATA UPLO-CTRL
100000        MOVE UPLO-DATA               TO ENA-FK-ZIP-CNTRY-CD
100100        MOVE ENA-FK-ZIP-CNTRY-CD     TO PIC-PROVIDER-STATE
              MOVE SPACES                  TO PIC-PROVIDER-ZIP-CODE
           ELSE
100300        MOVE WS-ZIP                  TO PIC-PROVIDER-ZIP-CODE
100400     END-IF.
100500     MOVE WS-ZIP-PLUS-4              TO PIC-PROVIDER-ZIP-PLUS-4.

       5940-EXIT.
           EXIT.
100900/
      *----------------------  UTILITY  ROUTINES  --------------------* 00006710
                                                                        00006720
                                                                        00006730
      ****************************************************************  00006740
      *  THE FOLLOWING PARAGRAPH WILL OPEN EXTERNAL OUTPUT FILES        00006750
      *  AND PRINT A STARTING JOB MESSAGE                               00006760
      ****************************************************************  00006770
       9100-BOJ SECTION.                                                00006780
                                                                        00006790
           OPEN INPUT  DATEFILE                                         00006820
                OUTPUT EDDEXT                                           10570009
                       ERREXT.
                                                                        00006850
           OPEN INPUT REPORTED-VENDOR-FILE.
           IF VSAM-STATUS-OK
              NEXT SENTENCE
           ELSE
              DISPLAY 'VSAM OPEN ERROR ' VSAM-FILE-STATUS
              MOVE 'VSAM OPEN ERROR ' TO MSG-TEXT
              PERFORM 9900-ABORT.

       9100-EXIT.                                                       00006860
           EXIT.                                                        00006870
                                                                        00006880
      ****************************************************************  00008130
      *  THE FOLLOWING PARAGRAPH WILL CLOSE EXTERNAL FILES, FINISH      00008140
      *  THE RUN UNIT AND PRINT JOB STATISTICS                          00008150
      ****************************************************************  00008160
       9400-EOJ SECTION.                                                00008180
                                                                        00008190
           CLOSE DATEFILE                                               00008280
                 EDDEXT
104300           ERREXT
                 REPORTED-VENDOR-FILE.
                                                                        00008310
           PERFORM 99999-STD-CRPT-WRITE-STATS.                          11120021
           PERFORM 99999-STD-CRPT-FINISH.                               11130021
                                                                        11140021
       9400-EXIT.                                                       00008320
           EXIT.                                                        00008330
                                                                        00008340
      ****************************************************************  00008350
      *  THE FOLLOWING PARAGRAPH WILL PRINT JOB STATISTICS              00008360
      ****************************************************************  00008370
                                                                        00008380
       9800-PRINT-MESSAGES SECTION.                                     00008390
                                                                        00008400
           MOVE ' ' TO STD-WS-CRPT-LINE.                                11240021
           PERFORM 99999-STD-CRPT-WRITE-LINE.                           11250021
           MOVE 'NON-FATAL ERROR HAS OCCURED' TO STD-WS-CRPT-LINE.      11320001
           PERFORM 99999-STD-CRPT-WRITE-LINE.                           11330001
           MOVE ' ' TO STD-WS-CRPT-LINE.                                11340001
           STRING 'ERROR:  ' DELIMITED BY SIZE                          11290021
                   MSG-TEXT  DELIMITED BY SIZE                          11300021
             INTO STD-WS-CRPT-LINE.                                     11370001
           PERFORM 99999-STD-CRPT-WRITE-LINE.                           11380001
                                                                        00008420
       9800-EXIT.                                                       00008430
           EXIT.                                                        00008440
107100/
       99999-STDCD-SECTION SECTION.                                     11370021
107300
       COPY STDCD.                                                      11380021
                                                                        00008450
           MOVE ' ' TO STD-WS-CRPT-LINE.                                11400022
107700     MOVE VDR-COUNT         TO PRNT-CNT.
           STRING '1099 VENDORS READ      = ' DELIMITED BY SIZE         11420022
                  PRNT-CNT                  DELIMITED BY SIZE           11430022
             INTO STD-WS-CRPT-LINE.                                     11440022
           PERFORM 99999-STD-CRPT-WRITE-LINE.                           11450022
                                                                        00008450
           MOVE ' ' TO STD-WS-CRPT-LINE.                                11400022
           MOVE WS-1099-REPORTED TO PRNT-CNT.                           11410022
           STRING '1099 VENDORS REPORTED  = ' DELIMITED BY SIZE         11420022
                  PRNT-CNT                  DELIMITED BY SIZE           11430022
             INTO STD-WS-CRPT-LINE.                                     11440022
           PERFORM 99999-STD-CRPT-WRITE-LINE.                           11450022
                                                                        00008450
           MOVE ' ' TO STD-WS-CRPT-LINE.                                11400022
           MOVE WS-PO-RECS-READ TO PRNT-CNT.                            11410022
           STRING 'PO VENDORS READ        = ' DELIMITED BY SIZE         11420022
                  PRNT-CNT                  DELIMITED BY SIZE           11430022
             INTO STD-WS-CRPT-LINE.                                     11440022
           PERFORM 99999-STD-CRPT-WRITE-LINE.                           11450022
                                                                        00008450
           MOVE ' ' TO STD-WS-CRPT-LINE.                                11400022
           MOVE WS-PO-RECS-REPORTED TO PRNT-CNT.                        11410022
           STRING 'PO VENDORS REPORTED    = ' DELIMITED BY SIZE         11420022
                  PRNT-CNT                  DELIMITED BY SIZE           11430022
             INTO STD-WS-CRPT-LINE.                                     11440022
           PERFORM 99999-STD-CRPT-WRITE-LINE.                           11450022
                                                                        00008450
           MOVE ' ' TO STD-WS-CRPT-LINE.                                11400022
           MOVE WS-TOTAL-VENDORS-REPORTED TO PRNT-CNT.                  11410022
           STRING 'TOTAL VENDORS REPORTED = ' DELIMITED BY SIZE         11420022
                  PRNT-CNT                  DELIMITED BY SIZE           11430022
             INTO STD-WS-CRPT-LINE.                                     11440022
           PERFORM 99999-STD-CRPT-WRITE-LINE.                           11450022
                                                                        00008450
           MOVE ' ' TO STD-WS-CRPT-LINE.                                11400022
           MOVE WS-EDIT-ERRORS TO PRNT-CNT.                             11410022
           STRING 'SSN OR NAME ERRORS     = ' DELIMITED BY SIZE         11420022
                  PRNT-CNT                  DELIMITED BY SIZE           11430022
             INTO STD-WS-CRPT-LINE.                                     11440022
           PERFORM 99999-STD-CRPT-WRITE-LINE.                           11450022
                                                                        11460022
                                                                        11680021
       99999-STDCD-SECTION-EXIT.                                        11690021
           EXIT.                                                        11700021
      /                                                                 11710021
       9900-ABORT SECTION.                                              00008460
                                                                        00008470
           MOVE ' ' TO STD-WS-CRPT-LINE.                                11740021
           PERFORM 99999-STD-CRPT-WRITE-LINE.                           11750021
           MOVE 'FATAL ERROR ABORT PROGRAM' TO STD-WS-CRPT-LINE.        11760021
           PERFORM 99999-STD-CRPT-WRITE-LINE.                           11770021
           MOVE ' ' TO STD-WS-CRPT-LINE.                                11780021
           STRING 'ERROR:  ' DELIMITED BY SIZE                          11790021
                   MSG-TEXT  DELIMITED BY SIZE                          11800021
             INTO STD-WS-CRPT-LINE.                                     11810021
           PERFORM 99999-STD-CRPT-WRITE-LINE.                           11820021
           MOVE 'Y' TO STD-WS-PROGRAM-FAILED.                           11830021
                                                                        00008530
113500     MOVE 'ROLLBACK PERFORMED' TO STD-WS-CRPT-LINE.
113600     PERFORM 99999-STD-CRPT-WRITE-LINE.
                                                                        00008630
           PERFORM 99999-STD-CRPT-WRITE-STATS.                          11632018
           PERFORM 99999-STD-CRPT-FINISH.                               11633018
                                                                        11640000
           MOVE 0016 TO RETURN-CODE.                                    00008640
           STOP RUN.                                                    00008650
                                                                        00008660
       9900-EXIT.                                                       00008670
           EXIT.                                                        00008680
114600/
114700 9999-DB2-ERROR.
114800
114900     MOVE ' ' TO STD-WS-CRPT-LINE.
115000     PERFORM 99999-STD-CRPT-WRITE-LINE.
115100     MOVE 'FATAL DB2 ERROR ABORT PROGRAM' TO STD-WS-CRPT-LINE.
115200     PERFORM 99999-STD-CRPT-WRITE-LINE.
115300     MOVE ' ' TO STD-WS-CRPT-LINE.
115400     MOVE 'SEE DB2 ERROR SYSOUT DISPLAYS' TO MSG-TEXT.
115500     STRING 'ERROR:  ' DELIMITED BY SIZE
115600             MSG-TEXT  DELIMITED BY SIZE
115700       INTO STD-WS-CRPT-LINE.
115800     PERFORM 99999-STD-CRPT-WRITE-LINE.
115900     MOVE 'Y' TO STD-WS-PROGRAM-FAILED.
116000
116100     MOVE 'ROLLBACK PERFORMED' TO STD-WS-CRPT-LINE.
116200     PERFORM 99999-STD-CRPT-WRITE-LINE.
116300
116400     PERFORM 99999-STD-CRPT-WRITE-STATS.
116500     PERFORM 99999-STD-CRPT-FINISH.
116600
116700******************************************************************
116800*    DB2ERRBP - DB2-ERROR-ROUTINE   (DB2 ERROR HANDLING ROUTINE)
116900*    DB2ERRBP:  DISPLAY DB2 ERROR MSG TO SYSOUT, ROLLBACK UPDATES,
117000*    SET RETURN-CODE TO '9', AND CALL 'ABORT' TO PRODUCE A DUMP.
117100******************************************************************
117200     MOVE 'UAPX190'              TO DB2-PROGRAM-NAME.
117300     MOVE WS-ABEND-SQL-NBR       TO DB2-DML-NUMBER.
117400     MOVE SQLCODE                TO WS-ABEND-CODE.
                                                                        00008830
117600     DISPLAY 'ABNORMAL DB2 ERROR DETECTED IN PROGRAM '
117700                                    DB2-PROGRAM-NAME
117800     DISPLAY 'LAST PARAGRAPH ENTERED WAS '
117900                                    WS-ABEND-PARAGRAPH.
118000     DISPLAY 'PARAGRAPH / SQL NUMBER = '
118100                                    DB2-DML-NUMBER.
118200     DISPLAY 'DB2 SQLCODE = '       WS-ABEND-CODE.
                                                                        12240021
118400     EXEC SQL INCLUDE DB2ERRBP
118500     END-EXEC.
