       IDENTIFICATION DIVISION.
       PROGRAM-ID. UDSF140.
       AUTHOR.        SCOTT S. STECKBAUER (TIERRA SYSTEMS).
       DATE-WRITTEN.  APRIL 1996.
       DATE-COMPILED.
      ******************************************************************
      ******************************************************************
      **                                                              **
      **  IFIS  -  PURCHASING - VENDOR TYPE EXTRACT                   **
      **                                                              **
      **  THIS PROGRAM SWEEPS THE F-VENDOR AREA FOR ALL OF THE        **
      **  R416-VNDR-TYPE RECORDS AND WRITES THEM OUT TO A FLAT FILE.  **
      **                                                              **
      ******************************************************************
      **                                                              **
      **  SUBSCHEMA RECORDS:  R4166-VNDR-TYPE                         **
      **                                                              **
      **  OUTPUT:   VENDOR-TYPE-FILE                                  **
      **                                                              **
      ******************************************************************
      **                                                              **
      **                   CHANGE HISTORY                             **
      **                                                              **
      **  REF  AUTH    DATE     DESCRIPTION                  CSR NO.  **
      **  ---  ----   ------   ---------------------------  --------- **
      **       SSS   04/10/96  ORIGINAL VERSION OF PGM.      CDS-012  **
      **                                                              **
      ******************************************************************
      ******************************************************************

           EJECT

      *%****************************************************************
      *%                                                               *
      *%  Converted using Forecross Corporation Redeployment Software  *
      *%                                                               *
      *%               Convert/IDMS-DB Version 8 Release 01            *
      *%                                                               *
      *%                Converted on 10/20/00 at 14:15                 *
      *%                                                               *
      *%****************************************************************
      *%              COPYRIGHT FORECROSS CORPORATION                  *
      *%                2000  ALL RIGHTS RESERVED                      *
      *%****************************************************************
           COPY CBCVDBNT.

      /
      *%-------------------------------------------------------------- *
      *%
      *%  *** TABLE VIEWS USED IN THIS PROGRAM
      *%
      *%VDT_VNDR_TYP_V        R4166-VNDR-TYPE                  CBL CPY
      *%
      *%  *** CURSORS DECLARED IN THIS PROGRAM
      *%
      *%CURSOR S_INDX_VNDR_TYPE_N - FORWARD SUBSET OF R4166-VNDR-TYPE
      *%
      *%  *** SUBROUTINES GENERATED FOR THIS PROGRAM
      *%
      *%000-SQL-INITIALIZATION
      *%986-RESET-KEYS
      *%906-00N-S-INDX-VNDR-TYPE
      *%985-CURR-R4166-VNDR-TYPE
      *%996-COMMIT
      *%
      *%-------------------------------------------------------------- *
       ENVIRONMENT DIVISION.
       CONFIGURATION SECTION.
       SOURCE-COMPUTER.
       OBJECT-COMPUTER.

       INPUT-OUTPUT SECTION.
       FILE-CONTROL.

           SELECT  VENDOR-TYPE-FILE   ASSIGN  TO  VENTPLK.


      *IDMS-CONTROL SECTION.
      *PROTOCOL.   MODE IS       BATCH-AUTOSTATUS DEBUG.
      *%           IDMS-RECORDS  MANUAL.

       DATA DIVISION.
      *SCHEMA SECTION.

      *DB  FAPSBA02  WITHIN  FIMSNTWN.

       FILE SECTION.

      ******************************************************************
      **   VENDOR TYPE FILE                                           **
      ******************************************************************

       FD  VENDOR-TYPE-FILE
           RECORDING  MODE    IS  F
           LABEL   RECORDS   ARE  STANDARD
           BLOCK   CONTAINS    0  RECORDS
           RECORD  CONTAINS  080  CHARACTERS.

       01  VENDOR-TYPE-RECORD     PIC  X(080).

           EJECT

      ******************************************************************

       WORKING-STORAGE SECTION.
      ******************************************************************

       01  DBLINK-USER-CD   PIC X(8) VALUE 'UDSF140'.
       01  WS-BEGINNING-DISPLAY.
           05  FILLER                         PIC  X(45)  VALUE
               '**  WORKING STORAGE BEGINS HERE            **'.

      ******************************************************************
      **   VENDOR TYPE RECORD LAYOUT                                  **
      ******************************************************************

       01  FILLER                             PIC  X(45)  VALUE
               '**  VENDOR TYPE RECORD BEGINS HERE         **'.

       01  VENDOR-TYPE-REC.
           05  UNVRS-CODE                     PIC  X(02)  VALUE SPACES.
           05  VNDR-TYPE-CODE                 PIC  X(02)  VALUE SPACES.
           05  VNDR-TYPE-DESC                 PIC  X(35)  VALUE SPACES.
           05  ACTVY-DATE                     PIC  X(08)  VALUE SPACES.
           05  START-DATE                     PIC  X(08)  VALUE SPACES.
           05  END-DATE                       PIC  X(08)  VALUE SPACES.
           05  REFRESH-DATE-TIME.
               10  REFRESH-DATE               PIC  X(08)  VALUE SPACES.
               10  FILLER                     PIC  X(01)  VALUE SPACES.
               10  REFRESH-TIME               PIC  X(05)  VALUE SPACES.
           05  FILLER                         PIC  X(03)  VALUE SPACES.


       01  FILLER                             PIC  X(45)  VALUE
               '**  VENDOR TYPE RECORD ENDS HERE           **'.

           EJECT

      ******************************************************************
      **   PROGRAM SWITCHES                                           **
      ******************************************************************

       01  FILLER                             PIC  X(45)  VALUE
               '**  SWITCH WS AREA BEGINS HERE             **'.

       01  WS-SWITCHES.
           05  SW-NO-MORE-R4166-RECS          PIC  X(01).

       01  FILLER                             PIC  X(45)  VALUE
               '**  SWITCH WS AREA ENDS HERE               **'.

      ******************************************************************
      **   PROGRAM COUNTERS                                           **
      ******************************************************************

       01  FILLER                             PIC  X(45)  VALUE
               '**  COUNTER WS AREA BEGINS HERE            **'.

       01  WS-COUNTERS         COMP-3.
           05  CTR-R4166-RECS-OBTND           PIC S9(07)     VALUE +0.
           05  CTR-VNDR-TYPE-RECS-WRTN        PIC S9(07)     VALUE +0.

       01  WS-COUNTERS-Z.
           05  CTR-R4166-RECS-OBTND-Z         PIC  ZZZZZZZ9.
           05  CTR-VNDR-TYPE-RECS-WRTN-Z      PIC  ZZZZZZZ9.

       01  FILLER                             PIC  X(45)  VALUE
               '**  COUNTER WS AREA ENDS HERE              **'.

           EJECT

      ******************************************************************
      **   MISC WORKING STOREAGE FIELDS                               **
      ******************************************************************

       01  FILLER                             PIC  X(45)  VALUE
               '**  MISC WS FIELDS AREA BEGINS HERE        **'.

       01  MISC-WS-FIELDS.
           05  WS-FORMATTED-TIME.
               10  WS-FORM-HH                 PIC  9(02).
               10  FILLER                     PIC  X(01)  VALUE ':'.
               10  WS-FORM-MM                 PIC  9(02).

       01  FILLER                             PIC  X(45)  VALUE
               '**  MISC WS FIELDS AREA ENDS HERE          **'.

           EJECT

      ******************************************************************
      **   CURRENT TIME                                               **
      ******************************************************************

       01  FILLER                             PIC  X(45)  VALUE
               '**  CURRENT TIME WS AREA BEGINS HERE       **'.

       01  WS-TIME.
           05  WS-TIME-HRS                    PIC  9(02)  VALUE ZEROES.
           05  WS-TIME-FLDS.
               10  WS-TIME-MM                 PIC  9(02)  VALUE ZEROES.
               10  WS-TIME-SS                 PIC  9(02)  VALUE ZEROES.
           05  WS-TIME-FLDS-N  REDEFINES  WS-TIME-FLDS
                                              PIC  9(04).

       01  FILLER                             PIC  X(45)  VALUE
               '**  CURRENT TIME WS AREA ENDS HERE         **'.

      ******************************************************************
      **   CURRENT DATE                                               **
      ******************************************************************

       01  FILLER                             PIC  X(45)  VALUE
               '**  CURRENT DATE WS AREA BEGINS HERE       **'.

       01  WS-CURRENT-DATE.
           05  WS-CENTURY                     PIC  9(02)  VALUE ZEROES.
           05  WS-ACCEPT-DATE.
               10  WS-DATE-YEAR               PIC  9(02)  VALUE ZEROES.
               10  WS-DATE-MONTH              PIC  9(02)  VALUE ZEROES.
               10  WS-DATE-DAY                PIC  9(02)  VALUE ZEROES.

       01  FILLER                             PIC  X(45)  VALUE
               '**  CURRENT DATE WS AREA ENDS HERE         **'.

           EJECT

      ******************************************************************
      **   IDMS/R DICTIONARY RECORDS USED BY PROGRAM                  **
      ******************************************************************

       01  FILLER                             PIC  X(45)  VALUE
               '**  IDMS SUBSCHEMA CONTROL BEGINS HERE     **'.

      *01  COPY  IDMS  SUBSCHEMA-CONTROL.
       01  SUBSCHEMA-CONTROL  PIC X.

       01  FILLER                             PIC  X(45)  VALUE
               '**  IDMS SUBSCHEMA CONTROL ENDS HERE       **'.

           EJECT

       01  FILLER                             PIC  X(45)  VALUE
               '**  R4166-VNDR-TYPE RECORD BEGINS HERE     **'.


      *%****************************** *
      *% VDT_VNDR_TYP_V DATA VIEW AREAS
      *%****************************** *
      *%   COPY CBID4166.
CPYNME     COPY R4166.
      *01  COPY  IDMS  R4166-VNDR-TYPE.

       01  FILLER                             PIC  X(45)  VALUE
               '**  R4166-VNDR-TYPE RECORD ENDS HERE       **'.


       01  WS-ENDING-DISPLAY.
           05  FILLER                         PIC  X(45)  VALUE
               '**  WORKING STORAGE ENDS HERE              **'.

           EJECT

           EXEC SQL
               INCLUDE CBCVDBCA
           END-EXEC.

      /
      *%-------------------------------------------------------------- *
      *%                                                               *
      *%          STANDARD CONVERT/DB COMMUNICATION AREAS              *
      *%                                                               *
      *%-------------------------------------------------------------- *
           COPY CBCVDBXD.
           COPY BTCHWS.
       01  DBLINK-NAMES.
           05  DBLINK-SCHEMA-NAME.
               10  FILLER                   PIC X(8)
                       VALUE 'FIMSNTWN'.
           05  DBLINK-RECORD-NAMES.
               10  DBLINK-R4000-COA         PIC X(16)
                       VALUE 'R4000-COA'.
               10  DBLINK-R4001-FUND        PIC X(16)
                       VALUE 'R4001-FUND'.
               10  DBLINK-R4002-ORGN        PIC X(16)
                       VALUE 'R4002-ORGN'.
               10  DBLINK-R4003-ACCT        PIC X(16)
                       VALUE 'R4003-ACCT'.
               10  DBLINK-R4004-PROG        PIC X(16)
                       VALUE 'R4004-PROG'.
               10  DBLINK-R4006-LCTN        PIC X(16)
                       VALUE 'R4006-LCTN'.
               10  DBLINK-R4008-FNDT        PIC X(16)
                       VALUE 'R4008-FNDT'.
               10  DBLINK-R4011-SYSDAT      PIC X(16)
                       VALUE 'R4011-SYSDAT'.
               10  DBLINK-R4014-ACTT        PIC X(16)
                       VALUE 'R4014-ACTT'.
               10  DBLINK-R4016-BDGT-CTRL   PIC X(16)
                       VALUE 'R4016-BDGT-CTRL'.
               10  DBLINK-R4021-CTRL-ACCTS  PIC X(16)
                       VALUE 'R4021-CTRL-ACCTS'.
               10  DBLINK-R4026-INDRT-COST  PIC X(16)
                       VALUE 'R4026-INDRT-COST'.
               10  DBLINK-R4030-COST-SHARE  PIC X(16)
                       VALUE 'R4030-COST-SHARE'.
               10  DBLINK-R4033-BANK        PIC X(16)
                       VALUE 'R4033-BANK'.
               10  DBLINK-R4035-PAY-MTHD    PIC X(16)
                       VALUE 'R4035-PAY-MTHD'.
               10  DBLINK-R4036-USER-RCRD   PIC X(16)
                       VALUE 'R4036-USER-RCRD'.
               10  DBLINK-R4038-USER-CODES  PIC X(16)
                       VALUE 'R4038-USER-CODES'.
               10  DBLINK-R4040-CLOSE-HDR   PIC X(16)
                       VALUE 'R4040-CLOSE-HDR'.
               10  DBLINK-R4045-ACTI        PIC X(16)
                       VALUE 'R4045-ACTI'.
               10  DBLINK-R4046-BANK-NAME   PIC X(16)
                       VALUE 'R4046-BANK-NAME'.
               10  DBLINK-R4050-ACTV        PIC X(16)
                       VALUE 'R4050-ACTV'.
               10  DBLINK-R4052-XTRN-ENTY   PIC X(16)
                       VALUE 'R4052-XTRN-ENTY'.
               10  DBLINK-R4053-INTR-ENTY   PIC X(16)
                       VALUE 'R4053-INTR-ENTY'.
               10  DBLINK-R4054-XTRN-CODE   PIC X(16)
                       VALUE 'R4054-XTRN-CODE'.
               10  DBLINK-R4056-AGNC        PIC X(16)
                       VALUE 'R4056-AGNC'.
               10  DBLINK-R4057-RQST-ID     PIC X(16)
                       VALUE 'R4057-RQST-ID'.
               10  DBLINK-R4060-RPT         PIC X(16)
                       VALUE 'R4060-RPT'.
               10  DBLINK-R4064-CS-EFCTV    PIC X(16)
                       VALUE 'R4064-CS-EFCTV'.
               10  DBLINK-R4065-IC-EFCTV    PIC X(16)
                       VALUE 'R4065-IC-EFCTV'.
               10  DBLINK-R4069-JRNL-HDR    PIC X(16)
                       VALUE 'R4069-JRNL-HDR'.
               10  DBLINK-R4070-RQST        PIC X(16)
                       VALUE 'R4070-RQST'.
               10  DBLINK-R4071-RQST-DTL    PIC X(16)
                       VALUE 'R4071-RQST-DTL'.
               10  DBLINK-R4072-BUYER       PIC X(16)
                       VALUE 'R4072-BUYER'.
               10  DBLINK-R4073-VENDOR      PIC X(16)
                       VALUE 'R4073-VENDOR'.
               10  DBLINK-R4074-CMDTY       PIC X(16)
                       VALUE 'R4074-CMDTY'.
               10  DBLINK-R4081-AGRMNT      PIC X(16)
                       VALUE 'R4081-AGRMNT'.
               10  DBLINK-R4083-PO-HDR      PIC X(16)
                       VALUE 'R4083-PO-HDR'.
               10  DBLINK-R4084-PO-CLASS    PIC X(16)
                       VALUE 'R4084-PO-CLASS'.
               10  DBLINK-R4085-PO-DTL      PIC X(16)
                       VALUE 'R4085-PO-DTL'.
               10  DBLINK-R4088-BID         PIC X(16)
                       VALUE 'R4088-BID'.
               10  DBLINK-R4089-BID-DTL     PIC X(16)
                       VALUE 'R4089-BID-DTL'.
               10  DBLINK-R4093-RCVNG-HDR   PIC X(16)
                       VALUE 'R4093-RCVNG-HDR'.
               10  DBLINK-R4096-PO-HDR-SEQ  PIC X(16)
                       VALUE 'R4096-PO-HDR-SEQ'.
               10  DBLINK-R4099-RETURNS     PIC X(16)
                       VALUE 'R4099-RETURNS'.
               10  DBLINK-R4104-VENDOR-CMD  PIC X(16)
                       VALUE 'R4104-VENDOR-CMD'.
               10  DBLINK-R4106-AUTO-JRNL   PIC X(16)
                       VALUE 'R4106-AUTO-JRNL'.
               10  DBLINK-R4120-TXT-HDR     PIC X(16)
                       VALUE 'R4120-TXT-HDR'.
               10  DBLINK-R4150-INV-HDR     PIC X(16)
                       VALUE 'R4150-INV-HDR'.
               10  DBLINK-R4151-INV-DTL     PIC X(16)
                       VALUE 'R4151-INV-DTL'.
               10  DBLINK-R4157-CHK-RQST-H  PIC X(16)
                       VALUE 'R4157-CHK-RQST-H'.
               10  DBLINK-R4158-CHK-HDR     PIC X(16)
                       VALUE 'R4158-CHK-HDR'.
               10  DBLINK-R4161-DSCNT-TBLE  PIC X(16)
                       VALUE 'R4161-DSCNT-TBLE'.
               10  DBLINK-R4163-RSBLE-INV   PIC X(16)
                       VALUE 'R4163-RSBLE-INV'.
               10  DBLINK-R4166-VNDR-TYPE   PIC X(16)
                       VALUE 'R4166-VNDR-TYPE'.
               10  DBLINK-R4168-TAX-RATES   PIC X(16)
                       VALUE 'R4168-TAX-RATES'.
               10  DBLINK-R4174-TOF-HDR     PIC X(16)
                       VALUE 'R4174-TOF-HDR'.
               10  DBLINK-R4180-RULE-CLASS  PIC X(16)
                       VALUE 'R4180-RULE-CLASS'.
               10  DBLINK-R4181-RULE-EFCTV  PIC X(16)
                       VALUE 'R4181-RULE-EFCTV'.
               10  DBLINK-R4183-ENCMBR-YRS  PIC X(16)
                       VALUE 'R4183-ENCMBR-YRS'.
               10  DBLINK-R4187-G-FOAPAL    PIC X(16)
                       VALUE 'R4187-G-FOAPAL'.
               10  DBLINK-R4188-TRAN-HIST   PIC X(16)
                       VALUE 'R4188-TRAN-HIST'.
               10  DBLINK-R4190-ENCMBR-DTL  PIC X(16)
                       VALUE 'R4190-ENCMBR-DTL'.
               10  DBLINK-R4191-ENCMBR-HDR  PIC X(16)
                       VALUE 'R4191-ENCMBR-HDR'.
               10  DBLINK-R4192-USER-PRFL   PIC X(16)
                       VALUE 'R4192-USER-PRFL'.
               10  DBLINK-R4197-GNRL-LDGR   PIC X(16)
                       VALUE 'R4197-GNRL-LDGR'.
               10  DBLINK-R4199-ACCT-LDGR   PIC X(16)
                       VALUE 'R4199-ACCT-LDGR'.
               10  DBLINK-R4203-DOCUMENT    PIC X(16)
                       VALUE 'R4203-DOCUMENT'.
               10  DBLINK-R4204-APRVL-J     PIC X(16)
                       VALUE 'R4204-APRVL-J'.
               10  DBLINK-R4205-APRVL-LVL   PIC X(16)
                       VALUE 'R4205-APRVL-LVL'.
               10  DBLINK-R4209-CLAUSE      PIC X(16)
                       VALUE 'R4209-CLAUSE'.
               10  DBLINK-R4212-APRVL-HDR   PIC X(16)
                       VALUE 'R4212-APRVL-HDR'.
               10  DBLINK-R4215-APRV-TMPLT  PIC X(16)
                       VALUE 'R4215-APRV-TMPLT'.
               10  DBLINK-R4224-DLVRY-HDR   PIC X(16)
                       VALUE 'R4224-DLVRY-HDR'.
               10  DBLINK-R4226-EXPR-VNDR   PIC X(16)
                       VALUE 'R4226-EXPR-VNDR'.
               10  DBLINK-R4228-FILE-CNTL   PIC X(16)
                       VALUE 'R4228-FILE-CNTL'.
               10  DBLINK-R4229-RLSE-HDR    PIC X(16)
                       VALUE 'R4229-RLSE-HDR'.
               10  DBLINK-R4230-RLSE-DTL    PIC X(16)
                       VALUE 'R4230-RLSE-DTL'.
               10  DBLINK-R4232-AP-TRANS    PIC X(16)
                       VALUE 'R4232-AP-TRANS'.
               10  DBLINK-R4300-AST         PIC X(16)
                       VALUE 'R4300-AST'.
               10  DBLINK-R4400-TRVL        PIC X(16)
                       VALUE 'R4400-TRVL'.
               10  DBLINK-R4401-EVENT       PIC X(16)
                       VALUE 'R4401-EVENT'.
               10  DBLINK-R4402-TRIP        PIC X(16)
                       VALUE 'R4402-TRIP'.
               10  DBLINK-R4405-EXPNS       PIC X(16)
                       VALUE 'R4405-EXPNS'.
               10  DBLINK-R4406-RECON       PIC X(16)
                       VALUE 'R4406-RECON'.
               10  DBLINK-R4410-TRVL-INV    PIC X(16)
                       VALUE 'R4410-TRVL-INV'.
               10  DBLINK-R6000-SYS         PIC X(16)
                       VALUE 'R6000-SYS'.
               10  DBLINK-R6001-UNVRS       PIC X(16)
                       VALUE 'R6001-UNVRS'.
               10  DBLINK-R6117-PRSN        PIC X(16)
                       VALUE 'R6117-PRSN'.
               10  DBLINK-R6151-STATE       PIC X(16)
                       VALUE 'R6151-STATE'.
               10  DBLINK-R6152-ZIP         PIC X(16)
                       VALUE 'R6152-ZIP'.
               10  DBLINK-R6153-COUNTRY     PIC X(16)
                       VALUE 'R6153-COUNTRY'.
               10  DBLINK-R6200-ACH-DATA    PIC X(16)
                       VALUE 'R6200-ACH-DATA'.
               10  DBLINK-R6257             PIC X(16)
                       VALUE 'R6257'.
               10  DBLINK-R6258             PIC X(16)
                       VALUE 'R6258'.
               10  DBLINK-R6259             PIC X(16)
                       VALUE 'R6259'.
               10  DBLINK-R6260             PIC X(16)
                       VALUE 'R6260'.
               10  DBLINK-R6268             PIC X(16)
                       VALUE 'R6268'.
               10  DBLINK-R6270             PIC X(16)
                       VALUE 'R6270'.
               10  DBLINK-R6273             PIC X(16)
                       VALUE 'R6273'.
               10  DBLINK-R6311-ENTY        PIC X(16)
                       VALUE 'R6311-ENTY'.
               10  DBLINK-R6313-PRSN-CHG    PIC X(16)
                       VALUE 'R6313-PRSN-CHG'.
               10  DBLINK-R6353-ENTY-CHG    PIC X(16)
                       VALUE 'R6353-ENTY-CHG'.
               10  DBLINK-R6600-TABL-HDR    PIC X(16)
                       VALUE 'R6600-TABL-HDR'.
               10  DBLINK-R6605             PIC X(16)
                       VALUE 'R6605'.
               10  DBLINK-R6606             PIC X(16)
                       VALUE 'R6606'.
               10  DBLINK-R8001             PIC X(16)
                       VALUE 'R8001'.
               10  DBLINK-R8002             PIC X(16)
                       VALUE 'R8002'.
               10  DBLINK-R8003             PIC X(16)
                       VALUE 'R8003'.
               10  DBLINK-R8005             PIC X(16)
                       VALUE 'R8005'.
               10  DBLINK-R8007             PIC X(16)
                       VALUE 'R8007'.
               10  DBLINK-R8008             PIC X(16)
                       VALUE 'R8008'.
               10  DBLINK-R8009             PIC X(16)
                       VALUE 'R8009'.
               10  DBLINK-R8010             PIC X(16)
                       VALUE 'R8010'.
               10  DBLINK-R8013             PIC X(16)
                       VALUE 'R8013'.
               10  DBLINK-R8020             PIC X(16)
                       VALUE 'R8020'.
               10  DBLINK-R8030             PIC X(16)
                       VALUE 'R8030'.
               10  DBLINK-R8040             PIC X(16)
                       VALUE 'R8040'.
               10  DBLINK-R8044             PIC X(16)
                       VALUE 'R8044'.
               10  DBLINK-R8050             PIC X(16)
                       VALUE 'R8050'.
               10  DBLINK-R8051             PIC X(16)
                       VALUE 'R8051'.
               10  DBLINK-R8052             PIC X(16)
                       VALUE 'R8052'.
           05  DBLINK-SET-NAMES.
               10  S-INDX-VNDR-TYPE         PIC X(16)
                       VALUE 'S-INDX-VNDR-TYPE'.
           05  DBLINK-AREA-NAMES.
               10  F-VENDOR                 PIC X(16)
                       VALUE 'F-VENDOR'.
               10  F-INDX-VNDR-TYPE         PIC X(16)
                       VALUE 'F-INDX-VNDR-TYPE'.
           05  DBLINK-RECORD-LOCK-FLAGS.
               10  FILLER                   PIC X(1)        VALUE SPACE.
           05  DBLINK-CURSOR-NAMES.
               10  DBLINK-S-INDX-VNDR-TYPE-N
                                            PIC X(18)
                       VALUE 'S-INDX-VNDR-TYPE-N'.
           05  DBLINK-CURSOR-CODES.
               10  DBLINK-S-INDX-VNDR-TYPE-N-CODE
                                            PIC X(1)        VALUE 'C'.
      /
DEVHV      EXEC SQL
DEVHV          INCLUDE CBRSKEYS
DEVHV      END-EXEC.
      /
      *%-------------------------------------------------------------- *
      *%                                                               *
      *%                  CONTROL AREAS AND VIEWS                      *
      *%                                                               *
      *%-------------------------------------------------------------- *

      *%****************************** *
      *%CONVERT/DB COMMAREA
      *%****************************** *
           EXEC SQL
               INCLUDE SQLCA
           END-EXEC.

      *%****************************** *
      *%VDT_VNDR_TYP_V AREAS(HOST VAR INCLUDE)
      *%****************************** *
      *%   EXEC SQL
      *%       INCLUDE CBHV4166
CPYNME     EXEC SQL
CPYNME         INCLUDE HVVDT
CPYNME     END-EXEC.
      *%   END-EXEC.


      /
      *%-------------------------------------------------------------- *
      *%                                                               *
      *%                    CURSOR DECLARATIONS                        *
      *%                                                               *
      *%-------------------------------------------------------------- *

      *%****************************** *
      *%CURSOR FOR FORWARD SUBSET OF VDT_VNDR_TYP_V
      *%****************************** *
           EXEC SQL
               DECLARE S_INDX_VNDR_TYPE_N CURSOR WITH HOLD FOR
               SELECT
                  USER_CD
                 ,LAST_ACTVY_DT
                 ,UNVRS_CD
                 ,VNDR_TYP_CD
                 ,VNDR_TYP_DESC
                 ,ACTVY_DT
                 ,START_DT
                 ,END_DT
               FROM VDT_VNDR_TYP_V
               WHERE VNDR_TYP_CD > :DBLINK-S-INDX-VNDR-TYPE-01
               ORDER BY VNDR_TYP_CD  ASC
               OPTIMIZE FOR 1 ROW
           END-EXEC.

       PROCEDURE DIVISION.
      /
      *%-------------------------------------------------------------- *
      *%                                                               *
      *%              000-SQL-INITIALIZATION ROUTINE                   *
      *%                                                               *
      *%-------------------------------------------------------------- *
       000-SQL-INITIALIZATION.
           MOVE '000-SQL-INITIALIZATION' TO DBLINK-CURR-PARAGRAPH.
           ACCEPT DBLINK-RUN-DATE-2 FROM DATE.
           MOVE DBLINK-RUN-DATE-2-MO TO DBLINK-RUN-DATE-MO.
           MOVE DBLINK-RUN-DATE-2-DY TO DBLINK-RUN-DATE-DY.
           MOVE DBLINK-RUN-DATE-2-YR TO DBLINK-RUN-DATE-YR.
           ACCEPT DBLINK-TIME FROM TIME.
           MOVE DBLINKX-NULL-DB2-DATE-ISO TO DBLINK-DEFAULT-DATE.
           MOVE '0001-01-01' TO DBLINK-LOW-DATE.
           MOVE '9999-12-31' TO DBLINK-HIGH-DATE.
           MOVE DBLINKX-NULL-DB2-TIME-ISO TO DBLINK-DEFAULT-TIME.
           MOVE '00.00.01' TO DBLINK-LOW-TIME.
           MOVE '23.59.59' TO DBLINK-HIGH-TIME.
       000-SQL-INITIALIZATION-EXIT.
           EXIT.

      ******************************************************************

       MAIN-LINE.

           PERFORM  AA0000-INITIALIZE                THRU  AA0000-EXIT.

           PERFORM  DD0000-DRIVER                    THRU  DD0000-EXIT
               UNTIL  SW-NO-MORE-R4166-RECS  =  'Y'.

           PERFORM  ZZ0000-END-OF-PROGRAM            THRU  ZZ0000-EXIT.

           GOBACK.

           EJECT

      ******************************************************************
      **
      **   THIS PARAGRAPH DOES THE INITIALIZATION PROCESS...
      **   1) ACCEPT SYSTEM INFORMATION
      **   2) BINDS AND READYS THE DATABASE RECORDS AND AREAS
      **   2) OPENING OF THE FILES                                     C
      **   3) PRIME OBTAIN                                             O
      **                                                               L
      *A-1-B--+----2----+----3----+----4----+----5----+----6----+----7-2

       AA0000-INITIALIZE.

           PERFORM  AA1000-DISP-INITS            THRU  AA1000-EXIT.

           PERFORM  AA2000-BIND-READYS           THRU  AA2000-EXIT.

           PERFORM  AA3000-OPENS                 THRU  AA3000-EXIT.

           PERFORM  AA4000-PRIME-OBTAINS         THRU  AA4000-EXIT.

       AA0000-EXIT.
                             EXIT.

           EJECT

      ******************************************************************
      **
      **   THIS PARAGRAPH DOES THE OPEING DISPLAYS AND INITIALIZES     C
      **   WORK FIELDS.                                                O
      **                                                               L
      *A-1-B--+----2----+----3----+----4----+----5----+----6----+----7-2

       AA1000-DISP-INITS.

           DISPLAY  '************************************************'.
           DISPLAY  '**                                            **'.
           DISPLAY  '**  BEGINNING PROGRAM UDSF140                 **'.
           DISPLAY  '**                                            **'.
           DISPLAY  '**--------------------------------------------**'.
           DISPLAY  '**                                            **'.

           ACCEPT  WS-ACCEPT-DATE     FROM  DATE.
           ACCEPT  WS-TIME            FROM  TIME.

           IF  WS-DATE-YEAR  >  50
               MOVE  19               TO  WS-CENTURY
           ELSE
               MOVE  20               TO  WS-CENTURY.

           MOVE  WS-TIME-HRS          TO  WS-FORM-HH.

           MOVE  WS-TIME-MM           TO  WS-FORM-MM.


           DISPLAY  '**  CURRENT DATE IS -- '
                    WS-CURRENT-DATE
                    '               **'.
           DISPLAY  '**                                            **'.

           DISPLAY  '**  CURRENT TIME IS -- '
                    WS-TIME
                    '                 **'.
           DISPLAY  '**                                            **'.
           DISPLAY  '**                                            **'.

       AA1000-EXIT.
                             EXIT.

           EJECT


      ******************************************************************
      **
      **   THIS PARAGRAPH BINDS AND READYS THE DATABASE RECORDS/AREAS  C
      **   FILE.                                                       O
      **                                                               L
      *A-1-B--+----2----+----3----+----4----+----5----+----6----+----7-2

       AA2000-BIND-READYS.

      *%   BIND  RUN-UNIT.
           MOVE 0001 TO DBLINK-CURR-IO-NUM
           MOVE +0 TO SQLCODE
           MOVE ZERO TO ERROR-STATUS
           PERFORM 986-RESET-KEYS
              THRU 986-RESET-KEYS-EXIT.

           IF  ANY-ERROR-STATUS
               PERFORM 999-SQL-STATUS
                  THRU 999-SQL-STATUS-EXIT.


      *%   BIND  R4166-VNDR-TYPE.
           MOVE 0002 TO DBLINK-CURR-IO-NUM
           MOVE +0 TO SQLCODE
           MOVE ZERO TO ERROR-STATUS.

           IF  ANY-ERROR-STATUS
               PERFORM 999-SQL-STATUS
                  THRU 999-SQL-STATUS-EXIT.


      *%   READY  F-VENDOR          USAGE-MODE  IS  RETRIEVAL.
           MOVE 0003 TO DBLINK-CURR-IO-NUM
           MOVE +0 TO SQLCODE
           MOVE ZERO TO ERROR-STATUS.

      *%   READY  F-INDX-VNDR-TYPE  USAGE-MODE  IS  RETRIEVAL.
           MOVE 0004 TO DBLINK-CURR-IO-NUM
           MOVE +0 TO SQLCODE
           MOVE ZERO TO ERROR-STATUS.

       AA2000-EXIT.
                             EXIT.

           EJECT

      ******************************************************************
      **                                                               C
      **   THIS PARAGRAPH OPENS THE OUTPUT FILE                        O
      **                                                               L
      *A-1-B--+----2----+----3----+----4----+----5----+----6----+----7-2

       AA3000-OPENS.

           OPEN  OUTPUT  VENDOR-TYPE-FILE.


           DISPLAY  '**  OPENED OUTPUT  -  DDNAME - VENTPLK        **'.
           DISPLAY  '**                                            **'.

       AA3000-EXIT.
                             EXIT.

           EJECT

      ******************************************************************
      **
      **   THIS PARAGRAPH PERFORMS THE PRIME OBTAIN OF THE             C
      **   R4166-VNDR-TYPE RECORD.                                     O
      **                                                               L
      *A-1-B--+----2----+----3----+----4----+----5----+----6----+----7-2

       AA4000-PRIME-OBTAINS.

           PERFORM  IAA000-OBTN-1ST-R4166             THRU  IAA000-EXIT.

       AA4000-EXIT.
                             EXIT.

           EJECT

      ******************************************************************
      **
      **   DRIVER...
      **   1) PERFORM PROCESS R4166-VNDR-TYPE- RECORD.                 C
      **   2) PERFORM OBTAIN NEXT R4166-VNDR-TYPE RECORD.              O
      **                                                               L
      *A-1-B--+----2----+----3----+----4----+----5----+----6----+----7-2

       DD0000-DRIVER.

           PERFORM  DD1000-PROCESS-R4166-REC     THRU  DD1000-EXIT.

           PERFORM  IAA500-OBTN-NEXT-R4166       THRU  IAA500-EXIT.

       DD0000-EXIT.
                             EXIT.

           EJECT

      ******************************************************************
      **                                                               C
      **   PROCESS THE R4166-VNDR-TYPE RECORD.                         O
      **                                                               L
      *A-1-B--+----2----+----3----+----4----+----5----+----6----+----7-2

       DD1000-PROCESS-R4166-REC.

           INITIALIZE  VENDOR-TYPE-REC.


           MOVE  UNVRS-CODE-4166          TO  UNVRS-CODE.

           MOVE  VNDR-TYPE-CODE-4166      TO  VNDR-TYPE-CODE.

           MOVE  VNDR-TYPE-DESC-4166      TO  VNDR-TYPE-DESC.

           MOVE  ACTVY-DATE-4166          TO  ACTVY-DATE.

           MOVE  START-DATE-4166          TO  START-DATE.

           MOVE  END-DATE-4166            TO  END-DATE.

           MOVE  WS-CURRENT-DATE          TO  REFRESH-DATE.

           MOVE  WS-FORMATTED-TIME        TO  REFRESH-TIME.

           IF  ACTVY-DATE  =  '99999999'
               MOVE  '99991231'           TO  ACTVY-DATE
           ELSE
               IF  ACTVY-DATE  =  '00000000'
                   MOVE  SPACES           TO  ACTVY-DATE.

           IF  START-DATE  =  '99999999'
               MOVE  '99991231'           TO  START-DATE
           ELSE
               IF  START-DATE  =  '00000000'
                   MOVE  SPACES           TO  START-DATE.

           IF  END-DATE  =  '99999999'
               MOVE  '99991231'           TO  END-DATE
           ELSE
               IF  END-DATE  =  '00000000'
                   MOVE  SPACES           TO  END-DATE.


           PERFORM  OAA000-WRITE-VNDR-TYPE-REC        THRU  OAA000-EXIT.

       DD1000-EXIT.
                             EXIT.

           EJECT

      ******************************************************************
      **                                                               C
      **   OBTAIN FIRST R4166-VNDR-TYPE RECORD IN THE AREA.            O
      **                                                               L
      *A-1-B--+----2----+----3----+----4----+----5----+----6----+----7-2

       IAA000-OBTN-1ST-R4166.

      *%   OBTAIN  FIRST  R4166-VNDR-TYPE  WITHIN  S-INDX-VNDR-TYPE
           MOVE 0005 TO DBLINK-CURR-IO-NUM
           MOVE DBLINK-OBTAIN TO DBLINK-TYPE-SELECT
           MOVE DBLINK-FIRST TO DBLINK-TYPE-GET
           PERFORM 906-00N-S-INDX-VNDR-TYPE
              THRU 906-00N-S-INDX-VNDR-TYPE-EXIT
      *%       ON  DB-END-OF-SET
               IF NOT DB-END-OF-SET
                   PERFORM 999-SQL-STATUS
                      THRU 999-SQL-STATUS-EXIT
               ELSE
                   MOVE  'Y'  TO  SW-NO-MORE-R4166-RECS
                   GO  TO  IAA000-EXIT.

           ADD  +1  TO  CTR-R4166-RECS-OBTND.

       IAA000-EXIT.
                             EXIT.





      ******************************************************************
      **                                                               C
      **   OBTAIN NEXT R4166-VNDR-TYPE WITHIN THE AREA.                O
      **                                                               L
      *A-1-B--+----2----+----3----+----4----+----5----+----6----+----7-2

       IAA500-OBTN-NEXT-R4166.

      *%   OBTAIN  NEXT  R4166-VNDR-TYPE  WITHIN  S-INDX-VNDR-TYPE
           MOVE 0006 TO DBLINK-CURR-IO-NUM
           MOVE DBLINK-OBTAIN TO DBLINK-TYPE-SELECT
           MOVE DBLINK-NEXT TO DBLINK-TYPE-GET
           PERFORM 906-00N-S-INDX-VNDR-TYPE
              THRU 906-00N-S-INDX-VNDR-TYPE-EXIT
      *%       ON  DB-END-OF-SET
               IF NOT DB-END-OF-SET
                   PERFORM 999-SQL-STATUS
                      THRU 999-SQL-STATUS-EXIT
               ELSE
                   MOVE  'Y'  TO  SW-NO-MORE-R4166-RECS
                   GO  TO  IAA500-EXIT.

           ADD  +1  TO  CTR-R4166-RECS-OBTND.

       IAA500-EXIT.
                             EXIT.

           EJECT

      ******************************************************************
      **                                                               C
      **   WRITE THE VENDOR-TYPE RECORD.                               O
      **                                                               L
      *A-1-B--+----2----+----3----+----4----+----5----+----6----+----7-2

       OAA000-WRITE-VNDR-TYPE-REC.

           WRITE  VENDOR-TYPE-RECORD  FROM  VENDOR-TYPE-REC.

           ADD  +1  TO  CTR-VNDR-TYPE-RECS-WRTN.

       OAA000-EXIT.
                             EXIT.

           EJECT

      ******************************************************************
      **
      **   THIS PARAGRAPH DOES END OF PROGRAM FUNCTIONS....
      **   1) CLOSE THE FILES                                          C
      **   2) DISPLAY OF CONTROL COUNTS                                O
      **                                                               L
      *A-1-B--+----2----+----3----+----4----+----5----+----6----+----7-2

       ZZ0000-END-OF-PROGRAM.

           CLOSE  VENDOR-TYPE-FILE.


           DISPLAY  '**  CLOSED OUTPUT  -  DDNAME - VENTPLK        **'.
           DISPLAY  '**                                            **'.



           MOVE  CTR-R4166-RECS-OBTND       TO
                 CTR-R4166-RECS-OBTND-Z.

           MOVE  CTR-VNDR-TYPE-RECS-WRTN    TO
                 CTR-VNDR-TYPE-RECS-WRTN-Z.


           DISPLAY  '**                                            **'.
           DISPLAY  '**--------------->>  COUNTS  <<---------------**'.
           DISPLAY  '**                                            **'.
           DISPLAY  '**  R4166-VNDR-TYPE RECS OBTAINED  ='
                                      CTR-R4166-RECS-OBTND-Z
                    '  **'.

           DISPLAY  '**                                            **'.
           DISPLAY  '**  VENDOR TYPE RECORDS WRITTEN    ='
                                      CTR-VNDR-TYPE-RECS-WRTN-Z
                    '  **'.

           DISPLAY  '**                                            **'.

           DISPLAY  '**                                            **'.
           DISPLAY  '**--------------------------------------------**'.
           DISPLAY  '**                                            **'.


           DISPLAY  '**  SUCCESSFULLY ENDING PROGRAM UDSF140       **'.
           DISPLAY  '**                                            **'.
           DISPLAY  '************************************************'.

      *%   FINISH.
           MOVE 0007 TO DBLINK-CURR-IO-NUM
           MOVE +0 TO SQLCODE
           MOVE ZERO TO ERROR-STATUS
           PERFORM 986-RESET-KEYS
              THRU 986-RESET-KEYS-EXIT
           PERFORM 996-COMMIT
              THRU 996-COMMIT-EXIT
           PERFORM 999-SQL-STATUS
              THRU 999-SQL-STATUS-EXIT.

       ZZ0000-EXIT.
                             EXIT.

           EJECT

      ******************************************************************
      ******************************************************************
      *COPY  IDMS  IDMS-STATUS.
      ******************************************************************
      ******************************************************************

       IDMS-ABORT SECTION.
       IDMS-ABORT-START.

           DISPLAY  '**--------------------------------------------**'.

           DISPLAY  '**                                            **'.

           DISPLAY  '******>>>>  PROGRAM UDSF140 ABORTING   <<<<*****'.

           DISPLAY  '**                                            **'.

           DISPLAY  '************************************************'.

       IDMS-ABORT-EXIT.
                             EXIT.
      /
      *%-------------------------------------------------------------- *
      *%                                                               *
      *%                   900-START-SUBROUTINES                       *
      *%                                                               *
      *%-------------------------------------------------------------- *
       900-START-SUBROUTINES SECTION.
      *    CONVERT/DB SUBROUTINES FOLLOW
       900-START-SUBROUTINES-EXIT.
           EXIT.

      /
      *%-------------------------------------------------------------- *
      *%                                                               *
      *%             906-00N-S-INDX-VNDR-TYPE ROUTINE                  *
      *%                                                               *
      *%-------------------------------------------------------------- *
       906-00N-S-INDX-VNDR-TYPE.
           MOVE '906-00N-S-INDX-VNDR-TYPE' TO DBLINK-CURR-PARAGRAPH.
           MOVE ZERO TO ERROR-STATUS.
           MOVE ' ' TO ERROR-AREA.
           MOVE S-INDX-VNDR-TYPE TO ERROR-SET.
           MOVE DBLINK-S-INDX-VNDR-TYPE-N TO DBLINK-CURSOR-NAME-WORK.
           MOVE S-INDX-VNDR-TYPE TO DBLINK-SET-NAME-WORK.
           MOVE ' ' TO DBLINK-RECORD-MADE-CURRENT.
           IF DBLINK-TYPE-GET = 'F'
             OR DBLINK-S-INDX-VNDR-TYPE-KEY-M = LOW-VALUES
               PERFORM 991-CLOSE-CURSORS
                  THRU 991-CLOSE-CURSORS-EXIT
               IF ERROR-STATUS = DBLINK-DB2-ERROR
                   GO TO 906-00N-S-INDX-VNDR-TYPE-EXIT
               END-IF
           END-IF.
           IF DBLINK-S-INDX-VNDR-TYPE-KEY-M = LOW-VALUES
             OR DBLINK-TYPE-GET = 'F'
               MOVE LOW-VALUES TO DBLINK-S-INDX-VNDR-TYPE-01
           END-IF.
           IF DBLINK-S-INDX-VNDR-TYPE-N-CODE NOT = DBLINK-OPEN
               EXEC SQL
                   OPEN S_INDX_VNDR_TYPE_N
               END-EXEC
               IF SQLCODE NOT = 0
                   MOVE DBLINK-DB2-ERROR TO ERROR-STATUS
                   GO TO 906-00N-S-INDX-VNDR-TYPE-EXIT
               END-IF
               MOVE DBLINK-OPEN TO DBLINK-S-INDX-VNDR-TYPE-N-CODE
           END-IF.
           EXEC SQL
               FETCH S_INDX_VNDR_TYPE_N
               INTO
                  :VDT-USER-CD
                 ,:VDT-LAST-ACTVY-DT
                 ,:VDT-UNVRS-CD
                 ,:VDT-VNDR-TYP-CD
                 ,:VDT-VNDR-TYP-DESC
                 ,:VDT-ACTVY-DT
                 ,:VDT-START-DT
                 ,:VDT-END-DT
           END-EXEC.
           IF SQLCODE = +100
               MOVE DBLINK-END-OF-RCDS TO ERROR-STATUS
               GO TO 906-00N-S-INDX-VNDR-TYPE-EXIT
           END-IF.
           IF SQLCODE NOT = 0
               MOVE DBLINK-DB2-ERROR TO ERROR-STATUS
               GO TO 906-00N-S-INDX-VNDR-TYPE-EXIT
           END-IF.
           PERFORM 985-CURR-R4166-VNDR-TYPE
              THRU 985-CURR-R4166-VNDR-TYPE-EXIT.
           IF ERROR-STATUS = DBLINK-DB2-ERROR
               GO TO 906-00N-S-INDX-VNDR-TYPE-EXIT
           END-IF.
           IF DBLINK-TYPE-SELECT = 'O'
               PERFORM 975-TO-R4166-VNDR-TYPE
                  THRU 975-TO-R4166-VNDR-TYPE-EXIT
           END-IF.
       906-00N-S-INDX-VNDR-TYPE-EXIT.
           EXIT.

      *%****************************** *
      *% 975-TO-R4166-VNDR-TYPE ROUTINE
      *%****************************** *
      *%   COPY CB754166.
CPYNME     COPY HVIDVDT.

      *%****************************** *
      *% 976-FROM-R4166-VNDR-TYPE ROUTINE
      *%****************************** *
      *%   COPY CB764166.
CPYNME     COPY IDHVVDT.
      /
      *%-------------------------------------------------------------- *
      *%                                                               *
      *%             985-CURR-R4166-VNDR-TYPE ROUTINE                  *
      *%                                                               *
      *%-------------------------------------------------------------- *
       985-CURR-R4166-VNDR-TYPE.
           MOVE '985-CURR-R4166-VNDR-TYPE' TO DBLINK-CURR-PARAGRAPH.

      *%****************************** *
      *%INITIALIZE DBLINK SUBSCHEMA-CTRL
      *%****************************** *
           MOVE ZERO TO ERROR-STATUS.
           MOVE SPACES TO ERROR-AREA.
           MOVE SPACES TO ERROR-SET.
           MOVE SPACES TO ERROR-RECORD.
           MOVE 'R4166-VNDR-TYPE' TO RECORD-NAME.
           MOVE 'F-VENDOR' TO AREA-NAME.

      *%****************************** *
      *%CLOSE ALL RECORD-RELATED CURSORS
      *%****************************** *
           MOVE DBLINK-R4166-VNDR-TYPE TO DBLINK-RECORD-MADE-CURRENT.
           MOVE ' ' TO DBLINK-CURSOR-NAME-WORK.
           PERFORM 991-CLOSE-CURSORS
              THRU 991-CLOSE-CURSORS-EXIT.
           IF ERROR-STATUS = DBLINK-DB2-ERROR
               GO TO 985-CURR-R4166-VNDR-TYPE-EXIT
           END-IF.
           MOVE ' ' TO DBLINK-RECORD-MADE-CURRENT.

      *%****************************** *
      *%SET RECORD KEY
      *%****************************** *
           IF DBLINK-TYPE-GET NOT = DBLINK-CURR
               MOVE VDT-VNDR-TYP-CD TO DBLINK-R4166-VNDR-TYPE-01
           END-IF.

      *%****************************** *
      *%SET CURRENT OF RUN-UNIT
      *%****************************** *
           MOVE DBLINK-R4166-VNDR-TYPE TO DBLINK-VIEW-NAME-CURRENT.
           MOVE DBLINK-R4166-VNDR-TYPE-KEY TO DBLINK-VIEW-200-CURRENT.

      *%****************************** *
      *%SET KEYS FOR SETS WHICH RECORD OWNS
      *%****************************** *

      *%****************************** *
      *%SET KEYS FOR SETS IN WHICH RECORD IS MEMBER
      *%****************************** *

      *%****************************** *
      *%SET S-INDX-VNDR-TYPE
      *%****************************** *
           MOVE VDT-VNDR-TYP-CD TO DBLINK-S-INDX-VNDR-TYPE-01.
       985-CURR-R4166-VNDR-TYPE-EXIT.
           EXIT.
      /
      *%-------------------------------------------------------------- *
      *%                                                               *
      *%                  986-RESET-KEYS ROUTINE                       *
      *%                                                               *
      *%-------------------------------------------------------------- *
       986-RESET-KEYS.
           MOVE '986-RESET-KEYS' TO DBLINK-CURR-PARAGRAPH.
           MOVE SPACES TO DBLINK-RECORD-KEYS.
           MOVE LOW-VALUES TO DBLINK-SET-KEYS.
       986-RESET-KEYS-EXIT.
           EXIT.
      /
      *%-------------------------------------------------------------- *
      *%                                                               *
      *%                 991-CLOSE-CURSORS ROUTINE                     *
      *%                                                               *
      *%-------------------------------------------------------------- *
       991-CLOSE-CURSORS.
           IF DBLINK-S-INDX-VNDR-TYPE-N-CODE = DBLINK-OPEN
               IF DBLINK-CURSOR-NAME-WORK = DBLINK-S-INDX-VNDR-TYPE-N
                 OR DBLINK-CURSOR-NAME-WORK = '$$ALL'
                 OR DBLINK-CURSOR-NAME-WORK = S-INDX-VNDR-TYPE
                   EXEC SQL
                       CLOSE S_INDX_VNDR_TYPE_N
                   END-EXEC
                   IF SQLCODE NOT = 0
                       MOVE DBLINK-DB2-ERROR TO ERROR-STATUS
                       GO TO 991-CLOSE-CURSORS-EXIT
                   END-IF
                   MOVE DBLINK-CLOSED TO DBLINK-S-INDX-VNDR-TYPE-N-CODE
                 ELSE
               IF (DBLINK-RECORD-MADE-CURRENT = DBLINK-R4166-VNDR-TYPE
                 AND DBLINK-SET-NAME-WORK NOT = S-INDX-VNDR-TYPE)
                   EXEC SQL
                       CLOSE S_INDX_VNDR_TYPE_N
                   END-EXEC
                   IF SQLCODE NOT = 0
                       MOVE DBLINK-DB2-ERROR TO ERROR-STATUS
                       GO TO 991-CLOSE-CURSORS-EXIT
                   END-IF
                   MOVE DBLINK-CLOSED TO DBLINK-S-INDX-VNDR-TYPE-N-CODE
               END-IF
           END-IF.
       991-CLOSE-CURSORS-EXIT.
           EXIT.
      /
      *%-------------------------------------------------------------- *
      *%                                                               *
      *%                    996-COMMIT ROUTINE                         *
      *%                                                               *
      *%-------------------------------------------------------------- *
       996-COMMIT.
           MOVE '996-COMMIT' TO DBLINK-CURR-PARAGRAPH.
           EXEC SQL
               COMMIT WORK
           END-EXEC.
       996-COMMIT-EXIT.
           EXIT.
      /
      *%-------------------------------------------------------------- *
      *%                                                               *
      *%                  999-SQL-STATUS ROUTINE                       *
      *%                                                               *
      *%-------------------------------------------------------------- *
       999-SQL-STATUS.
           EXEC SQL
               INCLUDE BTCHERR
           END-EXEC.
       999-SQL-STATUS-EXIT.
           EXIT.

