       IDENTIFICATION DIVISION.
       PROGRAM-ID. UDWF725.
       AUTHOR.        ROB WANDA (TIERRA SYSTEMS).
       DATE-WRITTEN.  MAY 1994.
       DATE-COMPILED.
      ******************************************************************
      ******************************************************************
      **    EXTRACT IFIS DOCUMENT DATA TO BE DOWNLOADED TO A SYBASE   **
      **    FILE.                                                     **
      ******************************************************************
      ** SUBSCHEMA RECORDS:                                           **
      **           R4203-DOCUMENT    DOCUMENT RECORD                  **
      **                                                              **
      ** INPUT:                                                       **
      **           NONE                                               **
      **                                                              **
      ** OUTPUT:                                                      **
      ** DOCUMENT  EXTRACT FILE CONTAINING IFIS DOCUMENT DATA.        **
      **                                                              **
      ******************************************************************
      **                   CHANGE HISTORY                             **
      **                                                              **
      **  REF  AUTH    DATE     DESCRIPTION                  CSR NO.  **
      **  ---  ----   ------   ---------------------------  --------- **
      **       RJW   05/02/94  ORIGINAL VERSION OF PGM.      CP0204   **
      **       BAC   09/13/96  PLACE SOURCE ON ENDEAVOR      FI098    **
      **       JWP   08/15/00  CHANGED HEX TAB DELIMITERS    FIS019   **
      **                       TO DISPLAYABLE REPRESENTATION          **
      **                       OF VALUE X'05'                         **
      **                                                              **
      ******************************************************************
      ******************************************************************
           EJECT
      *%****************************************************************
      *%                                                               *
      *%  Converted using Forecross Corporation Redeployment Software  *
      *%                                                               *
      *%               Convert/IDMS-DB Version 8 Release 01            *
      *%                                                               *
      *%                Converted on 10/20/00 at 10:16                 *
      *%                                                               *
      *%****************************************************************
      *%              COPYRIGHT FORECROSS CORPORATION                  *
      *%                2000  ALL RIGHTS RESERVED                      *
      *%****************************************************************
           COPY CBCVDBNT.

      /
      *%-------------------------------------------------------------- *
      *%
      *%  *** TABLE VIEWS USED IN THIS PROGRAM
      *%
      *%DOC_DOCUMENT_V        R4203-DOCUMENT                   CBL CPY
      *%
      *%  *** CURSORS DECLARED IN THIS PROGRAM
      *%
      *%CURSOR R4203_DOCUMENT_N - ALL R4203-DOCUMENT
      *%
      *%  *** SUBROUTINES GENERATED FOR THIS PROGRAM
      *%
      *%000-SQL-INITIALIZATION
      *%986-RESET-KEYS
      *%906-00N-R4203-DOCUMENT
      *%906-05-R4203-DOCUMENT
      *%985-CURR-R4203-DOCUMENT
      *%996-COMMIT
      *%
      *%-------------------------------------------------------------- *
       ENVIRONMENT DIVISION.
       CONFIGURATION SECTION.
       SOURCE-COMPUTER.
       OBJECT-COMPUTER.

       SPECIAL-NAMES.
               C01  IS   TOP-OF-PAGE.

       INPUT-OUTPUT SECTION.
       FILE-CONTROL.

           SELECT  DOCUMENT-FILE     ASSIGN  TO  UT-S-DOCUMENT.

      *IDMS-CONTROL SECTION.
      *PROTOCOL.   MODE IS       BATCH-AUTOSTATUS DEBUG.
      *%           IDMS-RECORDS  MANUAL.

       DATA DIVISION.
      *SCHEMA SECTION.

      *DB  FIMSNWKB     WITHIN  FIMSNTWN.

       FILE SECTION.

      ******************************************************************
      **   DOCUMENT FILE                                              **
      ******************************************************************

       FD  DOCUMENT-FILE
           RECORDING  MODE    IS  F
           LABEL   RECORDS   ARE  STANDARD
           BLOCK   CONTAINS    0  RECORDS
           RECORD  CONTAINS   70  CHARACTERS
           DATA    RECORD     IS  DOCUMENT-RECORD.

       01  DOCUMENT-RECORD              PIC  X(070).
           EJECT
      ******************************************************************

       WORKING-STORAGE SECTION.
      ******************************************************************
           SKIP3
      ******************************************************************
      **   DOCUMENT RECORD LAYOUT                                      *
      ******************************************************************
       01  DBLINK-USER-CD   PIC X(8) VALUE 'UDWF725'.
       01  WS-DOCUMENT-RECORD.
           05  WS-SEQ-NMBR                    PIC  9(004)  VALUE ZEROES.
           05     FILLER                      PIC  X(001)  VALUE X'05'.
           05  WS-DCMNT-TYPE                  PIC  X(003)  VALUE SPACES.
           05     FILLER                      PIC  X(001)  VALUE X'05'.
           05  WS-DCMNT-DESC                  PIC  X(035)  VALUE SPACES.
           05     FILLER                      PIC  X(001)  VALUE X'05'.
           05  WS-REFRESH-DATE                PIC  9(008)  VALUE ZEROES.
           05  FILLER                         PIC  X(001)  VALUE SPACES.
           05  WS-TIMESTAMP.
               10  WS-TS-HH                   PIC  X(002)  VALUE SPACES.
               10     FILLER                  PIC  X(001)  VALUE ':'.
               10  WS-TS-MM                   PIC  X(002)  VALUE SPACES.
           EJECT
      ******************************************************************
      **   PROGRAM SWITCHES                                           **
      ******************************************************************
       01  WS-SWITCHES.
           05  SW-END-OF-JOB                   PIC  X(03)  VALUE 'NO '.
               88 END-OF-JOB                               VALUE 'YES'.
           SKIP3
      ******************************************************************
      **   PROGRAM COUNTERS                                           **
      ******************************************************************
       01  WS-COUNTERS         COMP-3.
           05  CTR-R4203-READ                  PIC S9(07)     VALUE +0.
           05  CTR-DOCUMENT-WRITTEN            PIC S9(07)     VALUE +0.

       01  WS-COUNTERS-Z.
           05  CTR-R4203-READ-Z                PIC  ZZZZZZ9.
           05  CTR-DOCUMENT-WRITTEN-Z          PIC  ZZZZZZ9.
      **
      ******************************************************************
      **   CURRENT TIME                                               **
      ******************************************************************
       01  WS-TIME.
           05  WS-TIME-HRS                     PIC  9(02)  VALUE ZEROES.
           05  WS-TIME-FLDS.
               10  WS-TIME-MM                  PIC  9(02)  VALUE ZEROES.
               10  WS-TIME-SS                  PIC  9(02)  VALUE ZEROES.
           05  WS-TIME-FLDS-N  REDEFINES  WS-TIME-FLDS
                                               PIC  9(04).
       01  WS-HOLD-TIME.
           05  WS-HOLD-TIME-HH                 PIC  X(02)  VALUE SPACES.
           05  WS-HOLD-TIME-MM                 PIC  X(02)  VALUE SPACES.
           05  WS-HOLD-TIME-SS                 PIC  X(02)  VALUE SPACES.

      ******************************************************************
      **   CURRENT DATE                                               **
      ******************************************************************
       01  WS-CURRENT-DATE.
           05  WS-CENTURY                      PIC  9(02)  VALUE ZEROES.
           05  WS-ACCEPT-DATE.
               10  WS-DATE-YEAR                PIC  9(02)  VALUE ZEROES.
               10  WS-DATE-MONTH               PIC  9(02)  VALUE ZEROES.
               10  WS-DATE-DAY                 PIC  9(02)  VALUE ZEROES.

      ******************************************************************
      **   IDMS/R DICTIONARY NAME                                     **
      ******************************************************************
       01  HOLD-ACCEPT-DATA.
           05  HAD-DICTIONARY.
               10      FILLER                  PIC  X(02)  VALUE SPACES.
               10  HAD-DICT-NAME               PIC  X(08)  VALUE
                                                           'ISISDICT'.
           EJECT
      ******************************************************************
      **   IDMS/R DICTIONARY RECORDS USED BY PROGRAM                  **
      ******************************************************************

      *01  COPY  IDMS  SUBSCHEMA-CONTROL.
       01  SUBSCHEMA-CONTROL  PIC X.
           EJECT

      *%****************************** *
      *% DOC_DOCUMENT_V DATA VIEW AREAS
      *%****************************** *
      *%   COPY CBID4203.
CPYNME     COPY R4203.
      *01  COPY  IDMS  R4203-DOCUMENT.
           EJECT
           COPY  LINKPARM.
           EJECT
      ******************************************************************
           EXEC SQL
               INCLUDE CBCVDBCA
           END-EXEC.

      /
      *%-------------------------------------------------------------- *
      *%                                                               *
      *%          STANDARD CONVERT/DB COMMUNICATION AREAS              *
      *%                                                               *
      *%-------------------------------------------------------------- *
           COPY CBCVDBXD.
           COPY BTCHWS.
       01  DBLINK-NAMES.
           05  DBLINK-SCHEMA-NAME.
               10  FILLER                   PIC X(8)
                       VALUE 'FIMSNTWN'.
           05  DBLINK-RECORD-NAMES.
               10  DBLINK-R4000-COA         PIC X(16)
                       VALUE 'R4000-COA'.
               10  DBLINK-R4001-FUND        PIC X(16)
                       VALUE 'R4001-FUND'.
               10  DBLINK-R4002-ORGN        PIC X(16)
                       VALUE 'R4002-ORGN'.
               10  DBLINK-R4003-ACCT        PIC X(16)
                       VALUE 'R4003-ACCT'.
               10  DBLINK-R4004-PROG        PIC X(16)
                       VALUE 'R4004-PROG'.
               10  DBLINK-R4006-LCTN        PIC X(16)
                       VALUE 'R4006-LCTN'.
               10  DBLINK-R4008-FNDT        PIC X(16)
                       VALUE 'R4008-FNDT'.
               10  DBLINK-R4011-SYSDAT      PIC X(16)
                       VALUE 'R4011-SYSDAT'.
               10  DBLINK-R4014-ACTT        PIC X(16)
                       VALUE 'R4014-ACTT'.
               10  DBLINK-R4016-BDGT-CTRL   PIC X(16)
                       VALUE 'R4016-BDGT-CTRL'.
               10  DBLINK-R4021-CTRL-ACCTS  PIC X(16)
                       VALUE 'R4021-CTRL-ACCTS'.
               10  DBLINK-R4026-INDRT-COST  PIC X(16)
                       VALUE 'R4026-INDRT-COST'.
               10  DBLINK-R4030-COST-SHARE  PIC X(16)
                       VALUE 'R4030-COST-SHARE'.
               10  DBLINK-R4033-BANK        PIC X(16)
                       VALUE 'R4033-BANK'.
               10  DBLINK-R4035-PAY-MTHD    PIC X(16)
                       VALUE 'R4035-PAY-MTHD'.
               10  DBLINK-R4036-USER-RCRD   PIC X(16)
                       VALUE 'R4036-USER-RCRD'.
               10  DBLINK-R4038-USER-CODES  PIC X(16)
                       VALUE 'R4038-USER-CODES'.
               10  DBLINK-R4040-CLOSE-HDR   PIC X(16)
                       VALUE 'R4040-CLOSE-HDR'.
               10  DBLINK-R4045-ACTI        PIC X(16)
                       VALUE 'R4045-ACTI'.
               10  DBLINK-R4046-BANK-NAME   PIC X(16)
                       VALUE 'R4046-BANK-NAME'.
               10  DBLINK-R4050-ACTV        PIC X(16)
                       VALUE 'R4050-ACTV'.
               10  DBLINK-R4052-XTRN-ENTY   PIC X(16)
                       VALUE 'R4052-XTRN-ENTY'.
               10  DBLINK-R4053-INTR-ENTY   PIC X(16)
                       VALUE 'R4053-INTR-ENTY'.
               10  DBLINK-R4054-XTRN-CODE   PIC X(16)
                       VALUE 'R4054-XTRN-CODE'.
               10  DBLINK-R4056-AGNC        PIC X(16)
                       VALUE 'R4056-AGNC'.
               10  DBLINK-R4057-RQST-ID     PIC X(16)
                       VALUE 'R4057-RQST-ID'.
               10  DBLINK-R4060-RPT         PIC X(16)
                       VALUE 'R4060-RPT'.
               10  DBLINK-R4064-CS-EFCTV    PIC X(16)
                       VALUE 'R4064-CS-EFCTV'.
               10  DBLINK-R4065-IC-EFCTV    PIC X(16)
                       VALUE 'R4065-IC-EFCTV'.
               10  DBLINK-R4069-JRNL-HDR    PIC X(16)
                       VALUE 'R4069-JRNL-HDR'.
               10  DBLINK-R4070-RQST        PIC X(16)
                       VALUE 'R4070-RQST'.
               10  DBLINK-R4071-RQST-DTL    PIC X(16)
                       VALUE 'R4071-RQST-DTL'.
               10  DBLINK-R4072-BUYER       PIC X(16)
                       VALUE 'R4072-BUYER'.
               10  DBLINK-R4073-VENDOR      PIC X(16)
                       VALUE 'R4073-VENDOR'.
               10  DBLINK-R4074-CMDTY       PIC X(16)
                       VALUE 'R4074-CMDTY'.
               10  DBLINK-R4081-AGRMNT      PIC X(16)
                       VALUE 'R4081-AGRMNT'.
               10  DBLINK-R4083-PO-HDR      PIC X(16)
                       VALUE 'R4083-PO-HDR'.
               10  DBLINK-R4084-PO-CLASS    PIC X(16)
                       VALUE 'R4084-PO-CLASS'.
               10  DBLINK-R4085-PO-DTL      PIC X(16)
                       VALUE 'R4085-PO-DTL'.
               10  DBLINK-R4088-BID         PIC X(16)
                       VALUE 'R4088-BID'.
               10  DBLINK-R4089-BID-DTL     PIC X(16)
                       VALUE 'R4089-BID-DTL'.
               10  DBLINK-R4093-RCVNG-HDR   PIC X(16)
                       VALUE 'R4093-RCVNG-HDR'.
               10  DBLINK-R4096-PO-HDR-SEQ  PIC X(16)
                       VALUE 'R4096-PO-HDR-SEQ'.
               10  DBLINK-R4099-RETURNS     PIC X(16)
                       VALUE 'R4099-RETURNS'.
               10  DBLINK-R4104-VENDOR-CMD  PIC X(16)
                       VALUE 'R4104-VENDOR-CMD'.
               10  DBLINK-R4106-AUTO-JRNL   PIC X(16)
                       VALUE 'R4106-AUTO-JRNL'.
               10  DBLINK-R4120-TXT-HDR     PIC X(16)
                       VALUE 'R4120-TXT-HDR'.
               10  DBLINK-R4150-INV-HDR     PIC X(16)
                       VALUE 'R4150-INV-HDR'.
               10  DBLINK-R4151-INV-DTL     PIC X(16)
                       VALUE 'R4151-INV-DTL'.
               10  DBLINK-R4157-CHK-RQST-H  PIC X(16)
                       VALUE 'R4157-CHK-RQST-H'.
               10  DBLINK-R4158-CHK-HDR     PIC X(16)
                       VALUE 'R4158-CHK-HDR'.
               10  DBLINK-R4161-DSCNT-TBLE  PIC X(16)
                       VALUE 'R4161-DSCNT-TBLE'.
               10  DBLINK-R4163-RSBLE-INV   PIC X(16)
                       VALUE 'R4163-RSBLE-INV'.
               10  DBLINK-R4166-VNDR-TYPE   PIC X(16)
                       VALUE 'R4166-VNDR-TYPE'.
               10  DBLINK-R4168-TAX-RATES   PIC X(16)
                       VALUE 'R4168-TAX-RATES'.
               10  DBLINK-R4174-TOF-HDR     PIC X(16)
                       VALUE 'R4174-TOF-HDR'.
               10  DBLINK-R4180-RULE-CLASS  PIC X(16)
                       VALUE 'R4180-RULE-CLASS'.
               10  DBLINK-R4181-RULE-EFCTV  PIC X(16)
                       VALUE 'R4181-RULE-EFCTV'.
               10  DBLINK-R4183-ENCMBR-YRS  PIC X(16)
                       VALUE 'R4183-ENCMBR-YRS'.
               10  DBLINK-R4187-G-FOAPAL    PIC X(16)
                       VALUE 'R4187-G-FOAPAL'.
               10  DBLINK-R4188-TRAN-HIST   PIC X(16)
                       VALUE 'R4188-TRAN-HIST'.
               10  DBLINK-R4190-ENCMBR-DTL  PIC X(16)
                       VALUE 'R4190-ENCMBR-DTL'.
               10  DBLINK-R4191-ENCMBR-HDR  PIC X(16)
                       VALUE 'R4191-ENCMBR-HDR'.
               10  DBLINK-R4192-USER-PRFL   PIC X(16)
                       VALUE 'R4192-USER-PRFL'.
               10  DBLINK-R4197-GNRL-LDGR   PIC X(16)
                       VALUE 'R4197-GNRL-LDGR'.
               10  DBLINK-R4199-ACCT-LDGR   PIC X(16)
                       VALUE 'R4199-ACCT-LDGR'.
               10  DBLINK-R4203-DOCUMENT    PIC X(16)
                       VALUE 'R4203-DOCUMENT'.
               10  DBLINK-R4204-APRVL-J     PIC X(16)
                       VALUE 'R4204-APRVL-J'.
               10  DBLINK-R4205-APRVL-LVL   PIC X(16)
                       VALUE 'R4205-APRVL-LVL'.
               10  DBLINK-R4209-CLAUSE      PIC X(16)
                       VALUE 'R4209-CLAUSE'.
               10  DBLINK-R4212-APRVL-HDR   PIC X(16)
                       VALUE 'R4212-APRVL-HDR'.
               10  DBLINK-R4215-APRV-TMPLT  PIC X(16)
                       VALUE 'R4215-APRV-TMPLT'.
               10  DBLINK-R4224-DLVRY-HDR   PIC X(16)
                       VALUE 'R4224-DLVRY-HDR'.
               10  DBLINK-R4226-EXPR-VNDR   PIC X(16)
                       VALUE 'R4226-EXPR-VNDR'.
               10  DBLINK-R4228-FILE-CNTL   PIC X(16)
                       VALUE 'R4228-FILE-CNTL'.
               10  DBLINK-R4229-RLSE-HDR    PIC X(16)
                       VALUE 'R4229-RLSE-HDR'.
               10  DBLINK-R4230-RLSE-DTL    PIC X(16)
                       VALUE 'R4230-RLSE-DTL'.
               10  DBLINK-R4232-AP-TRANS    PIC X(16)
                       VALUE 'R4232-AP-TRANS'.
               10  DBLINK-R4300-AST         PIC X(16)
                       VALUE 'R4300-AST'.
               10  DBLINK-R4400-TRVL        PIC X(16)
                       VALUE 'R4400-TRVL'.
               10  DBLINK-R4401-EVENT       PIC X(16)
                       VALUE 'R4401-EVENT'.
               10  DBLINK-R4402-TRIP        PIC X(16)
                       VALUE 'R4402-TRIP'.
               10  DBLINK-R4405-EXPNS       PIC X(16)
                       VALUE 'R4405-EXPNS'.
               10  DBLINK-R4406-RECON       PIC X(16)
                       VALUE 'R4406-RECON'.
               10  DBLINK-R4410-TRVL-INV    PIC X(16)
                       VALUE 'R4410-TRVL-INV'.
               10  DBLINK-R6000-SYS         PIC X(16)
                       VALUE 'R6000-SYS'.
               10  DBLINK-R6001-UNVRS       PIC X(16)
                       VALUE 'R6001-UNVRS'.
               10  DBLINK-R6117-PRSN        PIC X(16)
                       VALUE 'R6117-PRSN'.
               10  DBLINK-R6151-STATE       PIC X(16)
                       VALUE 'R6151-STATE'.
               10  DBLINK-R6152-ZIP         PIC X(16)
                       VALUE 'R6152-ZIP'.
               10  DBLINK-R6153-COUNTRY     PIC X(16)
                       VALUE 'R6153-COUNTRY'.
               10  DBLINK-R6200-ACH-DATA    PIC X(16)
                       VALUE 'R6200-ACH-DATA'.
               10  DBLINK-R6257             PIC X(16)
                       VALUE 'R6257'.
               10  DBLINK-R6258             PIC X(16)
                       VALUE 'R6258'.
               10  DBLINK-R6259             PIC X(16)
                       VALUE 'R6259'.
               10  DBLINK-R6260             PIC X(16)
                       VALUE 'R6260'.
               10  DBLINK-R6268             PIC X(16)
                       VALUE 'R6268'.
               10  DBLINK-R6270             PIC X(16)
                       VALUE 'R6270'.
               10  DBLINK-R6273             PIC X(16)
                       VALUE 'R6273'.
               10  DBLINK-R6311-ENTY        PIC X(16)
                       VALUE 'R6311-ENTY'.
               10  DBLINK-R6313-PRSN-CHG    PIC X(16)
                       VALUE 'R6313-PRSN-CHG'.
               10  DBLINK-R6353-ENTY-CHG    PIC X(16)
                       VALUE 'R6353-ENTY-CHG'.
               10  DBLINK-R6600-TABL-HDR    PIC X(16)
                       VALUE 'R6600-TABL-HDR'.
               10  DBLINK-R6605             PIC X(16)
                       VALUE 'R6605'.
               10  DBLINK-R6606             PIC X(16)
                       VALUE 'R6606'.
               10  DBLINK-R8001             PIC X(16)
                       VALUE 'R8001'.
               10  DBLINK-R8002             PIC X(16)
                       VALUE 'R8002'.
               10  DBLINK-R8003             PIC X(16)
                       VALUE 'R8003'.
               10  DBLINK-R8005             PIC X(16)
                       VALUE 'R8005'.
               10  DBLINK-R8007             PIC X(16)
                       VALUE 'R8007'.
               10  DBLINK-R8008             PIC X(16)
                       VALUE 'R8008'.
               10  DBLINK-R8009             PIC X(16)
                       VALUE 'R8009'.
               10  DBLINK-R8010             PIC X(16)
                       VALUE 'R8010'.
               10  DBLINK-R8013             PIC X(16)
                       VALUE 'R8013'.
               10  DBLINK-R8020             PIC X(16)
                       VALUE 'R8020'.
               10  DBLINK-R8030             PIC X(16)
                       VALUE 'R8030'.
               10  DBLINK-R8040             PIC X(16)
                       VALUE 'R8040'.
               10  DBLINK-R8044             PIC X(16)
                       VALUE 'R8044'.
               10  DBLINK-R8050             PIC X(16)
                       VALUE 'R8050'.
               10  DBLINK-R8051             PIC X(16)
                       VALUE 'R8051'.
               10  DBLINK-R8052             PIC X(16)
                       VALUE 'R8052'.
           05  DBLINK-SET-NAMES.
               10  FILLER                   PIC X(1)        VALUE SPACE.
           05  DBLINK-AREA-NAMES.
               10  F-APPROVAL               PIC X(16)
                       VALUE 'F-APPROVAL'.
           05  DBLINK-RECORD-LOCK-FLAGS.
               10  FILLER                   PIC X(1)        VALUE SPACE.
           05  DBLINK-CURSOR-NAMES.
               10  DBLINK-R4203-DOCUMENT-N  PIC X(18)
                       VALUE 'R4203-DOCUMENT-N'.
           05  DBLINK-CURSOR-CODES.
               10  DBLINK-R4203-DOCUMENT-N-CODE
                                            PIC X(1)        VALUE 'C'.
               10  DBLINK-R4203-DOCUMENT-N-FLAG
                                            PIC X(1)        VALUE 'N'.
           02  DBLINK-KEYS.
UCSDX      EXEC SQL
UCSDX          INCLUDE CBRSKEYS
UCSDX      END-EXEC.
      /
      *%-------------------------------------------------------------- *
      *%                                                               *
      *%                  CONTROL AREAS AND VIEWS                      *
      *%                                                               *
      *%-------------------------------------------------------------- *

      *%****************************** *
      *%CONVERT/DB COMMAREA
      *%****************************** *
           EXEC SQL
               INCLUDE SQLCA
           END-EXEC.

      *%****************************** *
      *%DOC_DOCUMENT_V AREAS(HOST VAR INCLUDE)
      *%****************************** *
      *%   EXEC SQL
      *%       INCLUDE CBHV4203
CPYNME     EXEC SQL
CPYNME         INCLUDE HVDOC
CPYNME     END-EXEC.
      *%   END-EXEC.


      /
      *%-------------------------------------------------------------- *
      *%                                                               *
      *%                    CURSOR DECLARATIONS                        *
      *%                                                               *
      *%-------------------------------------------------------------- *

      *%****************************** *
      *%CURSOR FOR ALL DOC_DOCUMENT_V
      *%****************************** *
           EXEC SQL
               DECLARE R4203_DOCUMENT_N CURSOR WITH HOLD FOR
               SELECT
                  USER_CD
                 ,LAST_ACTVY_DT
                 ,UNVRS_CD
                 ,SEQ_NBR
                 ,DOC_TYP
                 ,DOC_DESC
                 ,START_DT
                 ,END_DT
                 ,ACTVY_DT
               FROM DOC_DOCUMENT_V
           END-EXEC.

       PROCEDURE DIVISION.
      /
      *%-------------------------------------------------------------- *
      *%                                                               *
      *%              000-SQL-INITIALIZATION ROUTINE                   *
      *%                                                               *
      *%-------------------------------------------------------------- *
       000-SQL-INITIALIZATION.
           MOVE '000-SQL-INITIALIZATION' TO DBLINK-CURR-PARAGRAPH.
           ACCEPT DBLINK-RUN-DATE-2 FROM DATE.
           MOVE DBLINK-RUN-DATE-2-MO TO DBLINK-RUN-DATE-MO.
           MOVE DBLINK-RUN-DATE-2-DY TO DBLINK-RUN-DATE-DY.
           MOVE DBLINK-RUN-DATE-2-YR TO DBLINK-RUN-DATE-YR.
           ACCEPT DBLINK-TIME FROM TIME.
           MOVE DBLINKX-NULL-DB2-DATE-ISO TO DBLINK-DEFAULT-DATE.
           MOVE '0001-01-01' TO DBLINK-LOW-DATE.
           MOVE '9999-12-31' TO DBLINK-HIGH-DATE.
           MOVE DBLINKX-NULL-DB2-TIME-ISO TO DBLINK-DEFAULT-TIME.
           MOVE '00.00.01' TO DBLINK-LOW-TIME.
           MOVE '23.59.59' TO DBLINK-HIGH-TIME.
       000-SQL-INITIALIZATION-EXIT.
           EXIT.

      ******************************************************************

       MAIN-DRIVER.

           DISPLAY  '>>>>  UDWF725 STARTING  <<<<'.

           PERFORM  XX100-INITIALIZE.

           PERFORM  AA100-MAINLINE   UNTIL  END-OF-JOB.

           PERFORM  ZZ100-END-OF-PROGRAM.

           DISPLAY  '>>>>  UDWF725 FINISHED  <<<<'.

           GOBACK.
           EJECT
      ******************************************************************
       AA100-MAINLINE.
      ******************************************************************
      **   THIS PARAGRAPH IS THE MAIN PROCESSING PROGRAM DRIVER.      **
      ******************************************************************

           IF  NOT  END-OF-JOB
               PERFORM  AA110-MOVE-R4203-INFO
               PERFORM  AA120-GET-NEXT-R4203.
           EJECT
      ******************************************************************
       AA110-MOVE-R4203-INFO.
      ******************************************************************
      **   THIS PARAGRAPH WILL MOVE THE R4203 INFO TO THE OUTPUT      **
      **   RECORD AND WRITE THE RECORD.                               **
      ******************************************************************

           MOVE  SEQ-NMBR-4203                 TO  WS-SEQ-NMBR.
           MOVE  DCMNT-TYPE-4203               TO  WS-DCMNT-TYPE.
           MOVE  DCMNT-DESC-4203               TO  WS-DCMNT-DESC.

           WRITE  DOCUMENT-RECORD            FROM  WS-DOCUMENT-RECORD.

           ADD  +1                             TO  CTR-DOCUMENT-WRITTEN.
           EJECT
      ******************************************************************
       AA120-GET-NEXT-R4203.
      ******************************************************************
      **   THIS PARAGRAPH WILL GET THE NEXT R4203 RECORD.             **
      ******************************************************************

      *%   FIND  CURRENT  R4203-DOCUMENT.
           MOVE 0001 TO DBLINK-CURR-IO-NUM
           MOVE DBLINK-FIND TO DBLINK-TYPE-SELECT
           MOVE DBLINK-CURR TO DBLINK-TYPE-GET
           IF DBLINK-R4203-DOCUMENT-KEY = SPACES
               MOVE DBLINK-NO-CURRENCY TO ERROR-STATUS
               MOVE +100 TO SQLCODE
           ELSE
               MOVE ZERO TO ERROR-STATUS
               MOVE 0 TO SQLCODE
               MOVE DBLINK-R4203-DOCUMENT-01 TO DOC-SEQ-NBR
               PERFORM 906-05-R4203-DOCUMENT
                  THRU 906-05-R4203-DOCUMENT-EXIT
           END-IF
           PERFORM 999-SQL-STATUS
              THRU 999-SQL-STATUS-EXIT.

      *%   OBTAIN  NEXT   R4203-DOCUMENT   WITHIN  F-APPROVAL
           MOVE 0002 TO DBLINK-CURR-IO-NUM
           MOVE DBLINK-OBTAIN TO DBLINK-TYPE-SELECT
           MOVE DBLINK-NEXT TO DBLINK-TYPE-GET
           PERFORM 906-00N-R4203-DOCUMENT
              THRU 906-00N-R4203-DOCUMENT-EXIT
      *%       ON  DB-END-OF-SET
               IF NOT DB-END-OF-SET
                   PERFORM 999-SQL-STATUS
                      THRU 999-SQL-STATUS-EXIT
               ELSE
                   MOVE  'YES'                 TO  SW-END-OF-JOB.

           IF  NOT  END-OF-JOB
               ADD  +1                         TO  CTR-R4203-READ.
           EJECT
      ******************************************************************
       XX100-INITIALIZE.
      ******************************************************************
      **   THIS PARAGRAPH WILL OPEN THE OUTPUT FILES, BIND THE        **
      **   DATABASE RECORDS, AND GET THE FIRST R4203 RECORD.          **
      ******************************************************************

           ACCEPT  WS-ACCEPT-DATE            FROM  DATE.
           ACCEPT  WS-TIME                   FROM  TIME.

           IF  WS-DATE-YEAR  >  50
               MOVE  19                        TO  WS-CENTURY
      *RJW                                         WS-HOLD-CENT
           ELSE
               MOVE  20                        TO  WS-CENTURY.
      *RJW                                         WS-HOLD-CENT

           MOVE    WS-CURRENT-DATE             TO  WS-REFRESH-DATE.
           MOVE    WS-TIME-HRS                 TO  WS-TS-HH.
           MOVE    WS-TIME-MM                  TO  WS-TS-MM.


           OPEN  OUTPUT  DOCUMENT-FILE.

           PERFORM  XX110-BIND-READY.
           PERFORM  XX120-GET-FIRST-R4203.
           EJECT
      ******************************************************************
       XX110-BIND-READY.
      ******************************************************************
      **   THIS PARAGRAPH WILL BIND AND READY DATABASE RECORDS/AREAS. **
      ******************************************************************

           MOVE  HAD-DICTIONARY                TO  LINKAGE-PARAMETER.

      *%   BIND  RUN-UNIT  DBNAME  LK-PARM-DICT.
           MOVE 0003 TO DBLINK-CURR-IO-NUM
           MOVE +0 TO SQLCODE
           MOVE ZERO TO ERROR-STATUS
           PERFORM 986-RESET-KEYS
              THRU 986-RESET-KEYS-EXIT.
             IF  ANY-ERROR-STATUS
                 PERFORM 999-SQL-STATUS
                    THRU 999-SQL-STATUS-EXIT.

      *%   BIND  R4203-DOCUMENT.
           MOVE 0004 TO DBLINK-CURR-IO-NUM
           MOVE +0 TO SQLCODE
           MOVE ZERO TO ERROR-STATUS.
             IF  ANY-ERROR-STATUS
                 PERFORM 999-SQL-STATUS
                    THRU 999-SQL-STATUS-EXIT.

      *%   READY  F-APPROVAL           USAGE-MODE  IS  RETRIEVAL.
           MOVE 0005 TO DBLINK-CURR-IO-NUM
           MOVE +0 TO SQLCODE
           MOVE ZERO TO ERROR-STATUS.
           EJECT
      ******************************************************************
       XX120-GET-FIRST-R4203.
      ******************************************************************
      **   THIS PARAGRAPH WILL GET THE FIRST R4203 RECORD.            **
      ******************************************************************

      *%   OBTAIN  FIRST  R4203-DOCUMENT    WITHIN  F-APPROVAL
           MOVE 0006 TO DBLINK-CURR-IO-NUM
           MOVE DBLINK-OBTAIN TO DBLINK-TYPE-SELECT
           MOVE DBLINK-FIRST TO DBLINK-TYPE-GET
           PERFORM 906-00N-R4203-DOCUMENT
              THRU 906-00N-R4203-DOCUMENT-EXIT
      *%       ON  DB-END-OF-SET
               IF NOT DB-END-OF-SET
                   PERFORM 999-SQL-STATUS
                      THRU 999-SQL-STATUS-EXIT
               ELSE
                   MOVE  'YES'                 TO  SW-END-OF-JOB.

           IF  NOT  END-OF-JOB
               ADD  +1                         TO  CTR-R4203-READ.
           EJECT
      ******************************************************************
       ZZ100-END-OF-PROGRAM.
      ******************************************************************
      *  THE FOLLOWING PARAGRAPH WILL HANDLE END OF PROGRAM PROCESSING *
      ******************************************************************

           CLOSE  DOCUMENT-FILE.

           MOVE  CTR-R4203-READ                TO  CTR-R4203-READ-Z.
           MOVE  CTR-DOCUMENT-WRITTEN          TO
                                               CTR-DOCUMENT-WRITTEN-Z.

           DISPLAY  '  '.
           DISPLAY  '***************************************'.
           DISPLAY  'NBR OF R4203-DOCUMENT READ===>  '
                                                  CTR-R4203-READ-Z.
           DISPLAY  '***************************************'.
           DISPLAY  'NBR OF DOCUMENT WRITTEN======>  '
                                            CTR-DOCUMENT-WRITTEN-Z.
           DISPLAY  '***************************************'.
           DISPLAY  '  '.

      *%   FINISH.
           MOVE 0007 TO DBLINK-CURR-IO-NUM
           MOVE +0 TO SQLCODE
           MOVE ZERO TO ERROR-STATUS
           PERFORM 986-RESET-KEYS
              THRU 986-RESET-KEYS-EXIT
           PERFORM 996-COMMIT
              THRU 996-COMMIT-EXIT
           PERFORM 999-SQL-STATUS
              THRU 999-SQL-STATUS-EXIT.
           EJECT
      ******************************************************************
      ******************************************************************
      *COPY  IDMS  IDMS-STATUS.
      ******************************************************************
      ******************************************************************

       IDMS-ABORT SECTION.
       IDMS-ABORT-START.

           DISPLAY  '****  PROGRAM UDWF725 ABORTING  ****'.

       IDMS-ABORT-EXIT.
           EXIT.
      /
      *%-------------------------------------------------------------- *
      *%                                                               *
      *%                   900-START-SUBROUTINES                       *
      *%                                                               *
      *%-------------------------------------------------------------- *
       900-START-SUBROUTINES SECTION.
      *    CONVERT/DB SUBROUTINES FOLLOW
       900-START-SUBROUTINES-EXIT.
           EXIT.

      /
      *%-------------------------------------------------------------- *
      *%                                                               *
      *%              906-00N-R4203-DOCUMENT ROUTINE                   *
      *%                                                               *
      *%-------------------------------------------------------------- *
       906-00N-R4203-DOCUMENT.
           MOVE '906-00N-R4203-DOCUMENT' TO DBLINK-CURR-PARAGRAPH.
           MOVE 'R4203-DOCUMENT' TO ERROR-RECORD.
           MOVE ZERO TO ERROR-STATUS.
           MOVE ' ' TO ERROR-SET.
           MOVE 'F-APPROVAL' TO ERROR-AREA.
           MOVE DBLINK-R4203-DOCUMENT-N TO DBLINK-CURSOR-NAME-WORK.
           MOVE '$$AREA' TO DBLINK-SET-NAME-WORK.
           MOVE ' ' TO DBLINK-RECORD-MADE-CURRENT.
           IF DBLINK-TYPE-GET = 'F'
               MOVE 'Y' TO DBLINK-R4203-DOCUMENT-N-FLAG
               PERFORM 991-CLOSE-CURSORS
                  THRU 991-CLOSE-CURSORS-EXIT
               IF ERROR-STATUS = DBLINK-DB2-ERROR
                   GO TO 906-00N-R4203-DOCUMENT-EXIT
               END-IF
               MOVE 'N' TO DBLINK-R4203-DOCUMENT-N-FLAG
               MOVE DBLINK-MINUS-NINES TO DBLINK-R4203-DOCUMENT-01
           END-IF.
           IF DBLINK-R4203-DOCUMENT-N-CODE = DBLINK-CLOSED
               EXEC SQL
                   OPEN R4203_DOCUMENT_N
               END-EXEC
               IF SQLCODE NOT = 0
                   MOVE DBLINK-DB2-ERROR TO ERROR-STATUS
                   GO TO 906-00N-R4203-DOCUMENT-EXIT
               END-IF
               MOVE DBLINK-OPEN TO DBLINK-R4203-DOCUMENT-N-CODE
           END-IF.
           EXEC SQL
               FETCH R4203_DOCUMENT_N
               INTO
                  :DOC-USER-CD
                 ,:DOC-LAST-ACTVY-DT
                 ,:DOC-UNVRS-CD
                 ,:DOC-SEQ-NBR
                 ,:DOC-DOC-TYP
                 ,:DOC-DOC-DESC
                 ,:DOC-START-DT
                 ,:DOC-END-DT
                 ,:DOC-ACTVY-DT
           END-EXEC.
           IF SQLCODE = +100
               MOVE 'Y' TO DBLINK-R4203-DOCUMENT-N-FLAG
               PERFORM 991-CLOSE-CURSORS
                  THRU 991-CLOSE-CURSORS-EXIT
               IF ERROR-STATUS = DBLINK-DB2-ERROR
                   GO TO 906-00N-R4203-DOCUMENT-EXIT
               END-IF
               MOVE 'N' TO DBLINK-R4203-DOCUMENT-N-FLAG
               MOVE DBLINK-END-OF-RCDS TO ERROR-STATUS
               MOVE DBLINK-NONE TO DBLINK-TYPE-LOCK
               GO TO 906-00N-R4203-DOCUMENT-EXIT
           END-IF.
           IF SQLCODE NOT = 0
               MOVE DBLINK-DB2-ERROR TO ERROR-STATUS
               GO TO 906-00N-R4203-DOCUMENT-EXIT
           END-IF.
           PERFORM 985-CURR-R4203-DOCUMENT
              THRU 985-CURR-R4203-DOCUMENT-EXIT.
           IF ERROR-STATUS = DBLINK-DB2-ERROR
               GO TO 906-00N-R4203-DOCUMENT-EXIT
           END-IF.
           IF DBLINK-TYPE-SELECT = 'O'
               PERFORM 975-TO-R4203-DOCUMENT
                  THRU 975-TO-R4203-DOCUMENT-EXIT
           END-IF.
       906-00N-R4203-DOCUMENT-EXIT.
           EXIT.
      /
      *%-------------------------------------------------------------- *
      *%                                                               *
      *%               906-05-R4203-DOCUMENT ROUTINE                   *
      *%                                                               *
      *%-------------------------------------------------------------- *
       906-05-R4203-DOCUMENT.
           MOVE '906-05-R4203-DOCUMENT' TO DBLINK-CURR-PARAGRAPH.
           MOVE 'R4203-DOCUMENT' TO ERROR-RECORD.
           MOVE ZERO TO ERROR-STATUS.
           EXEC SQL
               SELECT
                  USER_CD
                 ,LAST_ACTVY_DT
                 ,UNVRS_CD
                 ,SEQ_NBR
                 ,DOC_TYP
                 ,DOC_DESC
                 ,START_DT
                 ,END_DT
                 ,ACTVY_DT
               INTO
                  :DOC-USER-CD
                 ,:DOC-LAST-ACTVY-DT
                 ,:DOC-UNVRS-CD
                 ,:DOC-SEQ-NBR
                 ,:DOC-DOC-TYP
                 ,:DOC-DOC-DESC
                 ,:DOC-START-DT
                 ,:DOC-END-DT
                 ,:DOC-ACTVY-DT
               FROM DOC_DOCUMENT_V
               WHERE SEQ_NBR = :DOC-SEQ-NBR
           END-EXEC.
           IF SQLCODE = +100
               EVALUATE DBLINK-TYPE-GET
                   WHEN DBLINK-CALC
                       MOVE DBLINK-NOT-FOUND TO ERROR-STATUS
                   WHEN DBLINK-CURR
                       MOVE DBLINK-NO-CURRENCY TO ERROR-STATUS
                   WHEN DBLINK-DBKEY
                       MOVE DBLINK-DBKEY-ERROR TO ERROR-STATUS
                   WHEN OTHER
                       MOVE DBLINK-DB2-ERROR TO ERROR-STATUS
               END-EVALUATE
               GO TO 906-05-R4203-DOCUMENT-EXIT
           END-IF.
           IF SQLCODE NOT = 0
               MOVE DBLINK-DB2-ERROR TO ERROR-STATUS
               GO TO 906-05-R4203-DOCUMENT-EXIT
           END-IF.
           MOVE DBLINK-R4203-DOCUMENT TO DBLINK-RECORD-MADE-CURRENT.
           MOVE ' ' TO DBLINK-SET-NAME-WORK.
           MOVE ' ' TO DBLINK-CURSOR-NAME-WORK.
           PERFORM 985-CURR-R4203-DOCUMENT
              THRU 985-CURR-R4203-DOCUMENT-EXIT.
           IF ERROR-STATUS = DBLINK-DB2-ERROR
               GO TO 906-05-R4203-DOCUMENT-EXIT
           END-IF.
           IF DBLINK-TYPE-SELECT = 'O'
               PERFORM 975-TO-R4203-DOCUMENT
                  THRU 975-TO-R4203-DOCUMENT-EXIT
           END-IF.
       906-05-R4203-DOCUMENT-EXIT.
           EXIT.

      *%****************************** *
      *% 975-TO-R4203-DOCUMENT ROUTINE
      *%****************************** *
      *%   COPY CB754203.
CPYNME     COPY HVIDDOC.

      *%****************************** *
      *% 976-FROM-R4203-DOCUMENT ROUTINE
      *%****************************** *
      *%   COPY CB764203.
CPYNME     COPY IDHVDOC.
      /
      *%-------------------------------------------------------------- *
      *%                                                               *
      *%              985-CURR-R4203-DOCUMENT ROUTINE                  *
      *%                                                               *
      *%-------------------------------------------------------------- *
       985-CURR-R4203-DOCUMENT.
           MOVE '985-CURR-R4203-DOCUMENT' TO DBLINK-CURR-PARAGRAPH.

      *%****************************** *
      *%INITIALIZE DBLINK SUBSCHEMA-CTRL
      *%****************************** *
           MOVE ZERO TO ERROR-STATUS.
           MOVE SPACES TO ERROR-AREA.
           MOVE SPACES TO ERROR-SET.
           MOVE SPACES TO ERROR-RECORD.
           MOVE 'R4203-DOCUMENT' TO RECORD-NAME.
           MOVE 'F-APPROVAL' TO AREA-NAME.

      *%****************************** *
      *%CLOSE ALL RECORD-RELATED CURSORS
      *%****************************** *
           MOVE DBLINK-R4203-DOCUMENT TO DBLINK-RECORD-MADE-CURRENT.
           MOVE ' ' TO DBLINK-CURSOR-NAME-WORK.
           PERFORM 991-CLOSE-CURSORS
              THRU 991-CLOSE-CURSORS-EXIT.
           IF ERROR-STATUS = DBLINK-DB2-ERROR
               GO TO 985-CURR-R4203-DOCUMENT-EXIT
           END-IF.
           MOVE ' ' TO DBLINK-RECORD-MADE-CURRENT.

      *%****************************** *
      *%SET RECORD KEY
      *%****************************** *
           IF DBLINK-TYPE-GET NOT = DBLINK-CURR
               MOVE DOC-SEQ-NBR TO DBLINK-R4203-DOCUMENT-01
           END-IF.

      *%****************************** *
      *%SET CURRENT OF RUN-UNIT
      *%****************************** *
           MOVE DBLINK-R4203-DOCUMENT TO DBLINK-VIEW-NAME-CURRENT.
           MOVE DBLINK-R4203-DOCUMENT-KEY TO DBLINK-VIEW-200-CURRENT.

      *%****************************** *
      *%SET KEYS FOR SETS WHICH RECORD OWNS
      *%****************************** *

      *%****************************** *
      *%SET KEYS FOR SETS IN WHICH RECORD IS MEMBER
      *%****************************** *
       985-CURR-R4203-DOCUMENT-EXIT.
           EXIT.
      /
      *%-------------------------------------------------------------- *
      *%                                                               *
      *%                  986-RESET-KEYS ROUTINE                       *
      *%                                                               *
      *%-------------------------------------------------------------- *
       986-RESET-KEYS.
           MOVE '986-RESET-KEYS' TO DBLINK-CURR-PARAGRAPH.
           MOVE SPACES TO DBLINK-RECORD-KEYS.
           MOVE LOW-VALUES TO DBLINK-SET-KEYS.
       986-RESET-KEYS-EXIT.
           EXIT.
      /
      *%-------------------------------------------------------------- *
      *%                                                               *
      *%                 991-CLOSE-CURSORS ROUTINE                     *
      *%                                                               *
      *%-------------------------------------------------------------- *
       991-CLOSE-CURSORS.
           IF DBLINK-R4203-DOCUMENT-N-CODE = DBLINK-OPEN
               IF DBLINK-CURSOR-NAME-WORK = '$$ALL'
                 OR DBLINK-R4203-DOCUMENT-N-FLAG = 'Y'
                   EXEC SQL
                       CLOSE R4203_DOCUMENT_N
                   END-EXEC
                   IF SQLCODE NOT = 0
                       MOVE DBLINK-DB2-ERROR TO ERROR-STATUS
                       GO TO 991-CLOSE-CURSORS-EXIT
                   END-IF
                   MOVE DBLINK-CLOSED TO DBLINK-R4203-DOCUMENT-N-CODE
               END-IF
           END-IF.
       991-CLOSE-CURSORS-EXIT.
           EXIT.
      /
      *%-------------------------------------------------------------- *
      *%                                                               *
      *%                    996-COMMIT ROUTINE                         *
      *%                                                               *
      *%-------------------------------------------------------------- *
       996-COMMIT.
           MOVE '996-COMMIT' TO DBLINK-CURR-PARAGRAPH.
           EXEC SQL
               COMMIT WORK
           END-EXEC.
       996-COMMIT-EXIT.
           EXIT.
      /
      *%-------------------------------------------------------------- *
      *%                                                               *
      *%                  999-SQL-STATUS ROUTINE                       *
      *%                                                               *
      *%-------------------------------------------------------------- *
       999-SQL-STATUS.
           EXEC SQL
               INCLUDE BTCHERR
           END-EXEC.
       999-SQL-STATUS-EXIT.
           EXIT.

