       IDENTIFICATION DIVISION.                                         00010000
       PROGRAM-ID. UGAU930.
       AUTHOR.        BSPEAR                                            00030000
       DATE-WRITTEN.  DECEMBER 2001.                                    00040000
       DATE-COMPILED.                                                   00050000
      ****----------------------------------------------------------****
      **  MODIFICATIONS:                                               *00080001
      **  AUTHOR    DATE    DESCRIPTION                                *
      **  ------- --------  ----------------------------------------   *
      **  DEVXXX  MM/DD/YY  DESCRIPTION                                *
      ****----------------------------------------------------------****

      /
       ENVIRONMENT DIVISION.                                            00130000
       CONFIGURATION SECTION.                                           00140000
       SOURCE-COMPUTER.                                                 00150002
       OBJECT-COMPUTER.                                                 00160002
                                                                        00170000
       INPUT-OUTPUT SECTION.                                            00180000
       FILE-CONTROL.                                                    00190000
                                                                        00200000
           COPY STDCRSL.                                                00210000
                                                                        00220000
           SELECT PARM-FILE               ASSIGN TO PARMS.              00230003
                                                                        00220000
           SELECT ENPET-FILE              ASSIGN TO APHEXT.
                                                                        00220000
           SELECT ENPET-STATUS-FILE       ASSIGN TO ENPETSTS.
      /                                                                 00280000
                                                                        00320000
       DATA DIVISION.                                                   00330000
                                                                        00360000
       FILE SECTION.                                                    00370000
                                                                        00380000
       COPY STDCRFD.                                                    00390000
                                                                        00400000
      ****************************************************************  00410000
      *  PARM FILE                                                      00420000
      ****************************************************************  00430000
       FD  PARM-FILE                                                    00440000
           RECORDING MODE IS F                                          00450000
           LABEL RECORDS ARE OMITTED                                    00460000
           BLOCK CONTAINS 0 RECORDS                                     00470000
           RECORD CONTAINS 80 CHARACTERS                                00480000
           DATA RECORD IS PARM-RECORD.                                  00490000
                                                                        00500000
       01  PARM-RECORD                       PIC X(80).                 00510000
                                                                        00520000
      ****************************************************************
      *  OUTPUT FILE
      ****************************************************************
       FD  ENPET-FILE
           RECORDING MODE IS F
           LABEL RECORDS ARE OMITTED
           BLOCK CONTAINS 0 RECORDS
           RECORD CONTAINS 80 CHARACTERS
           DATA RECORD IS ENPET-RECORD.

       01  ENPET-RECORD                   PIC X(80).

       FD  ENPET-STATUS-FILE
           RECORDING MODE IS F
           LABEL RECORDS ARE OMITTED
           BLOCK CONTAINS 0 RECORDS
           RECORD CONTAINS 80 CHARACTERS
           DATA RECORD IS ENPET-STATUS-RECORD.

       01  ENPET-STATUS-RECORD.
           05  ESR-DOC-NBR                 PIC X(8).
           05  FILLER                      PIC X(1).
           05  ESR-STATUS-SW               PIC X(1).
           05  FILLER                      PIC X(70).

      /                                                                 00760000

       WORKING-STORAGE SECTION.                                         00770000
                                                                        00780000
       01  DBLINK-USER-CD   PIC X(8) VALUE 'UGAU930'.
       01  FILLER                            PIC X(035)                 00790000
           VALUE 'BEGIN WORKING STORAGE FOR UGAU930'.                   00800000
                                                                        00810000
       01  MISC-FLDS.
           05  EOF-SW                      PIC X VALUE SPACE.
           05  ENPETMAP-SYSDAT-FOUND       PIC X VALUE 'N'.
           05  ENPETDOC-SYSDAT-FOUND       PIC X VALUE 'N'.
           05  DOC-ENPET-TEST              PIC X(2).
           05  VALID-ENPET-DOC             PIC X VALUE 'N'.
           05  INPUT-ENPET-COUNT           PIC 9(8) VALUE ZERO.
           05  OUTPUT-ENPET-COUNT          PIC 9(8) VALUE ZERO.
           05  COMMIT-COUNT                PIC 9(8) VALUE ZERO.
           05  JLH-COUNT                   PIC S9(8) COMP SYNC.
           05  JLD-COUNT                   PIC S9(8) COMP SYNC.
           05  APH-COUNT                   PIC S9(8) COMP SYNC.
           05  APD-COUNT                   PIC S9(8) COMP SYNC.
           05  TXH-COUNT                   PIC S9(8) COMP SYNC.
           05  TXD-COUNT                   PIC S9(8) COMP SYNC.
           05  JLH-ERASED                  PIC 9(8) VALUE ZERO.
           05  JLD-ERASED                  PIC 9(8) VALUE ZERO.
           05  APH-ERASED                  PIC 9(8) VALUE ZERO.
           05  APD-ERASED                  PIC 9(8) VALUE ZERO.
           05  TXH-ERASED                  PIC 9(8) VALUE ZERO.
           05  TXD-ERASED                  PIC 9(8) VALUE ZERO.
                                                                        00810000
       01  ENPET-WORK-RECORD.
           05 EWR-DOC-NBR                  PIC X(8).
           05 EWR-FSCL-YR                  PIC X(2).
           05 FILLER                       PIC X(70).
                                                                        00810000
       01  TEXT-DOC-NBR                    PIC X(15).
                                                                        00810000
       01  WS-CONTROL-RECORD                 PIC X(80).                 00870000
       01  WS-CONTROL-REDF1 REDEFINES WS-CONTROL-RECORD.                00880000
           03  WS-COMMIT-CTR-AREA            PIC X(16).                 00890000
               88  WS-COMMIT-CTR-LITERAL     VALUE
                   '*COMMIT COUNTER '.
           03  PARM-COMMIT-CTR               PIC 9(04).
           03  FILLER                        PIC X(60).
       01  WS-CONTROL-REDF2 REDEFINES WS-CONTROL-RECORD.
           03  WS-TESTING-AREA               PIC X(08).
               88  WS-TESTING-LITERAL        VALUE
                   '*TESTING'.
           03  FILLER                        PIC X(72).
       01  WS-CONTROL-REDF3 REDEFINES WS-CONTROL-RECORD.
           03  WS-STOP-TIME-AREA             PIC X(17).
               88  STOP-TIME-LITERAL         VALUE
                   '*STOP AFTER TIME '.
           03  PARM-STOP-TIME                PIC X(04).
           03  FILLER                        PIC X(59).
       01  WS-CONTROL-REDF4 REDEFINES WS-CONTROL-RECORD.
           03  WS-ELAPSE-TIME-CARD           PIC X(19).
               88  ELAPSE-TIME-LITERAL       VALUE
                   '*ELAPSE TIME LIMIT '.
           03  PARM-ELAPSE-TIME-LIMIT        PIC X(04).
           03  FILLER                        PIC X(57).                 100000

       01  WS-PARM-COMMIT-CTR                PIC 9(04) VALUE 0.         03240000
       01  WS-TESTING-IND                    PIC 9(01) VALUE 0.
           88  TESTING VALUE 1.
       COPY STDWS.                                                      01110000
                                                                        01120000
                                                                        01310000
      /                                                                 01410000
       01  SUBSCHEMA-CONTROL  PIC X.
                                                                        01470000
           EXEC SQL INCLUDE HVSDT
           END-EXEC.

           EXEC SQL INCLUDE HVSSD
           END-EXEC.

           EXEC SQL INCLUDE HVJLH
           END-EXEC.

           EXEC SQL INCLUDE HVJLD
           END-EXEC.

           EXEC SQL INCLUDE HVAPH
           END-EXEC.

           EXEC SQL INCLUDE HVAPD
           END-EXEC.

           EXEC SQL INCLUDE HVTXH
           END-EXEC.

           EXEC SQL INCLUDE HVTXD
           END-EXEC.

       01  FILLER                       PIC X(032)                      01500000
           VALUE 'END WORKING STORAGE FOR UGAU930'.                     01510000
                                                                        01520000
           EXEC SQL
               INCLUDE CBCVDBCA
           END-EXEC.

      /
      *%-------------------------------------------------------------- *
      *%                                                               *
      *%          STANDARD CONVERT/DB COMMUNICATION AREAS              *
      *%                                                               *
      *%-------------------------------------------------------------- *
           COPY BTCHWS.
      /
      *%-------------------------------------------------------------- *
      *%                                                               *
      *%                  CONTROL AREAS AND VIEWS                      *
      *%                                                               *
      *%-------------------------------------------------------------- *

      *%****************************** *
      *%CONVERT/DB COMMAREA
      *%****************************** *
           EXEC SQL
               INCLUDE SQLCA
           END-EXEC.

      /
      *%-------------------------------------------------------------- *
      *%                                                               *
      *%                    CURSOR DECLARATIONS                        *
      *%                                                               *
      *%-------------------------------------------------------------- *

       PROCEDURE DIVISION.                                              01530000
      /
       0000-CONTROL.                                                    01550000
                                                                        01560000
           PERFORM 1000-INITIALIZE                                      01570000
              THRU 1000-EXIT.                                           01580000
                                                                        01590000
           IF  STD-WS-PROGRAM-FAILED = 'N'                              01600000
               PERFORM 2000-MAINLINE THRU 2000-EXIT
                  UNTIL EOF-SW = 'Y'
           ELSE
               MOVE '9999' TO ERROR-STATUS
               PERFORM 999-SQL-STATUS
                  THRU 999-SQL-STATUS-EXIT.
                                                                        01630000
           PERFORM 9000-END-OF-PROGRAM                                  01640000
              THRU 9000-EXIT.                                           01650000
                                                                        01660000
       0000-EXIT.                                                       01670000
           EXIT.                                                        01680000
      /                                                                 01690000
      ****************************************************************  01700000
      *  THE FOLLOWING PARAGRAPH WILL:                                  01710000
      *                                                                 01720000
      *      SETUP CONTROL REPORT FIELDS                                01730000
      *      SETUP REPORT01 FIELDS                                      01740000
      *      READ AND VALIDATE THE PARAMETER THE CARDS                  01750000
      *      OPEN REPORT FILES                                          01770000
      *                                                                 01780000
      ****************************************************************  01790000
       1000-INITIALIZE.                                                 01800000
                                                                        01810000
      * SETUP AND PERFORM 99999-STD-CRPT-BEGIN                          01820000
                                                                        01830000
           MOVE 'UGAU930'            TO STD-WS-PROGRAM-NAME.            01840000
           MOVE 'ENPET JOURNAL VOUCHER PURGE PROCESS' TO                01850000
                STD-WS-CRPT-DESCR-1.                                    01860000
           MOVE 60                   TO STD-WS-CRPT-RETAIN-DAYS.        01870000
           PERFORM 99999-STD-CRPT-BEGIN.                                01880000
                                                                        01890000
      * SETUP THE USE OF STD-RPT1                                       01900000
                                                                        01910000
           MOVE 0    TO STD-WS-RPT1-PAGE-CNT.                           01920000
           MOVE 9999 TO STD-WS-RPT1-LINE-CNT.                           01930000
                                                                        01940000
           MOVE 'REPORT01' TO STD-WS-RPT1-DDNAME.                       01950005
           MOVE 'ENPET JOURNAL VOUCHER PURGE PROCESS' TO                01850000
                STD-WS-FIELD-TO-CENTER.                                 01970000
           MOVE 60   TO STD-WS-FIELD-TO-CENTER-LEN.                     01980000
           PERFORM 99999-STD-CENTER-FIELD.                              01990000
           MOVE STD-WS-FIELD-CENTERED TO STD-WS-RPT1-DESCR-1.           02000000
                                                                        02010000
           MOVE 'DOCUMENT SUMMARY' TO                                   02020000
                STD-WS-FIELD-TO-CENTER.                                 02030000
           MOVE 30                   TO STD-WS-RETAIN-DAYS.             02040000
           MOVE 60   TO STD-WS-FIELD-TO-CENTER-LEN.                     02050000
           PERFORM 99999-STD-CENTER-FIELD.                              02060000
           MOVE STD-WS-FIELD-CENTERED TO STD-WS-RPT1-DESCR-2.           02070000
                                                                        02080000
           PERFORM 99999-STD-CALC-RETENTION.                            02090000
           MOVE STD-WS-RETENTION TO STD-WS-RPT1-RETENTION.              02100000
                                                                        02110000
           PERFORM 99999-STD-ACCEPT-DATE.                               02120000
           MOVE STD-WS-GREG-DATE-MMDDYY TO STD-WS-RPT1-RUN-DATE.        02130000
           PERFORM 99999-STD-ACCEPT-TIME.                               02140000
           MOVE STD-WS-GREG-TIME-HHMMSS TO STD-WS-RPT1-RUN-TIME.        02150000
                                                                        02160000
      * PRINT CONTROL REPORT INPUT PARAMETERS                           02170000
      * AND PROCESS PARAMETERS                                          02180000
                                                                        02190000
           PERFORM 99999-STD-CRPT-INPUT-CNTRL-HDR.                      02200000
                                                                        02210000
           PERFORM 1100-PROCESS-INPUT-PARAMETERS                        02220000
              THRU 1100-EXIT.                                           02230000
           IF  STD-WS-PROGRAM-FAILED = 'Y'                              02240000
             GO TO 1000-EXIT.                                           02260000
                                                                        02270000
           PERFORM 1175-VALIDATE-PARAMETERS                             02220000
              THRU 1175-EXIT.                                           02230000
           IF  STD-WS-PROGRAM-FAILED = 'Y'                              02240000
             GO TO 1000-EXIT.                                           02260000
                                                                        02270000
           PERFORM 99999-STD-CRPT-PROCESS-MSG-HDR.                      02380000
                                                                        02390000
           OPEN  INPUT  ENPET-FILE.                                     02390000
           OPEN  OUTPUT ENPET-STATUS-FILE.                              02390000
                                                                        02390000
           MOVE '01'       TO SSD-UNVRS-CD.
           MOVE 'ENPET'    TO SSD-FIMS-ENTY-CD.
           MOVE 'ENPETMAP' TO SSD-ELMNT-NAME.
      *
      *    MOVE +0 TO SQLCODE
      *    MOVE 0001 TO DBLINK-CURR-IO-NUM
      *    EXEC SQL
      *        SELECT
      *           USER_CD
      *          ,LAST_ACTVY_DT
      *          ,UNVRS_CD
      *          ,FIMS_ENTY_CD
      *          ,ELMNT_NAME
      *          ,COA_CD
      *          ,ACTVY_DT
      *        INTO
      *           :SSD-USER-CD
      *          ,:SSD-LAST-ACTVY-DT
      *          ,:SSD-UNVRS-CD
      *          ,:SSD-FIMS-ENTY-CD
      *          ,:SSD-ELMNT-NAME
      *          ,:SSD-COA-CD
      *          ,:SSD-ACTVY-DT
      *        FROM SSD_SYSDAT_V
      *        WHERE UNVRS_CD = :SSD-UNVRS-CD
      *          AND FIMS_ENTY_CD = :SSD-FIMS-ENTY-CD
      *          AND ELMNT_NAME = :SSD-ELMNT-NAME
      *    END-EXEC.
      *    IF SQLCODE = +100
      *        MOVE SPACES TO STD-WS-CRPT-LINE                          03030000
      *        STRING 'ENPET/ENPETMAP NOT FOUND - '
      *          ' CONTINUING PROCESSING WITHOUT ENPET VALIDATION'
      *          DELIMITED BY SIZE
      *          INTO STD-WS-CRPT-LINE                                  03030000
      *        PERFORM 99999-STD-CRPT-WRITE-LINE                        03040000
      *    ELSE
      *        PERFORM 999-SQL-STATUS
      *           THRU 999-SQL-STATUS-EXIT
      *        MOVE 'Y' TO ENPETMAP-SYSDAT-FOUND
      *        MOVE SPACES TO STD-WS-CRPT-LINE                          03030000
      *        STRING 'ENPET/ENPETMAP FOUND - '
      *          ' CONTINUING PROCESSING'
      *          DELIMITED BY SIZE
      *          INTO STD-WS-CRPT-LINE                                  03030000
      *        PERFORM 99999-STD-CRPT-WRITE-LINE                        03040000
      *    END-IF.
      *
      *                                                                 02390000
      *    IF ENPETMAP-SYSDAT-FOUND = 'Y'
      *        MOVE '01'       TO SSD-UNVRS-CD
      *        MOVE 'ENPET'    TO SSD-FIMS-ENTY-CD
      *        MOVE 'ENPETDOC' TO SSD-ELMNT-NAME
      *
      *        MOVE +0 TO SQLCODE
      *        MOVE 0002 TO DBLINK-CURR-IO-NUM
      *        EXEC SQL
      *            SELECT
      *               USER_CD
      *              ,LAST_ACTVY_DT
      *              ,UNVRS_CD
      *              ,FIMS_ENTY_CD
      *              ,ELMNT_NAME
      *              ,COA_CD
      *              ,ACTVY_DT
      *            INTO
      *               :SSD-USER-CD
      *              ,:SSD-LAST-ACTVY-DT
      *              ,:SSD-UNVRS-CD
      *              ,:SSD-FIMS-ENTY-CD
      *              ,:SSD-ELMNT-NAME
      *              ,:SSD-COA-CD
      *              ,:SSD-ACTVY-DT
      *            FROM SSD_SYSDAT_V
      *            WHERE UNVRS_CD = :SSD-UNVRS-CD
      *              AND FIMS_ENTY_CD = :SSD-FIMS-ENTY-CD
      *              AND ELMNT_NAME = :SSD-ELMNT-NAME
      *        END-EXEC
      *        IF SQLCODE = +100
      *            MOVE SPACES TO STD-WS-CRPT-LINE                          0303
      *            STRING 'ENPET/ENPETDOC NOT FOUND - '
      *              ' CONTINUING PROCESSING WITHOUT ENPET VALIDATION'
      *              DELIMITED BY SIZE
      *              INTO STD-WS-CRPT-LINE                                  0303
      *            PERFORM 99999-STD-CRPT-WRITE-LINE                        0304
      *        ELSE
      *            PERFORM 999-SQL-STATUS
      *               THRU 999-SQL-STATUS-EXIT
      *            MOVE 'Y' TO ENPETDOC-SYSDAT-FOUND
      *            MOVE SPACES TO STD-WS-CRPT-LINE                          0303
      *            STRING 'ENPET/ENPETDOC FOUND - '
      *              ' CONTINUING PROCESSING WITH ENPET VALIDATION'
      *              DELIMITED BY SIZE
      *              INTO STD-WS-CRPT-LINE                                  0303
      *            PERFORM 99999-STD-CRPT-WRITE-LINE                        0304
      *        END-IF
      *    END-IF.

       1000-EXIT.                                                       02400000
           EXIT.                                                        02410000
                                                                        02420000
       1100-PROCESS-INPUT-PARAMETERS.                                   02430000
                                                                        02440000
           OPEN INPUT PARM-FILE.                                        02450000
                                                                        02460000
           READ PARM-FILE INTO WS-CONTROL-RECORD                        02470000
             AT END                                                     02480000
               MOVE 'THERE ARE NO INPUT PARAMETERS.'                    02490000
                 TO STD-WS-CRPT-LINE                                    02500000
               PERFORM 99999-STD-CRPT-WRITE-LINE                        02510000
               MOVE 'Y' TO STD-WS-PROGRAM-FAILED                        02520000
               GO TO 1100-EXIT.                                         02530000
                                                                        02540000
           PERFORM 1150-VALIDATE-READ-PARMS                             02550000
              THRU 1150-EXIT.                                           02560000
                                                                        02570000
           CLOSE PARM-FILE.                                             02580000
                                                                        02590000
       1100-EXIT.                                                       02600000
           EXIT.                                                        02610000
                                                                        02620000
       1150-VALIDATE-READ-PARMS.                                        02630000
                                                                        02640000
           MOVE PARM-RECORD TO STD-WS-CRPT-LINE.                        02650000
           PERFORM 99999-STD-CRPT-WRITE-LINE.                           02660000
                                                                        02670000
           IF  WS-COMMIT-CTR-LITERAL                                    02680000
               MOVE PARM-COMMIT-CTR TO WS-PARM-COMMIT-CTR               02690000
           ELSE                                                         02700000
           IF  WS-TESTING-LITERAL                                       02710000
               MOVE 1 TO WS-TESTING-IND                                 02720000
           ELSE
               STRING 'ERROR: INVALID INPUT PARAMETER.'
                   DELIMITED BY SIZE
                   INTO STD-WS-CRPT-LINE
               PERFORM 99999-STD-CRPT-WRITE-LINE
               MOVE 'Y' TO STD-WS-PROGRAM-FAILED                        02250000
               GO TO 1150-EXIT.
                                                                        02730000
           READ PARM-FILE INTO WS-CONTROL-RECORD                        02740000
             AT END                                                     02750000
                    GO TO 1150-EXIT.                                    02750000
                                                                        02760000
           GO TO 1150-VALIDATE-READ-PARMS.                              02770000
                                                                        02780000
       1150-EXIT.                                                       02790000
           EXIT.                                                        02800000
                                                                        02640000
       1175-VALIDATE-PARAMETERS.                                        02630000
                                                                        02290000
           IF  WS-PARM-COMMIT-CTR = 0                                   02280000
               MOVE 'COMMIT COUNTER PARAMETER MISSING.' TO                  0247
                    STD-WS-CRPT-LINE                                        0247
               PERFORM 99999-STD-CRPT-WRITE-LINE                            0248
               MOVE 'Y' TO STD-WS-PROGRAM-FAILED.
                                                                        02290000
       1175-EXIT.                                                       02600000
           EXIT.                                                        02610000

                                                                        02620000
      /                                                                 02810000
      ****************************************************************  02910000
      * THIS PARAGRAPH WILL:                                            02920000
      *                                                                 02930000
      *     OBTAIN THE FIRST R4069-JRNL-HDR RECORD                      02940000
      *     PROCESS THIS RECORD AND ALL SUBSEQUENT RECORDS              02950000
      *                                                                 02960000
      ****************************************************************  02970000
       2000-MAINLINE.                                                   02980000
                                                                        02990000
           READ  ENPET-FILE INTO ENPET-WORK-RECORD                      03100000
             AT END                                                     02480000
                MOVE 'Y' TO EOF-SW
                GO TO 2000-EXIT.
                                                                        02990000
           ADD 1 TO INPUT-ENPET-COUNT.

      ****************************************************************  02970000
      ***  CHECK FOR VALID ENPET DOCUMENT NUMBER
      ****************************************************************  02970000
           MOVE 'N' TO VALID-ENPET-DOC.
           IF  ENPETMAP-SYSDAT-FOUND = 'Y'
           AND ENPETDOC-SYSDAT-FOUND = 'Y'
               MOVE 'ENPET'    TO SSD-FIMS-ENTY-CD
               MOVE 'ENPETDOC' TO SSD-ELMNT-NAME
               MOVE EWR-DOC-NBR(1:2) TO DOC-ENPET-TEST
               MOVE +0 TO SQLCODE
               MOVE 0003 TO DBLINK-CURR-IO-NUM
               EXEC SQL
                   SELECT
                      'Y'
                   INTO
                      :VALID-ENPET-DOC
                   FROM SDT_SYSDAT_DTL_V
                   WHERE FK_SSD_ENTY_CD = :SSD-FIMS-ENTY-CD
                     AND FK_SSD_ELMNT_NM = :SSD-ELMNT-NAME
                     AND SUBSTR(OPTN_1_CD,1,2) = :DOC-ENPET-TEST
               END-EXEC
               IF SQLCODE = +100
                   NEXT SENTENCE
               ELSE
                   PERFORM 999-SQL-STATUS
                      THRU 999-SQL-STATUS-EXIT
               END-IF
           ELSE
               MOVE 'Y' TO VALID-ENPET-DOC.
           IF VALID-ENPET-DOC = 'N'
               MOVE SPACES TO STD-WS-CRPT-LINE                          03030000
               STRING 'DOC# ' EWR-DOC-NBR
                 '  INVALID ENPET DOCUMENT NUMBER'
                 DELIMITED BY SIZE
                 INTO STD-WS-CRPT-LINE                                  03030000
               PERFORM 99999-STD-CRPT-WRITE-LINE                        03040000
               GO TO 2000-EXIT.                                         03060000

           MOVE ZERO TO JLH-COUNT
                        JLD-COUNT
                        APH-COUNT
                        APD-COUNT
                        TXH-COUNT
                        TXD-COUNT.

           PERFORM 2100-JOURNAL-RTN THRU 2100-EXIT.
           IF COMMIT-COUNT >= WS-PARM-COMMIT-CTR                        02690000
               PERFORM 996-COMMIT
                  THRU 996-COMMIT-EXIT
               PERFORM 999-SQL-STATUS
                  THRU 999-SQL-STATUS-EXIT
               MOVE 0 TO COMMIT-COUNT.

           IF JLH-COUNT > 0
               PERFORM 2200-APPROVAL-RTN THRU 2200-EXIT
               IF COMMIT-COUNT >= WS-PARM-COMMIT-CTR                        0269
                   PERFORM 996-COMMIT
                      THRU 996-COMMIT-EXIT
                   PERFORM 999-SQL-STATUS
                      THRU 999-SQL-STATUS-EXIT
                   MOVE 0 TO COMMIT-COUNT
               END-IF
               PERFORM 2300-TEXT-RTN THRU 2300-EXIT
               IF COMMIT-COUNT >= WS-PARM-COMMIT-CTR                        0269
                   PERFORM 996-COMMIT
                      THRU 996-COMMIT-EXIT
                   PERFORM 999-SQL-STATUS
                      THRU 999-SQL-STATUS-EXIT
                   MOVE 0 TO COMMIT-COUNT
               END-IF
           END-IF.

           MOVE SPACES TO ENPET-STATUS-RECORD.
           MOVE EWR-DOC-NBR TO ESR-DOC-NBR.
           IF JLH-COUNT > 0
               MOVE 'Y' TO ESR-STATUS-SW
           ELSE
               MOVE 'N' TO ESR-STATUS-SW.
           WRITE ENPET-STATUS-RECORD.
           ADD 1 TO OUTPUT-ENPET-COUNT.

       2000-EXIT.                                                       03060000
           EXIT.                                                        03120000
      /                                                                 03480000
       2100-JOURNAL-RTN.

      ****************************************************************  02970000
      ***  COUNT AND DELETE JOURNAL HEADER RECORDS
      ****************************************************************  02970000
           MOVE +0 TO SQLCODE
           MOVE 0004 TO DBLINK-CURR-IO-NUM
           EXEC SQL
               SELECT COUNT(*)
               INTO :JLH-COUNT
               FROM JLH_JRNL_HDR_V
               WHERE DOC_NBR = :EWR-DOC-NBR
                 AND PSTNG_IND ^= 'P'
                 AND APRVL_IND = 'N'
           END-EXEC.

           IF JLH-COUNT = 0
               MOVE SPACES TO STD-WS-CRPT-LINE                          03030000
               STRING 'UNPOSTED DOC# ' EWR-DOC-NBR
                 ' JOURNAL HEADER NOT FOUND'
                 DELIMITED BY SIZE
                 INTO STD-WS-CRPT-LINE                                  03030000
               PERFORM 99999-STD-CRPT-WRITE-LINE                        03040000
               GO TO 2100-EXIT.                                         03060000
           PERFORM 999-SQL-STATUS
              THRU 999-SQL-STATUS-EXIT.
           IF TESTING
               CONTINUE
           ELSE
               MOVE +0 TO SQLCODE
               MOVE 0005 TO DBLINK-CURR-IO-NUM
               EXEC SQL
                   DELETE FROM JLH_JRNL_HDR_V
                   WHERE DOC_NBR = :EWR-DOC-NBR
                     AND PSTNG_IND ^= 'P'
                     AND APRVL_IND = 'N'
               END-EXEC
               PERFORM 999-SQL-STATUS
                  THRU 999-SQL-STATUS-EXIT
           END-IF.
           ADD JLH-COUNT TO JLH-ERASED
                            COMMIT-COUNT.

      ****************************************************************  02970000
      ***  COUNT AND DELETE JOURNAL DETAIL RECORDS
      ****************************************************************  02970000
           MOVE +0 TO SQLCODE
           MOVE 0006 TO DBLINK-CURR-IO-NUM
           EXEC SQL
               SELECT COUNT(*)
               INTO :JLD-COUNT
               FROM JLD_JRNL_DTL_V
               WHERE FK_JLH_DOC_NBR = :EWR-DOC-NBR
           END-EXEC.

           IF JLD-COUNT = 0
               MOVE SPACES TO STD-WS-CRPT-LINE                          03030000
               STRING 'DOC# ' EWR-DOC-NBR
                 ' JOURNAL DETAIL NOT FOUND'
                 DELIMITED BY SIZE
                 INTO STD-WS-CRPT-LINE                                  03030000
               PERFORM 99999-STD-CRPT-WRITE-LINE                        03040000
               GO TO 2100-EXIT.
           PERFORM 999-SQL-STATUS
              THRU 999-SQL-STATUS-EXIT.

           IF TESTING
               CONTINUE
           ELSE
               MOVE +0 TO SQLCODE
               MOVE 0007 TO DBLINK-CURR-IO-NUM
               EXEC SQL
                   DELETE FROM JLD_JRNL_DTL_V
                   WHERE FK_JLH_DOC_NBR = :EWR-DOC-NBR
               END-EXEC
               PERFORM 999-SQL-STATUS
                  THRU 999-SQL-STATUS-EXIT
           END-IF.
           ADD JLD-COUNT TO JLD-ERASED
                            COMMIT-COUNT.

       2100-EXIT.  EXIT.

       2200-APPROVAL-RTN.

      ****************************************************************  02970000
      ***  COUNT AND DELETE APPROVAL HEADER RECORDS
      ****************************************************************  02970000
           MOVE +0 TO SQLCODE
           MOVE 0008 TO DBLINK-CURR-IO-NUM
           EXEC SQL
               SELECT COUNT(*)
               INTO :APH-COUNT
               FROM APH_APRVL_HDR_V
               WHERE SEQ_NBR = 0007
                 AND DOC_NBR = :EWR-DOC-NBR
                 AND APRVL_IND = 'N'
           END-EXEC.
           IF APH-COUNT = 0
               MOVE SPACES TO STD-WS-CRPT-LINE                          03030000
      *        STRING 'FY/SEQ/DOC# ' EWR-FSCL-YR '/0007/' EWR-DOC-NBR
               STRING 'SEQ/DOC# 0007/' EWR-DOC-NBR
                 ' APPROVAL HEADER NOT FOUND'
                 DELIMITED BY SIZE
                 INTO STD-WS-CRPT-LINE                                  03030000
               PERFORM 99999-STD-CRPT-WRITE-LINE                        03040000
               GO TO 2200-EXIT.
           PERFORM 999-SQL-STATUS
              THRU 999-SQL-STATUS-EXIT.

      *    IF APH-COUNT = 1
               IF TESTING
                   CONTINUE
               ELSE
                   MOVE +0 TO SQLCODE
                   MOVE 0009 TO DBLINK-CURR-IO-NUM
                   EXEC SQL
                       DELETE FROM APH_APRVL_HDR_V
                       WHERE SEQ_NBR = 0007
                         AND DOC_NBR = :EWR-DOC-NBR
                         AND APRVL_IND = 'N'
                   END-EXEC
                   PERFORM 999-SQL-STATUS
                      THRU 999-SQL-STATUS-EXIT
      *        END-IF
      *    ELSE
      *        IF TESTING
      *            CONTINUE
      *        ELSE
      *            MOVE +0 TO SQLCODE
      *            MOVE 0010 TO DBLINK-CURR-IO-NUM
      *            EXEC SQL
      *                DELETE FROM APH_APRVL_HDR_V
      *                WHERE FSCL_YR = :EWR-FSCL-YR
      *                  AND SEQ_NBR = 0007
      *                  AND DOC_NBR = :EWR-DOC-NBR
      *                  AND APRVL_IND = 'N'
      *            END-EXEC
      *            IF SQLCODE = +100
      *                MOVE SPACES TO STD-WS-CRPT-LINE
      *                STRING 'FY/SEQ/DOC# '
      *                  EWR-FSCL-YR '/0007/' EWR-DOC-NBR
      *                  ' APPROVAL HEADER NOT FOUND'
      *                  DELIMITED BY SIZE
      *                  INTO STD-WS-CRPT-LINE
      *                PERFORM 99999-STD-CRPT-WRITE-LINE
      *                GO TO 2200-EXIT
      *            END-IF
      *            PERFORM 999-SQL-STATUS
      *               THRU 999-SQL-STATUS-EXIT
               END-IF.

           ADD APH-COUNT TO APH-ERASED
                            COMMIT-COUNT.

      ****************************************************************  02970000
      ***  COUNT AND DELETE APPROVAL AUDIT RECORDS
      ****************************************************************  02970000
           MOVE +0 TO SQLCODE
      *    IF APH-COUNT = 1
               MOVE 0011 TO DBLINK-CURR-IO-NUM
               EXEC SQL
                   SELECT COUNT(*)
                   INTO :APD-COUNT
                   FROM APD_APRVL_AUD_V
                   WHERE FK_APH_SEQ_NBR = 0007
                     AND FK_APH_DOC_NBR = :EWR-DOC-NBR
               END-EXEC
      *    ELSE
      *        MOVE 0012 TO DBLINK-CURR-IO-NUM
      *        EXEC SQL
      *            SELECT COUNT(*)
      *            INTO :APD-COUNT
      *            FROM APD_APRVL_AUD_V
      *            WHERE FK_APH_FSCL_YR = :EWR-FSCL-YR
      *              AND FK_APH_SEQ_NBR = 0007
      *              AND FK_APH_DOC_NBR = :EWR-DOC-NBR
      *        END-EXEC
      *    END-IF

           IF APD-COUNT = 0
               MOVE SPACES TO STD-WS-CRPT-LINE                          03030000
      *        IF APH-COUNT = 1
                   STRING 'SEQ/DOC# 0007/' EWR-DOC-NBR
                     ' APPROVAL AUDIT NOT FOUND'
                     DELIMITED BY SIZE
                     INTO STD-WS-CRPT-LINE                                  0303
      *        ELSE
      *            STRING 'FY/SEQ/DOC# '
      *              EWR-FSCL-YR '/0007/' EWR-DOC-NBR
      *              ' APPROVAL AUDIT NOT FOUND'
      *              DELIMITED BY SIZE
      *              INTO STD-WS-CRPT-LINE                                  0303
      *        END-IF
               PERFORM 99999-STD-CRPT-WRITE-LINE                        03040000
               GO TO 2200-EXIT.                                         03060000
           PERFORM 999-SQL-STATUS
              THRU 999-SQL-STATUS-EXIT.

           IF TESTING
               CONTINUE
           ELSE
      *        IF APH-COUNT = 1
                   MOVE +0 TO SQLCODE
                   MOVE 0013 TO DBLINK-CURR-IO-NUM
                   EXEC SQL
                       DELETE FROM APD_APRVL_AUD_V
                       WHERE FK_APH_SEQ_NBR = 0007
                         AND FK_APH_DOC_NBR = :EWR-DOC-NBR
                   END-EXEC
      *        ELSE
      *            MOVE +0 TO SQLCODE
      *            MOVE 0014 TO DBLINK-CURR-IO-NUM
      *            EXEC SQL
      *                DELETE FROM APD_APRVL_AUD_V
      *                WHERE FK_APH_FSCL_YR = :EWR-FSCL-YR
      *                  AND FK_APH_SEQ_NBR = 0007
      *                  AND FK_APH_DOC_NBR = :EWR-DOC-NBR
      *            END-EXEC
      *        END-IF
               PERFORM 999-SQL-STATUS
                  THRU 999-SQL-STATUS-EXIT
           END-IF.
           ADD APD-COUNT TO APD-ERASED
                            COMMIT-COUNT.

       2200-EXIT.  EXIT.

       2300-TEXT-RTN.

           MOVE EWR-DOC-NBR TO TEXT-DOC-NBR.

      ****************************************************************  02970000
      ***  COUNT AND DELETE TEXT HEADER RECORDS
      ****************************************************************  02970000
           MOVE +0 TO SQLCODE
           MOVE 0015 TO DBLINK-CURR-IO-NUM
           EXEC SQL
               SELECT COUNT(*)
               INTO :TXH-COUNT
               FROM TXH_TXT_HDR_V
               WHERE TEXT_ENTY_CD = :TEXT-DOC-NBR
                 AND DOC_TYP_SEQ_NBR = 0007
           END-EXEC.

           IF TXH-COUNT = 0
               MOVE SPACES TO STD-WS-CRPT-LINE                          03030000
               STRING 'UNPOSTED DOC# ' EWR-DOC-NBR
                 ' TEXT HEADER NOT FOUND'
                 DELIMITED BY SIZE
                 INTO STD-WS-CRPT-LINE                                  03030000
               PERFORM 99999-STD-CRPT-WRITE-LINE                        03040000
               GO TO 2300-EXIT.                                         03060000
           PERFORM 999-SQL-STATUS
              THRU 999-SQL-STATUS-EXIT.
           IF TESTING
               CONTINUE
           ELSE
               MOVE +0 TO SQLCODE
               MOVE 0016 TO DBLINK-CURR-IO-NUM
               EXEC SQL
                   DELETE FROM TXH_TXT_HDR_V
                   WHERE TEXT_ENTY_CD = :TEXT-DOC-NBR
                     AND DOC_TYP_SEQ_NBR = 0007
               END-EXEC
               PERFORM 999-SQL-STATUS
                  THRU 999-SQL-STATUS-EXIT
           END-IF.
           ADD TXH-COUNT TO TXH-ERASED
                            COMMIT-COUNT.

      ****************************************************************  02970000
      ***  COUNT AND DELETE TEXT DETAIL RECORDS
      ****************************************************************  02970000
           MOVE +0 TO SQLCODE
           MOVE 0017 TO DBLINK-CURR-IO-NUM
           EXEC SQL
               SELECT COUNT(*)
               INTO :TXD-COUNT
               FROM TXD_TXT_DTL_V
               WHERE FK_TXH_TXT_ENTYCD = :TEXT-DOC-NBR
                 AND FK_TXH_DOC_TYP_SEQ = 0007
           END-EXEC.

           IF TXD-COUNT = 0
               MOVE SPACES TO STD-WS-CRPT-LINE                          03030000
               STRING 'DOC# ' EWR-DOC-NBR
                 ' TEXT DETAIL NOT FOUND'
                 DELIMITED BY SIZE
                 INTO STD-WS-CRPT-LINE                                  03030000
               PERFORM 99999-STD-CRPT-WRITE-LINE                        03040000
               GO TO 2300-EXIT.
           PERFORM 999-SQL-STATUS
              THRU 999-SQL-STATUS-EXIT.

           IF TESTING
               CONTINUE
           ELSE
               MOVE +0 TO SQLCODE
               MOVE 0018 TO DBLINK-CURR-IO-NUM
               EXEC SQL
                   DELETE FROM TXD_TXT_DTL_V
                   WHERE FK_TXH_TXT_ENTYCD = :TEXT-DOC-NBR
                     AND FK_TXH_DOC_TYP_SEQ = 0007
               END-EXEC
               PERFORM 999-SQL-STATUS
                  THRU 999-SQL-STATUS-EXIT
           END-IF.
           ADD TXD-COUNT TO TXD-ERASED
                            COMMIT-COUNT.

       2300-EXIT.  EXIT.

       9000-END-OF-PROGRAM.                                             04150000
      ****************************************************************  04160000
      * THIS PARAGRAPH WILL:                                            04170000
      *                                                                 04180000
      *    CLOSE THE REPORT01 FILE                                      04190000
      *    WRITE THE CONTROL REPORT STATISTICS                          04200000
      *    FINISH THE CONTROL REPORT                                    04210000
      *                                                                 04220000
      ****************************************************************  04230000
                                                                        04240000
           MOVE +0 TO SQLCODE
           MOVE 0019 TO DBLINK-CURR-IO-NUM
           PERFORM 996-COMMIT
              THRU 996-COMMIT-EXIT
           PERFORM 999-SQL-STATUS
              THRU 999-SQL-STATUS-EXIT.
                                                                        04370005
           PERFORM 99999-STD-CRPT-WRITE-STATS.                          04380004
           PERFORM 99999-STD-CRPT-FINISH.                               04390000
                                                                        04400000
           CLOSE ENPET-FILE                                             02390000
                 ENPET-STATUS-FILE.                                     02390000
                                                                        04400000
           STOP RUN.                                                    04410000
                                                                        04420000
       9000-EXIT.                                                       04430000
           EXIT.                                                        04440000
                                                                        04450000
       COPY STDCD.                                                      04460000
                                                                        04450000
           MOVE SPACES TO STD-WS-CRPT-LINE.
           STRING 'ENPET INPUT RECORDS READ       = '                   04480000
                  INPUT-ENPET-COUNT
                  DELIMITED BY SIZE
             INTO STD-WS-CRPT-LINE.                                     04500000
           PERFORM 99999-STD-CRPT-WRITE-LINE.                           04510000
                                                                        04520000
           MOVE SPACES TO STD-WS-CRPT-LINE.
           STRING 'JOURNAL HEADER RECORDS ERASED  = '                   04480000
                  JLH-ERASED                                            04490000
                  DELIMITED BY SIZE
             INTO STD-WS-CRPT-LINE.                                     04500000
           PERFORM 99999-STD-CRPT-WRITE-LINE.                           04510000
                                                                        04520000
           MOVE SPACES TO STD-WS-CRPT-LINE.
           STRING 'JOURNAL DETAIL RECORDS ERASED  = '                   04480000
                  JLD-ERASED
                  DELIMITED BY SIZE
             INTO STD-WS-CRPT-LINE.                                     04500000
           PERFORM 99999-STD-CRPT-WRITE-LINE.                           04510000
                                                                        04520000
           MOVE SPACES TO STD-WS-CRPT-LINE.
           STRING 'APPROVAL HEADER RECORDS ERASED = '                   04480000
                  APH-ERASED
                  DELIMITED BY SIZE
             INTO STD-WS-CRPT-LINE.                                     04500000
           PERFORM 99999-STD-CRPT-WRITE-LINE.                           04510000
                                                                        04520000
           MOVE SPACES TO STD-WS-CRPT-LINE.
           STRING 'APPROVAL AUDIT RECORDS ERASED  = '                   04480000
                  APD-ERASED
                  DELIMITED BY SIZE
             INTO STD-WS-CRPT-LINE.                                     04550000
           PERFORM 99999-STD-CRPT-WRITE-LINE.                           04560000
                                                                        04570000
           MOVE SPACES TO STD-WS-CRPT-LINE.
           STRING 'TEXT HEADER RECORDS ERASED     = '                   04480000
                  TXH-ERASED                                            04490000
                  DELIMITED BY SIZE
             INTO STD-WS-CRPT-LINE.                                     04500000
           PERFORM 99999-STD-CRPT-WRITE-LINE.                           04510000
                                                                        04520000
           MOVE SPACES TO STD-WS-CRPT-LINE.
           STRING 'TEXT DETAIL RECORDS ERASED     = '                   04480000
                  TXD-ERASED
                  DELIMITED BY SIZE
             INTO STD-WS-CRPT-LINE.                                     04500000
           PERFORM 99999-STD-CRPT-WRITE-LINE.                           04510000
                                                                        04520000
           MOVE SPACES TO STD-WS-CRPT-LINE.
           STRING 'ENPET STATUS RECORDS WRITTEN   = '                   04480000
                  OUTPUT-ENPET-COUNT
                  DELIMITED BY SIZE
             INTO STD-WS-CRPT-LINE.                                     04500000
           PERFORM 99999-STD-CRPT-WRITE-LINE.                           04510000
                                                                        04520000
           PERFORM 99999-STD-CRPT-WRITE-LINE.                           04610000
      /                                                                 04620000
                                                                        04630000
       IDMS-ABORT SECTION.

       COPY STDCRID.                                                    04680000
      /
      *%-------------------------------------------------------------- *
      *%                                                               *
      *%                    996-COMMIT ROUTINE                         *
      *%                                                               *
      *%-------------------------------------------------------------- *
       996-COMMIT.
           MOVE '996-COMMIT' TO DBLINK-CURR-PARAGRAPH.
           IF TESTING
               CONTINUE
           ELSE
               MOVE +0 TO SQLCODE
               MOVE 0020 TO DBLINK-CURR-IO-NUM
               EXEC SQL
                   COMMIT WORK
               END-EXEC
           END-IF.
       996-COMMIT-EXIT.
           EXIT.
      /
      *%-------------------------------------------------------------- *
      *%                                                               *
      *%                  999-SQL-STATUS ROUTINE                       *
      *%                                                               *
      *%-------------------------------------------------------------- *
       999-SQL-STATUS.
           IF SQLCODE NOT = 0000
               MOVE '9999' TO ERROR-STATUS.
           EXEC SQL
               INCLUDE BTCHERR
           END-EXEC.
       999-SQL-STATUS-EXIT.
           EXIT.

