       IDENTIFICATION DIVISION.
       PROGRAM-ID. UGAX525.
       AUTHOR.        ADCOM SYSTEMS.
       DATE-WRITTEN.  MARCH 1991.
       DATE-COMPILED.

      *****************************************************************
      *      IFIS EXPENDITURE ACCOUNTS SUMMARIZATION FOR THE CFS
      *
      *  THE PROGRAM CREATES THE SUMMARIZED CFS EXPENDITURE ACCOUNTS
      *  (CFS RECORD TYPES 30) AND CFS EXPENDITURE OBJECT DETAIL
      *  ACCOUNTS (CFS RECORD TYPE 31).
      *****************************************************************
      *     MODIFICATION LOG                                          *
      *****************************************************************
      * FI008 05/28/93 BW - COBOLII CONVERSION                        *
      *****************************************************************

      *%****************************************************************
      *%                                                               *
      *%  Converted using Forecross Corporation Redeployment Software  *
      *%                                                               *
      *%               Convert/IDMS-DB Version 8 Release 01            *
      *%                                                               *
      *%                Converted on 10/18/00 at 14:45                 *
      *%                                                               *
      *%****************************************************************
      *%              COPYRIGHT FORECROSS CORPORATION                  *
      *%                2000  ALL RIGHTS RESERVED                      *
      *%****************************************************************
           COPY CBCVDBNT.

      /
      *%-------------------------------------------------------------- *
      *%
      *%  *** TABLE VIEWS USED IN THIS PROGRAM
      *%
      *%UNV_UNVRS_V           R6001-UNVRS                      CBL CPY
      *%COA_COA_V             R4000-COA                        CBL CPY
      *%FLY_FSCL_YEAR_V       R4024-FSCL-YEAR                  CBL CPY
      *%
      *%  *** CURSORS DECLARED IN THIS PROGRAM
      *%
      *%
      *%  *** SUBROUTINES GENERATED FOR THIS PROGRAM
      *%
      *%000-SQL-INITIALIZATION
      *%986-RESET-KEYS
      *%906-05-R4000-COA
      *%906-05-R4024-FSCL-YEAR
      *%906-05-R6001-UNVRS
      *%985-CURR-R4000-COA
      *%985-CURR-R4024-FSCL-YEAR
      *%985-CURR-R6001-UNVRS
      *%996-COMMIT
      *%
      *%-------------------------------------------------------------- *
       ENVIRONMENT DIVISION.
       CONFIGURATION SECTION.
       SOURCE-COMPUTER. IBM-4341.
       OBJECT-COMPUTER. IBM-4341.

       INPUT-OUTPUT SECTION.
       FILE-CONTROL.

           SELECT CONTROL-FILE               ASSIGN TO UT-S-CNTLCARD.

           SELECT EXPENDITURE-EXTR-FILE      ASSIGN TO UT-S-EXPENDEX.

           SELECT EXPENDITURE-SUMM-FILE      ASSIGN TO UT-S-EXPENDSU.

           SELECT CONTROL-RPT-INPUT-FILE     ASSIGN TO UT-S-CNTLRPT1.

           SELECT CONTROL-RPT-OUTPUT-FILE    ASSIGN TO UT-S-CNTLRPT2.

      *IDMS-CONTROL SECTION.
      *PROTOCOL.   MODE IS BATCH-AUTOSTATUS DEBUG
      *%           IDMS-RECORDS MANUAL.

       DATA DIVISION.
      *SCHEMA SECTION.
      *DB FIMSNWKB WITHIN FIMSNTWN.

       FILE SECTION.

      ****************************************************************
      *  CONTROL FILE
      ****************************************************************

       FD  CONTROL-FILE
           RECORDING MODE IS F
           LABEL RECORDS ARE OMITTED
           BLOCK CONTAINS 0 RECORDS
           RECORD CONTAINS 80 CHARACTERS
           DATA RECORD IS CONTROL-RECORD.

       01  CONTROL-RECORD                       PIC X(080).

      ****************************************************************
      *  INPUT EXPENDITURE ACCOUNTS EXTRACT FILE
      ****************************************************************

       FD  EXPENDITURE-EXTR-FILE
           RECORDING MODE IS F
           LABEL RECORDS ARE OMITTED
           BLOCK CONTAINS 0 RECORDS
           RECORD CONTAINS 169 CHARACTERS
           DATA RECORD IS EXPENDITURE-EXTR-REC.

       01  EXPENDITURE-EXTR-REC                 PIC X(169).

      ****************************************************************
      *  OUTPUT SUMMARIZED CFS EXPENDITURE ACCOUNTS FILE
      ****************************************************************

       FD  EXPENDITURE-SUMM-FILE
           RECORDING MODE IS F
           LABEL RECORDS ARE OMITTED
           BLOCK CONTAINS 0 RECORDS
           RECORD CONTAINS 120 CHARACTERS
           DATA RECORD IS EXPENDITURE-SUMM-REC.

       01  EXPENDITURE-SUMM-REC                 PIC X(120).

      ****************************************************************
      *  OUTPUT FILE FOR INPUT RECORDS CONTROL REPORT.
      ****************************************************************

       FD  CONTROL-RPT-INPUT-FILE
           RECORDING MODE IS F
           LABEL RECORDS ARE OMITTED
           BLOCK CONTAINS 0 RECORDS
           RECORD CONTAINS 133 CHARACTERS
           DATA RECORD IS CONTROL-RPT-INPUT-REC.

       01  CONTROL-RPT-INPUT-REC                PIC X(133).

      ****************************************************************
      *  OUTPUT FILE FOR OUTPUT RECORDS CONTROL REPORT.
      ****************************************************************

       FD  CONTROL-RPT-OUTPUT-FILE
           RECORDING MODE IS F
           LABEL RECORDS ARE OMITTED
           BLOCK CONTAINS 0 RECORDS
           RECORD CONTAINS 133 CHARACTERS
           DATA RECORD IS CONTROL-RPT-OUTPUT-REC.

       01  CONTROL-RPT-OUTPUT-REC               PIC X(133).

      /

       WORKING-STORAGE SECTION.

       01  DBLINK-USER-CD   PIC X(8) VALUE 'UGAX525'.
       01  WS-SWITCHES.
           03  WS-EXPEND-EXTR-EOF      PIC X(001) VALUE ' '.
               88  EXPEND-EXTR-EOF                VALUE 'Y'.
           03  WS-RPT-PRINTED          PIC X(001) VALUE ' '.
               88  INPUT-RPT-PRINTED              VALUE 'I'.
               88  OUTPUT-RPT-PRINTED             VALUE 'O'.
           03  WS-BLNC-GROUP           PIC X(002) VALUE ' '.
               88  BLNC-GROUP-30-EXISTS           VALUE '30'.
               88  BLNC-GROUP-31-EXISTS           VALUE '31'.
           03  WS-NEW-ACCT-FUND-SUB-GRP  PIC X(001) VALUE ' '.
               88  NEW-ACCT-FUND-SUB-GRP            VALUE 'Y'.

       01  WS-DATA-BASE-DATE           PIC 9(008).
       01  WS-DATA-BASE-CCYYMMDD REDEFINES WS-DATA-BASE-DATE.
           03  WS-DATA-BASE-CC         PIC X(002).
           03  WS-DATA-BASE-YYMMDD.
               05  WS-DATA-BASE-YEAR   PIC X(002).
               05  WS-DATA-BASE-MONTH  PIC X(002).
               05  WS-DATA-BASE-DAY    PIC X(002).

       01  WS-FORMAT-DATE.                                              01540008
           03  WS-FORMAT-MONTH         PIC X(002).                      01550008
           03  FILLER                  PIC X(001) VALUE '/'.            01560008
           03  WS-FORMAT-DAY           PIC X(002).                      01570008
           03  FILLER                  PIC X(001) VALUE '/'.            01580008
           03  WS-FORMAT-YEAR          PIC X(002).                      01590008

       01  WS-CONTROL-PAGE-CNT         PIC 9(004) VALUE ZEROES.

       01  WS-EXPEND-REC-READ          PIC 9(006) VALUE ZEROES.
       01  WS-EXPEND-REC-WRT           PIC 9(006) VALUE ZEROES.

       01  ARRAY-SUB                   PIC S9(004) COMP VALUE ZEROES.
       01  ENTRY-SUB                   PIC S9(004) COMP VALUE ZEROES.

       01  WS-BDGT-APPR-AMT-CURR-BAL            PIC S9(013)V99 COMP-3.
       01  WS-FIN-AMT-CURR-BAL                  PIC S9(013)V99 COMP-3.
       01  WS-ENCMBR-AMT-CURR-BAL               PIC S9(013)V99 COMP-3.
       01  WS-FIN-AMT-CURR-MONTH-ACT            PIC S9(013)V99 COMP-3.
       01  WS-30-FIN-AMT-CURR-BAL               PIC S9(013)V99 COMP-3.
       01  WS-31-FIN-AMT-CURR-BAL               PIC S9(013)V99 COMP-3.
       01  WS-30-FIN-AMT-CURR-MONTH-ACT         PIC S9(013)V99 COMP-3.
       01  WS-31-FIN-AMT-CURR-MONTH-ACT         PIC S9(013)V99 COMP-3.

       01  WS-30-BLNC-AMT-CURR-BAL              PIC 9999999999999.99-
                                                          VALUE ZEROES.
       01  WS-31-BLNC-AMT-CURR-BAL              PIC 9999999999999.99-
                                                          VALUE ZEROES.
       01  WS-30-BLNC-AMT-CURR-MONTH-ACT        PIC 9999999999999.99-
                                                          VALUE ZEROES.
       01  WS-31-BLNC-AMT-CURR-MONTH-ACT        PIC 9999999999999.99-
                                                          VALUE ZEROES.

       01  LINE-ADV-CNTL-RPT-RECORD.
           03  CONTROL-REPORT-CC                PIC X(001).
           03  CONTROL-REPORT-DATA              PIC X(132).

       01  WS-SAVED-REC-KEY.
           03  WS-SAVED-LOC-CODE-1              PIC X(002) VALUE SPACES.
           03  WS-SAVED-LOC-CODE-2              PIC X(001) VALUE SPACES.
           03  WS-SAVED-ACCT-NMBR               PIC X(007) VALUE SPACES.
           03  WS-SAVED-FUND-NMBR               PIC X(006) VALUE SPACES.
           03  WS-SAVED-SUB-ACCT-CODE           PIC X(002) VALUE SPACES.
       01  WS-SAVED-RECORD-TYPE                 PIC X(002) VALUE SPACES.
       01  WS-SAVED-OBJECT-CODE                 PIC X(004) VALUE SPACES.

       01  WS-STRING-COUNT             PIC 9(02) VALUE 0.               00010000
       01  WS-STRING-POINTER           PIC 9(02) VALUE 0.               00020000
                                                                        00030000
      /
      ******************************************************************
      *   COPYLIB MEMBERS USED BY PROGRAM
      ******************************************************************

       01  DATE-CONV-COB2.
                                  COPY WSDATEC2.

       01  TIME-CONV-COB2.
                                  COPY WSTIMEC2.

       01  WHEN-COMP-CONV.
                                  COPY WHENCMC2.

       01  CONTROL-CARD.
                                  COPY CNTLCARD.

       01  ERROR-MESSAGES.
                                  COPY ERRMSGTB.

       01  CFS-EXTR-REC-FORMAT.
                                  COPY CFSEXTR.

       01  CFS-SUMM-REC-FORMAT.
                                  COPY CFSSUMM.

       01  CFS-CTRL-RPT-ARRAYS.
DEVRRE                            COPY CFS505AR.

       01  CFS-CTRL-RPT-FORMAT.
                                  COPY CFSCTRFM.

      *****************************************************************
      *  IDMS/R CONTROL RECORD AND DICTIONARY RECORDS USED BY PROGRAM
      *****************************************************************

      *01  COPY IDMS SUBSCHEMA-CONTROL.
       01  SUBSCHEMA-CONTROL  PIC X.


      *%****************************** *
      *% UNV_UNVRS_V DATA VIEW AREAS
      *%****************************** *
      *%   COPY CBID6001.
CPYNME     COPY R6001.
      *01  COPY IDMS R6001-UNVRS.


      *%****************************** *
      *% COA_COA_V DATA VIEW AREAS
      *%****************************** *
      *%   COPY CBID4000.
CPYNME     COPY R4000.
      *01  COPY IDMS R4000-COA.


      *%****************************** *
      *% FLY_FSCL_YEAR_V DATA VIEW AREAS
      *%****************************** *
      *%   COPY CBID4024.
CPYNME     COPY R4024.
      *01  COPY IDMS R4024-FSCL-YEAR.

      /
           EXEC SQL
               INCLUDE CBCVDBCA
           END-EXEC.

      /
      *%-------------------------------------------------------------- *
      *%                                                               *
      *%          STANDARD CONVERT/DB COMMUNICATION AREAS              *
      *%                                                               *
      *%-------------------------------------------------------------- *
           COPY CBCVDBXD.
           COPY BTCHWS.
       01  DBLINK-NAMES.
           05  DBLINK-SCHEMA-NAME.
               10  FILLER                   PIC X(8)
                       VALUE 'FIMSNTWN'.
           05  DBLINK-RECORD-NAMES.
               10  DBLINK-R4000-COA         PIC X(16)
                       VALUE 'R4000-COA'.
               10  DBLINK-R4001-FUND        PIC X(16)
                       VALUE 'R4001-FUND'.
               10  DBLINK-R4002-ORGN        PIC X(16)
                       VALUE 'R4002-ORGN'.
               10  DBLINK-R4003-ACCT        PIC X(16)
                       VALUE 'R4003-ACCT'.
               10  DBLINK-R4004-PROG        PIC X(16)
                       VALUE 'R4004-PROG'.
               10  DBLINK-R4006-LCTN        PIC X(16)
                       VALUE 'R4006-LCTN'.
               10  DBLINK-R4008-FNDT        PIC X(16)
                       VALUE 'R4008-FNDT'.
               10  DBLINK-R4011-SYSDAT      PIC X(16)
                       VALUE 'R4011-SYSDAT'.
               10  DBLINK-R4014-ACTT        PIC X(16)
                       VALUE 'R4014-ACTT'.
               10  DBLINK-R4016-BDGT-CTRL   PIC X(16)
                       VALUE 'R4016-BDGT-CTRL'.
               10  DBLINK-R4021-CTRL-ACCTS  PIC X(16)
                       VALUE 'R4021-CTRL-ACCTS'.
               10  DBLINK-R4024-FSCL-YEAR   PIC X(16)
                       VALUE 'R4024-FSCL-YEAR'.
               10  DBLINK-R4026-INDRT-COST  PIC X(16)
                       VALUE 'R4026-INDRT-COST'.
               10  DBLINK-R4030-COST-SHARE  PIC X(16)
                       VALUE 'R4030-COST-SHARE'.
               10  DBLINK-R4033-BANK        PIC X(16)
                       VALUE 'R4033-BANK'.
               10  DBLINK-R4035-PAY-MTHD    PIC X(16)
                       VALUE 'R4035-PAY-MTHD'.
               10  DBLINK-R4036-USER-RCRD   PIC X(16)
                       VALUE 'R4036-USER-RCRD'.
               10  DBLINK-R4038-USER-CODES  PIC X(16)
                       VALUE 'R4038-USER-CODES'.
               10  DBLINK-R4040-CLOSE-HDR   PIC X(16)
                       VALUE 'R4040-CLOSE-HDR'.
               10  DBLINK-R4045-ACTI        PIC X(16)
                       VALUE 'R4045-ACTI'.
               10  DBLINK-R4046-BANK-NAME   PIC X(16)
                       VALUE 'R4046-BANK-NAME'.
               10  DBLINK-R4050-ACTV        PIC X(16)
                       VALUE 'R4050-ACTV'.
               10  DBLINK-R4052-XTRN-ENTY   PIC X(16)
                       VALUE 'R4052-XTRN-ENTY'.
               10  DBLINK-R4053-INTR-ENTY   PIC X(16)
                       VALUE 'R4053-INTR-ENTY'.
               10  DBLINK-R4054-XTRN-CODE   PIC X(16)
                       VALUE 'R4054-XTRN-CODE'.
               10  DBLINK-R4056-AGNC        PIC X(16)
                       VALUE 'R4056-AGNC'.
               10  DBLINK-R4057-RQST-ID     PIC X(16)
                       VALUE 'R4057-RQST-ID'.
               10  DBLINK-R4060-RPT         PIC X(16)
                       VALUE 'R4060-RPT'.
               10  DBLINK-R4064-CS-EFCTV    PIC X(16)
                       VALUE 'R4064-CS-EFCTV'.
               10  DBLINK-R4065-IC-EFCTV    PIC X(16)
                       VALUE 'R4065-IC-EFCTV'.
               10  DBLINK-R4069-JRNL-HDR    PIC X(16)
                       VALUE 'R4069-JRNL-HDR'.
               10  DBLINK-R4070-RQST        PIC X(16)
                       VALUE 'R4070-RQST'.
               10  DBLINK-R4071-RQST-DTL    PIC X(16)
                       VALUE 'R4071-RQST-DTL'.
               10  DBLINK-R4072-BUYER       PIC X(16)
                       VALUE 'R4072-BUYER'.
               10  DBLINK-R4073-VENDOR      PIC X(16)
                       VALUE 'R4073-VENDOR'.
               10  DBLINK-R4074-CMDTY       PIC X(16)
                       VALUE 'R4074-CMDTY'.
               10  DBLINK-R4081-AGRMNT      PIC X(16)
                       VALUE 'R4081-AGRMNT'.
               10  DBLINK-R4083-PO-HDR      PIC X(16)
                       VALUE 'R4083-PO-HDR'.
               10  DBLINK-R4084-PO-CLASS    PIC X(16)
                       VALUE 'R4084-PO-CLASS'.
               10  DBLINK-R4085-PO-DTL      PIC X(16)
                       VALUE 'R4085-PO-DTL'.
               10  DBLINK-R4088-BID         PIC X(16)
                       VALUE 'R4088-BID'.
               10  DBLINK-R4089-BID-DTL     PIC X(16)
                       VALUE 'R4089-BID-DTL'.
               10  DBLINK-R4093-RCVNG-HDR   PIC X(16)
                       VALUE 'R4093-RCVNG-HDR'.
               10  DBLINK-R4096-PO-HDR-SEQ  PIC X(16)
                       VALUE 'R4096-PO-HDR-SEQ'.
               10  DBLINK-R4099-RETURNS     PIC X(16)
                       VALUE 'R4099-RETURNS'.
               10  DBLINK-R4104-VENDOR-CMD  PIC X(16)
                       VALUE 'R4104-VENDOR-CMD'.
               10  DBLINK-R4106-AUTO-JRNL   PIC X(16)
                       VALUE 'R4106-AUTO-JRNL'.
               10  DBLINK-R4120-TXT-HDR     PIC X(16)
                       VALUE 'R4120-TXT-HDR'.
               10  DBLINK-R4150-INV-HDR     PIC X(16)
                       VALUE 'R4150-INV-HDR'.
               10  DBLINK-R4151-INV-DTL     PIC X(16)
                       VALUE 'R4151-INV-DTL'.
               10  DBLINK-R4157-CHK-RQST-H  PIC X(16)
                       VALUE 'R4157-CHK-RQST-H'.
               10  DBLINK-R4158-CHK-HDR     PIC X(16)
                       VALUE 'R4158-CHK-HDR'.
               10  DBLINK-R4161-DSCNT-TBLE  PIC X(16)
                       VALUE 'R4161-DSCNT-TBLE'.
               10  DBLINK-R4163-RSBLE-INV   PIC X(16)
                       VALUE 'R4163-RSBLE-INV'.
               10  DBLINK-R4166-VNDR-TYPE   PIC X(16)
                       VALUE 'R4166-VNDR-TYPE'.
               10  DBLINK-R4168-TAX-RATES   PIC X(16)
                       VALUE 'R4168-TAX-RATES'.
               10  DBLINK-R4174-TOF-HDR     PIC X(16)
                       VALUE 'R4174-TOF-HDR'.
               10  DBLINK-R4180-RULE-CLASS  PIC X(16)
                       VALUE 'R4180-RULE-CLASS'.
               10  DBLINK-R4181-RULE-EFCTV  PIC X(16)
                       VALUE 'R4181-RULE-EFCTV'.
               10  DBLINK-R4183-ENCMBR-YRS  PIC X(16)
                       VALUE 'R4183-ENCMBR-YRS'.
               10  DBLINK-R4187-G-FOAPAL    PIC X(16)
                       VALUE 'R4187-G-FOAPAL'.
               10  DBLINK-R4188-TRAN-HIST   PIC X(16)
                       VALUE 'R4188-TRAN-HIST'.
               10  DBLINK-R4190-ENCMBR-DTL  PIC X(16)
                       VALUE 'R4190-ENCMBR-DTL'.
               10  DBLINK-R4191-ENCMBR-HDR  PIC X(16)
                       VALUE 'R4191-ENCMBR-HDR'.
               10  DBLINK-R4192-USER-PRFL   PIC X(16)
                       VALUE 'R4192-USER-PRFL'.
               10  DBLINK-R4197-GNRL-LDGR   PIC X(16)
                       VALUE 'R4197-GNRL-LDGR'.
               10  DBLINK-R4199-ACCT-LDGR   PIC X(16)
                       VALUE 'R4199-ACCT-LDGR'.
               10  DBLINK-R4203-DOCUMENT    PIC X(16)
                       VALUE 'R4203-DOCUMENT'.
               10  DBLINK-R4204-APRVL-J     PIC X(16)
                       VALUE 'R4204-APRVL-J'.
               10  DBLINK-R4205-APRVL-LVL   PIC X(16)
                       VALUE 'R4205-APRVL-LVL'.
               10  DBLINK-R4209-CLAUSE      PIC X(16)
                       VALUE 'R4209-CLAUSE'.
               10  DBLINK-R4212-APRVL-HDR   PIC X(16)
                       VALUE 'R4212-APRVL-HDR'.
               10  DBLINK-R4215-APRV-TMPLT  PIC X(16)
                       VALUE 'R4215-APRV-TMPLT'.
               10  DBLINK-R4224-DLVRY-HDR   PIC X(16)
                       VALUE 'R4224-DLVRY-HDR'.
               10  DBLINK-R4226-EXPR-VNDR   PIC X(16)
                       VALUE 'R4226-EXPR-VNDR'.
               10  DBLINK-R4228-FILE-CNTL   PIC X(16)
                       VALUE 'R4228-FILE-CNTL'.
               10  DBLINK-R4229-RLSE-HDR    PIC X(16)
                       VALUE 'R4229-RLSE-HDR'.
               10  DBLINK-R4230-RLSE-DTL    PIC X(16)
                       VALUE 'R4230-RLSE-DTL'.
               10  DBLINK-R4232-AP-TRANS    PIC X(16)
                       VALUE 'R4232-AP-TRANS'.
               10  DBLINK-R4300-AST         PIC X(16)
                       VALUE 'R4300-AST'.
               10  DBLINK-R4400-TRVL        PIC X(16)
                       VALUE 'R4400-TRVL'.
               10  DBLINK-R4401-EVENT       PIC X(16)
                       VALUE 'R4401-EVENT'.
               10  DBLINK-R4402-TRIP        PIC X(16)
                       VALUE 'R4402-TRIP'.
               10  DBLINK-R4405-EXPNS       PIC X(16)
                       VALUE 'R4405-EXPNS'.
               10  DBLINK-R4406-RECON       PIC X(16)
                       VALUE 'R4406-RECON'.
               10  DBLINK-R4410-TRVL-INV    PIC X(16)
                       VALUE 'R4410-TRVL-INV'.
               10  DBLINK-R6000-SYS         PIC X(16)
                       VALUE 'R6000-SYS'.
               10  DBLINK-R6001-UNVRS       PIC X(16)
                       VALUE 'R6001-UNVRS'.
               10  DBLINK-R6117-PRSN        PIC X(16)
                       VALUE 'R6117-PRSN'.
               10  DBLINK-R6151-STATE       PIC X(16)
                       VALUE 'R6151-STATE'.
               10  DBLINK-R6152-ZIP         PIC X(16)
                       VALUE 'R6152-ZIP'.
               10  DBLINK-R6153-COUNTRY     PIC X(16)
                       VALUE 'R6153-COUNTRY'.
               10  DBLINK-R6200-ACH-DATA    PIC X(16)
                       VALUE 'R6200-ACH-DATA'.
               10  DBLINK-R6257             PIC X(16)
                       VALUE 'R6257'.
               10  DBLINK-R6258             PIC X(16)
                       VALUE 'R6258'.
               10  DBLINK-R6259             PIC X(16)
                       VALUE 'R6259'.
               10  DBLINK-R6260             PIC X(16)
                       VALUE 'R6260'.
               10  DBLINK-R6268             PIC X(16)
                       VALUE 'R6268'.
               10  DBLINK-R6270             PIC X(16)
                       VALUE 'R6270'.
               10  DBLINK-R6273             PIC X(16)
                       VALUE 'R6273'.
               10  DBLINK-R6311-ENTY        PIC X(16)
                       VALUE 'R6311-ENTY'.
               10  DBLINK-R6313-PRSN-CHG    PIC X(16)
                       VALUE 'R6313-PRSN-CHG'.
               10  DBLINK-R6353-ENTY-CHG    PIC X(16)
                       VALUE 'R6353-ENTY-CHG'.
               10  DBLINK-R6600-TABL-HDR    PIC X(16)
                       VALUE 'R6600-TABL-HDR'.
               10  DBLINK-R6605             PIC X(16)
                       VALUE 'R6605'.
               10  DBLINK-R6606             PIC X(16)
                       VALUE 'R6606'.
               10  DBLINK-R8001             PIC X(16)
                       VALUE 'R8001'.
               10  DBLINK-R8002             PIC X(16)
                       VALUE 'R8002'.
               10  DBLINK-R8003             PIC X(16)
                       VALUE 'R8003'.
               10  DBLINK-R8005             PIC X(16)
                       VALUE 'R8005'.
               10  DBLINK-R8007             PIC X(16)
                       VALUE 'R8007'.
               10  DBLINK-R8008             PIC X(16)
                       VALUE 'R8008'.
               10  DBLINK-R8009             PIC X(16)
                       VALUE 'R8009'.
               10  DBLINK-R8010             PIC X(16)
                       VALUE 'R8010'.
               10  DBLINK-R8013             PIC X(16)
                       VALUE 'R8013'.
               10  DBLINK-R8020             PIC X(16)
                       VALUE 'R8020'.
               10  DBLINK-R8030             PIC X(16)
                       VALUE 'R8030'.
               10  DBLINK-R8040             PIC X(16)
                       VALUE 'R8040'.
               10  DBLINK-R8044             PIC X(16)
                       VALUE 'R8044'.
               10  DBLINK-R8050             PIC X(16)
                       VALUE 'R8050'.
               10  DBLINK-R8051             PIC X(16)
                       VALUE 'R8051'.
               10  DBLINK-R8052             PIC X(16)
                       VALUE 'R8052'.
           05  DBLINK-SET-NAMES.
               10  FILLER                   PIC X(1)        VALUE SPACE.
           05  DBLINK-AREA-NAMES.
               10  F-CTRL                   PIC X(16)
                       VALUE 'F-CTRL'.
               10  F-OS                     PIC X(16)
                       VALUE 'F-OS'.
           05  DBLINK-RECORD-LOCK-FLAGS.
               10  FILLER                   PIC X(1)        VALUE SPACE.
           05  DBLINK-CURSOR-NAMES.
               10  FILLER                   PIC X(1)        VALUE SPACE.
           05  DBLINK-CURSOR-CODES.
               10  FILLER                   PIC X(1)        VALUE SPACE.
           02  DBLINK-KEYS.
UCSDX      EXEC SQL
UCSDX          INCLUDE CBRSKEYS
UCSDX      END-EXEC.
      /
      *%-------------------------------------------------------------- *
      *%                                                               *
      *%                  CONTROL AREAS AND VIEWS                      *
      *%                                                               *
      *%-------------------------------------------------------------- *

      *%****************************** *
      *%CONVERT/DB COMMAREA
      *%****************************** *
           EXEC SQL
               INCLUDE SQLCA
           END-EXEC.

      *%****************************** *
      *%UNV_UNVRS_V AREAS(HOST VAR INCLUDE)
      *%****************************** *
      *%   EXEC SQL
      *%       INCLUDE CBHV6001
CPYNME     EXEC SQL
CPYNME         INCLUDE HVUNV
CPYNME     END-EXEC.
      *%   END-EXEC.

      *%****************************** *
      *%COA_COA_V AREAS(HOST VAR INCLUDE)
      *%****************************** *
      *%   EXEC SQL
      *%       INCLUDE CBHV4000
CPYNME     EXEC SQL
CPYNME         INCLUDE HVCOA
CPYNME     END-EXEC.
      *%   END-EXEC.

      *%****************************** *
      *%FLY_FSCL_YEAR_V AREAS(HOST VAR INCLUDE)
      *%****************************** *
      *%   EXEC SQL
      *%       INCLUDE CBHV4024
CPYNME     EXEC SQL
CPYNME         INCLUDE HVFLY
CPYNME     END-EXEC.
      *%   END-EXEC.



       PROCEDURE DIVISION.
      /
      *%-------------------------------------------------------------- *
      *%                                                               *
      *%              000-SQL-INITIALIZATION ROUTINE                   *
      *%                                                               *
      *%-------------------------------------------------------------- *
       000-SQL-INITIALIZATION.
           MOVE '000-SQL-INITIALIZATION' TO DBLINK-CURR-PARAGRAPH.
           ACCEPT DBLINK-RUN-DATE-2 FROM DATE.
           MOVE DBLINK-RUN-DATE-2-MO TO DBLINK-RUN-DATE-MO.
           MOVE DBLINK-RUN-DATE-2-DY TO DBLINK-RUN-DATE-DY.
           MOVE DBLINK-RUN-DATE-2-YR TO DBLINK-RUN-DATE-YR.
           ACCEPT DBLINK-TIME FROM TIME.
           MOVE DBLINKX-NULL-DB2-DATE-ISO TO DBLINK-DEFAULT-DATE.
           MOVE '0001-01-01' TO DBLINK-LOW-DATE.
           MOVE '9999-12-31' TO DBLINK-HIGH-DATE.
           MOVE DBLINKX-NULL-DB2-TIME-ISO TO DBLINK-DEFAULT-TIME.
           MOVE '00.00.01' TO DBLINK-LOW-TIME.
           MOVE '23.59.59' TO DBLINK-HIGH-TIME.
       000-SQL-INITIALIZATION-EXIT.
           EXIT.


      ****************************************************************
      *  THE FOLLOWING PARAGRAPH WILL CONTROL THE THREE MAJOR PARTS
      *  OF THIS PROGRAM: *
      *    1) INITIALIZE OUTPUT FILES AND READ PARAMETER CARD
      *    2) PROCESS THE DATABASE DATA
      *    3) PERFORM ANY END OF PROCESSING.
      ****************************************************************

       0000-MAINLINE SECTION.

           PERFORM 1000-INITIALIZE-SECT
              THRU 1000-EXIT.

           MOVE 'Y' TO WS-FIRST-TIME-FLAG.

           PERFORM 2000-MAIN-PROCESS-SECT
              THRU 2000-EXIT
              UNTIL EXPEND-EXTR-EOF.

           PERFORM 2100-PROC-EXPEND-EXTR-EOF
              THRU 2100-EXIT.

           PERFORM 9000-END-OF-PROGRAM-SECT
              THRU 9000-EXIT.

      *%   FINISH.
           MOVE 0001 TO DBLINK-CURR-IO-NUM
           MOVE +0 TO SQLCODE
           MOVE ZERO TO ERROR-STATUS
           PERFORM 986-RESET-KEYS
              THRU 986-RESET-KEYS-EXIT
           PERFORM 996-COMMIT
              THRU 996-COMMIT-EXIT
           PERFORM 999-SQL-STATUS
              THRU 999-SQL-STATUS-EXIT.

           STOP RUN.

      /
      ****************************************************************
      *  THE FOLLOWING PARAGRAPH WILL BIND RUN UNITS, READY THE
      *  NECESSARY AREAS, PREPARE THE PROGRAM TO ABORT DUE AN IDMS
      *  ERROR, OPEN THE FILES, VALIDATE PARAMETER CARD, INITIALIZE
      *  CONTROL REPORT ARRAYS.
      ****************************************************************

       1000-INITIALIZE-SECT SECTION.
       1000-010.

      *%   BIND RUN-UNIT.
           MOVE 0002 TO DBLINK-CURR-IO-NUM
           MOVE +0 TO SQLCODE
           MOVE ZERO TO ERROR-STATUS
           PERFORM 986-RESET-KEYS
              THRU 986-RESET-KEYS-EXIT.

      *%   BIND R6001-UNVRS.
           MOVE 0003 TO DBLINK-CURR-IO-NUM
           MOVE +0 TO SQLCODE
           MOVE ZERO TO ERROR-STATUS.
      *%   BIND R4000-COA.
           MOVE 0004 TO DBLINK-CURR-IO-NUM
           MOVE +0 TO SQLCODE
           MOVE ZERO TO ERROR-STATUS.
      *%   BIND R4024-FSCL-YEAR.
           MOVE 0005 TO DBLINK-CURR-IO-NUM
           MOVE +0 TO SQLCODE
           MOVE ZERO TO ERROR-STATUS.

      *%   READY F-OS          USAGE-MODE IS RETRIEVAL.
           MOVE 0006 TO DBLINK-CURR-IO-NUM
           MOVE +0 TO SQLCODE
           MOVE ZERO TO ERROR-STATUS.
      *%   READY F-CTRL        USAGE-MODE IS RETRIEVAL.
           MOVE 0007 TO DBLINK-CURR-IO-NUM
           MOVE +0 TO SQLCODE
           MOVE ZERO TO ERROR-STATUS.

           OPEN INPUT  CONTROL-FILE
                       EXPENDITURE-EXTR-FILE.
           OPEN OUTPUT EXPENDITURE-SUMM-FILE
                       CONTROL-RPT-INPUT-FILE
                       CONTROL-RPT-OUTPUT-FILE.

           COPY PDDATEC2.
           COPY PDTIMEC2.

           MOVE  'I'    TO WS-RPT-PRINTED.
           PERFORM 8010-PRINT-CONTROL-RPT-HDLINE THRU 8010-EXIT.

           MOVE SPACES                TO CONTROL-REPORT-DATA.
           MOVE WHEN-COMPILED         TO COMPILED-DATA.
           INSPECT COMPILED-DATA-TIME REPLACING ALL '.' BY ':'.
           STRING  'PROGRAM COMPILED ',
                   COMPILED-DATA-DATE,
                   ' AT ',
                   COMPILED-DATA-TIME
                   DELIMITED BY SIZE INTO CONTROL-REPORT-DATA.
           MOVE '0' TO CONTROL-REPORT-CC.
           PERFORM 8000-WRITE-CONTROL-REPORT THRU 8000-EXIT.

           MOVE 'INPUT CONTROLS' TO CONTROL-REPORT-DATA.
           MOVE '-'              TO CONTROL-REPORT-CC.
           PERFORM 8000-WRITE-CONTROL-REPORT THRU 8000-EXIT.

           PERFORM 1100-PROCESS-CONTROL-FILE THRU 1100-EXIT.

           PERFORM 1200-INITIAL-FACB-ARRAY THRU 1200-EXIT
              VARYING ARRAY-SUB FROM 1 BY 1
                 UNTIL ARRAY-SUB > 2
              AFTER ENTRY-SUB FROM 1 BY 1
                 UNTIL ENTRY-SUB > 8.

           PERFORM 1300-INITIAL-FACM-ARRAY THRU 1300-EXIT
              VARYING ARRAY-SUB FROM 1 BY 1
                 UNTIL ARRAY-SUB > 2
              AFTER ENTRY-SUB FROM 1 BY 1
                 UNTIL ENTRY-SUB > 8.

           PERFORM 1400-INITIAL-BACB-ARRAY THRU 1400-EXIT
              VARYING ARRAY-SUB FROM 1 BY 1
                 UNTIL ARRAY-SUB > 2
              AFTER ENTRY-SUB FROM 1 BY 1
                 UNTIL ENTRY-SUB > 7.

           PERFORM 1500-INITIAL-EACB-ARRAY THRU 1500-EXIT
              VARYING ARRAY-SUB FROM 1 BY 1
                 UNTIL ARRAY-SUB > 2
              AFTER ENTRY-SUB FROM 1 BY 1
                 UNTIL ENTRY-SUB > 3.

           PERFORM 1600-INITIAL-FAT-ARRAY THRU 1600-EXIT
              VARYING ARRAY-SUB FROM 1 BY 1
                 UNTIL ARRAY-SUB > 2
              AFTER ENTRY-SUB FROM 1 BY 1
                 UNTIL ENTRY-SUB > 3.

       1000-EXIT.
            EXIT.

      /
      ******************************************************************
      *           THIS IS A STANDARD ROUTINE TO VALIDATE CONTROL
      *           PARAMETERS AND PREPARE A PROGRAM TO ABORT DUE
      *           ANY ERROR HAPENS DURING VALIDATIONS.
      ******************************************************************

       1100-PROCESS-CONTROL-FILE.

           READ CONTROL-FILE INTO WS-CONTROL-RECORD
              AT END
                 GO TO 1100-CONTINUE.

           IF FIRST-TIME
              MOVE 'N' TO WS-FIRST-TIME-FLAG
              MOVE '0' TO CONTROL-REPORT-CC.
           MOVE WS-CONTROL-RECORD TO CONTROL-REPORT-DATA.
           PERFORM 8000-WRITE-CONTROL-REPORT THRU 8000-EXIT.

           IF UNVRS-LITERAL
              MOVE WS-UNVRS-CODE TO WCR-UNVRS-CODE
              GO TO 1100-PROCESS-CONTROL-FILE.

           IF DESCRIPTION-LITERAL                                       00010000
              MOVE WS-DESCRIPTION TO WCR-DESCRIPTION                    00020000
              GO TO 1100-PROCESS-CONTROL-FILE.                          00030000
                                                                        00040000
           IF COA-LITERAL
              MOVE WS-COA-CODE TO WCR-COA-CODE
              GO TO 1100-PROCESS-CONTROL-FILE.

           IF FSCL-YR-LITERAL
              MOVE WS-FSCL-YR  TO WCR-FSCL-YR
              GO TO 1100-PROCESS-CONTROL-FILE.

           IF ACTG-PRD-LITERAL
              MOVE WS-ACTG-PRD TO WCR-ACTG-PRD-ALPHA
              GO TO 1100-PROCESS-CONTROL-FILE.

           IF TESTING-LITERAL
              MOVE 'Y'         TO WS-TESTING-FLAG
              GO TO 1100-PROCESS-CONTROL-FILE.

           ADD  1                  TO WS-MSG-CTR.
           MOVE WCR-MSG-01         TO WS-RESULT-MSG.
           MOVE WCR-ERROR-MSG-LINE TO CONTROL-REPORT-DATA.
           PERFORM 8000-WRITE-CONTROL-REPORT THRU 8000-EXIT.
           GO TO   1100-PROCESS-CONTROL-FILE.

       1100-CONTINUE.

           PERFORM 1110-VALIDATE-PARAMETERS THRU 1110-EXIT.

       1100-EXIT.
           EXIT.

      **************************
       1110-VALIDATE-PARAMETERS.

           IF WCR-UNVRS-CODE EQUAL SPACES
              ADD  1                  TO WS-MSG-CTR
              MOVE WCR-MSG-02         TO WS-RESULT-MSG
              MOVE WCR-ERROR-MSG-LINE TO CONTROL-REPORT-DATA
              PERFORM 8000-WRITE-CONTROL-REPORT THRU 8000-EXIT
           ELSE
              PERFORM 1120-VALIDATE-UNVRS-CODE  THRU 1120-EXIT.

           IF WCR-COA-CODE EQUAL SPACES
              ADD  1                  TO WS-MSG-CTR
              MOVE WCR-MSG-04         TO WS-RESULT-MSG
              MOVE WCR-ERROR-MSG-LINE TO CONTROL-REPORT-DATA
              PERFORM 8000-WRITE-CONTROL-REPORT THRU 8000-EXIT
           ELSE
              PERFORM 1130-VALIDATE-COA-CODE    THRU 1130-EXIT.

           IF WCR-FSCL-YR EQUAL SPACES
              ADD  1                  TO WS-MSG-CTR
              MOVE WCR-MSG-06         TO WS-RESULT-MSG
              MOVE WCR-ERROR-MSG-LINE TO CONTROL-REPORT-DATA
              PERFORM 8000-WRITE-CONTROL-REPORT THRU 8000-EXIT
           ELSE
              PERFORM 1140-VALIDATE-FSCL-YR     THRU 1140-EXIT.

           IF WCR-ACTG-PRD-ALPHA EQUAL SPACES
              ADD  1                  TO WS-MSG-CTR
              MOVE WCR-MSG-08         TO WS-RESULT-MSG
              MOVE WCR-ERROR-MSG-LINE TO CONTROL-REPORT-DATA
              PERFORM 8000-WRITE-CONTROL-REPORT THRU 8000-EXIT
           ELSE
              PERFORM 1150-VALIDATE-ACTG-PRD    THRU 1150-EXIT.

           IF WS-MSG-CTR > 0
              MOVE 99 TO ERROR-STATUS
              PERFORM 999-SQL-STATUS
                 THRU 999-SQL-STATUS-EXIT.

       1110-EXIT.
           EXIT.

      **************************
       1120-VALIDATE-UNVRS-CODE.

           MOVE WCR-UNVRS-CODE TO UNVRS-CODE-6001.
      *%   OBTAIN CALC R6001-UNVRS
           MOVE 0008 TO DBLINK-CURR-IO-NUM
           MOVE DBLINK-OBTAIN TO DBLINK-TYPE-SELECT
           MOVE DBLINK-CALC TO DBLINK-TYPE-GET
           MOVE UNVRS-CODE-6001 OF R6001-UNVRS TO UNV-UNVRS-CD
           PERFORM 906-05-R6001-UNVRS
              THRU 906-05-R6001-UNVRS-EXIT
      *%      ON ANY-STATUS
              IF NOT ANY-STATUS
                  PERFORM 999-SQL-STATUS
                     THRU 999-SQL-STATUS-EXIT
              ELSE
                 NEXT SENTENCE.

           IF DB-REC-NOT-FOUND
              ADD  1                  TO WS-MSG-CTR
              MOVE WCR-UNVRS-CODE     TO WS-PARM-VALUE
              MOVE WCR-MSG-03         TO WS-RESULT-MSG
              MOVE WCR-ERROR-MSG-LINE TO CONTROL-REPORT-DATA
              PERFORM 8000-WRITE-CONTROL-REPORT THRU 8000-EXIT
           ELSE
              IF DB-STATUS-OK
                 MOVE 'Y' TO WS-UNVRS-CODE-VALID
              ELSE
                 PERFORM 999-SQL-STATUS
                    THRU 999-SQL-STATUS-EXIT.

       1120-EXIT.
           EXIT.

      ************************
       1130-VALIDATE-COA-CODE.

           IF NOT UNVRS-CODE-VALID
              GO TO 1130-EXIT.

           MOVE WCR-UNVRS-CODE TO UNVRS-CODE-4000.
           MOVE WCR-COA-CODE   TO COA-CODE-4000.
      *%   OBTAIN CALC R4000-COA
           MOVE 0009 TO DBLINK-CURR-IO-NUM
           MOVE DBLINK-OBTAIN TO DBLINK-TYPE-SELECT
           MOVE DBLINK-CALC TO DBLINK-TYPE-GET
           MOVE UNVRS-CODE-4000 OF R4000-COA TO COA-UNVRS-CD
           MOVE COA-CODE-4000 OF R4000-COA TO COA-COA-CD
           PERFORM 906-05-R4000-COA
              THRU 906-05-R4000-COA-EXIT
      *%      ON ANY-STATUS
              IF NOT ANY-STATUS
                  PERFORM 999-SQL-STATUS
                     THRU 999-SQL-STATUS-EXIT
              ELSE
                 NEXT SENTENCE.

           IF DB-REC-NOT-FOUND
              ADD  1                  TO WS-MSG-CTR
              MOVE WCR-COA-CODE       TO WS-PARM-VALUE
              MOVE WCR-MSG-05         TO WS-RESULT-MSG
              MOVE WCR-ERROR-MSG-LINE TO CONTROL-REPORT-DATA
              PERFORM 8000-WRITE-CONTROL-REPORT THRU 8000-EXIT
              GO TO 1130-EXIT
           ELSE
              IF DB-STATUS-OK
                 MOVE 'Y' TO WS-COA-CODE-VALID
              ELSE
                 PERFORM 999-SQL-STATUS
                    THRU 999-SQL-STATUS-EXIT.

       1130-EXIT.
            EXIT.

      ***********************
       1140-VALIDATE-FSCL-YR.

           IF UNVRS-CODE-VALID AND
              COA-CODE-VALID
              NEXT SENTENCE
           ELSE
              GO TO   1140-EXIT.

           MOVE WCR-UNVRS-CODE TO UNVRS-CODE-4024.
           MOVE WCR-COA-CODE TO COA-CODE-4024.
           MOVE WCR-FSCL-YR TO FSCL-YR-4024.
      *%   OBTAIN CALC R4024-FSCL-YEAR
           MOVE 0010 TO DBLINK-CURR-IO-NUM
           MOVE DBLINK-OBTAIN TO DBLINK-TYPE-SELECT
           MOVE DBLINK-CALC TO DBLINK-TYPE-GET
           MOVE FSCL-YR-4024 OF R4024-FSCL-YEAR TO FLY-FSCL-YR
           PERFORM 906-05-R4024-FSCL-YEAR
              THRU 906-05-R4024-FSCL-YEAR-EXIT
      *%      ON ANY-STATUS
              IF NOT ANY-STATUS
                  PERFORM 999-SQL-STATUS
                     THRU 999-SQL-STATUS-EXIT
              ELSE
                 NEXT SENTENCE.

           IF DB-REC-NOT-FOUND
              ADD  1                  TO WS-MSG-CTR
              MOVE WCR-FSCL-YR        TO WS-PARM-VALUE
              MOVE WCR-MSG-07         TO WS-RESULT-MSG
              MOVE WCR-ERROR-MSG-LINE TO CONTROL-REPORT-DATA
              PERFORM 8000-WRITE-CONTROL-REPORT THRU 8000-EXIT
           ELSE
              IF DB-STATUS-OK
                 MOVE 'Y' TO WS-FSCL-YR-VALID
              ELSE
                 PERFORM 999-SQL-STATUS
                    THRU 999-SQL-STATUS-EXIT.

       1140-EXIT.
            EXIT.

      ************************
       1150-VALIDATE-ACTG-PRD.

           IF NOT FSCL-YR-VALID
              GO TO 1150-EXIT.

           IF WCR-ACTG-PRD < 00 OR
              WCR-ACTG-PRD > 12
              ADD  1                  TO WS-MSG-CTR
              MOVE WCR-ACTG-PRD-ALPHA TO WS-PARM-VALUE
              MOVE WCR-MSG-09         TO WS-RESULT-MSG
              MOVE WCR-ERROR-MSG-LINE TO CONTROL-REPORT-DATA
              PERFORM 8000-WRITE-CONTROL-REPORT THRU 8000-EXIT
              GO TO 1150-EXIT.

           IF TESTING OR
              WCR-ACTG-PRD = 00
              NEXT SENTENCE
           ELSE
              IF PRD-STATUS-4024(WCR-ACTG-PRD) NOT = 'C'
                 ADD  1                  TO WS-MSG-CTR
                 MOVE WCR-ACTG-PRD-ALPHA TO WS-PARM-VALUE
                 MOVE WCR-MSG-10         TO WS-RESULT-MSG
                 MOVE WCR-ERROR-MSG-LINE TO CONTROL-REPORT-DATA
                 PERFORM 8000-WRITE-CONTROL-REPORT THRU 8000-EXIT.

           MOVE WCR-ACTG-PRD TO CL4-ACTG-PRD.
           MOVE PRD-START-DATE-4024(WCR-ACTG-PRD) TO
                WS-DATA-BASE-DATE.
           MOVE WS-DATA-BASE-YEAR       TO WS-FORMAT-YEAR.
           MOVE WS-DATA-BASE-MONTH      TO WS-FORMAT-MONTH.
           MOVE WS-DATA-BASE-DAY        TO WS-FORMAT-DAY.
           MOVE WS-FORMAT-DATE          TO CL4-PRD-START-DATE.
           MOVE PRD-END-DATE-4024(WCR-ACTG-PRD) TO
                WS-DATA-BASE-DATE.
           MOVE WS-DATA-BASE-YEAR       TO WS-FORMAT-YEAR.
           MOVE WS-DATA-BASE-MONTH      TO WS-FORMAT-MONTH.
           MOVE WS-DATA-BASE-DAY        TO WS-FORMAT-DAY.
           MOVE WS-FORMAT-DATE          TO CL4-PRD-END-DATE.

       1150-EXIT.
            EXIT.

      ****************************************************************
      *  THE FOLLOWING PARAGRAPH WILL INITIALIZE
      *  FINAN-AMT-CURR-BALANCE ARRAY.
      ****************************************************************

       1200-INITIAL-FACB-ARRAY.

           MOVE ZEROES TO FACB-RECORD-COUNT (ARRAY-SUB, ENTRY-SUB).
           MOVE ZEROES TO FACB-DEBIT-AMOUNT (ARRAY-SUB, ENTRY-SUB).
           MOVE ZEROES TO FACB-CREDIT-AMOUNT(ARRAY-SUB, ENTRY-SUB).
           MOVE ZEROES TO FACB-NET-AMOUNT   (ARRAY-SUB, ENTRY-SUB).

       1200-EXIT.
           EXIT.

      ****************************************************************
      *  THE FOLLOWING PARAGRAPH WILL INITIALIZE
      *  FINAN-AMT-CURR-MONTH ARRAY.
      ****************************************************************

       1300-INITIAL-FACM-ARRAY.

           MOVE ZEROES TO FACM-RECORD-COUNT (ARRAY-SUB, ENTRY-SUB).
           MOVE ZEROES TO FACM-DEBIT-AMOUNT (ARRAY-SUB, ENTRY-SUB).
           MOVE ZEROES TO FACM-CREDIT-AMOUNT(ARRAY-SUB, ENTRY-SUB).
           MOVE ZEROES TO FACM-NET-AMOUNT   (ARRAY-SUB, ENTRY-SUB).

       1300-EXIT.
           EXIT.

      ****************************************************************
      *  THE FOLLOWING PARAGRAPH WILL INITIALIZE
      *  BUDGT-APPROP-CURR-BALANCE ARRAY.
      ****************************************************************

       1400-INITIAL-BACB-ARRAY.

           MOVE ZEROES TO BACB-RECORD-COUNT (ARRAY-SUB, ENTRY-SUB).
           MOVE ZEROES TO BACB-DEBIT-AMOUNT (ARRAY-SUB, ENTRY-SUB).
           MOVE ZEROES TO BACB-CREDIT-AMOUNT(ARRAY-SUB, ENTRY-SUB).
           MOVE ZEROES TO BACB-NET-AMOUNT   (ARRAY-SUB, ENTRY-SUB).

       1400-EXIT.
           EXIT.

      ****************************************************************
      *  THE FOLLOWING PARAGRAPH WILL INITIALIZE
      *  ENCMBRN-AMT-CURR-BALANCE ARRAY.
      ****************************************************************

       1500-INITIAL-EACB-ARRAY.

           MOVE ZEROES TO EACB-RECORD-COUNT (ARRAY-SUB, ENTRY-SUB).
           MOVE ZEROES TO EACB-DEBIT-AMOUNT (ARRAY-SUB, ENTRY-SUB).
           MOVE ZEROES TO EACB-CREDIT-AMOUNT(ARRAY-SUB, ENTRY-SUB).
           MOVE ZEROES TO EACB-NET-AMOUNT   (ARRAY-SUB, ENTRY-SUB).

       1500-EXIT.
           EXIT.

      ****************************************************************
      *  THE FOLLOWING PARAGRAPH WILL INITIALIZE
      *  FINAN-AMT-TRANSACTIONS ARRAY.
      ****************************************************************

       1600-INITIAL-FAT-ARRAY.

           MOVE ZEROES TO FAT-RECORD-COUNT (ARRAY-SUB, ENTRY-SUB).
           MOVE ZEROES TO FAT-DEBIT-AMOUNT (ARRAY-SUB, ENTRY-SUB).
           MOVE ZEROES TO FAT-CREDIT-AMOUNT(ARRAY-SUB, ENTRY-SUB).
           MOVE ZEROES TO FAT-NET-AMOUNT   (ARRAY-SUB, ENTRY-SUB).

       1600-EXIT.
           EXIT.

      /
      ****************************************************************
      *  THE FOLLOWING PARAGRAPH CONTAIN THE MAIN LOGIC OF THE PROGRAM
      ****************************************************************

       2000-MAIN-PROCESS-SECT SECTION.
       2000-010.

           MOVE SPACES TO CFS-EXTRACT-RECORD.

           READ EXPENDITURE-EXTR-FILE INTO CFS-EXTRACT-RECORD
              AT END
                     MOVE 'Y' TO WS-EXPEND-EXTR-EOF
                 GO TO 2000-EXIT.

           ADD 1  TO WS-EXPEND-REC-READ.

           IF FIRST-TIME
              PERFORM 6000-UPDATE-SAVED-DATA
                 THRU 6000-EXIT
              MOVE 'N' TO WS-FIRST-TIME-FLAG.

           MOVE WS-INPUT-PHASE TO WS-PHASE.
           PERFORM 9400-CFS-ACCUM
              THRU 9400-EXIT.

           IF CFS-ACCT-NMBR NOT EQUAL WS-SAVED-ACCT-NMBR OR
              CFS-FUND-NMBR  NOT EQUAL WS-SAVED-FUND-NMBR OR
              CFS-SUB-ACCT-CODE NOT EQUAL WS-SAVED-SUB-ACCT-CODE
              MOVE 'Y' TO WS-NEW-ACCT-FUND-SUB-GRP
              PERFORM 4000-WRITE-SUMMARIZED-REC
                 THRU 4000-EXIT
              PERFORM 5000-BALANCE-ACCT-FUND-SUB-GRP
                 THRU 5000-EXIT
              PERFORM 6000-UPDATE-SAVED-DATA
                 THRU 6000-EXIT
              PERFORM 7000-ACCUM-SUMMARY-REC
                 THRU 7000-EXIT
              PERFORM 7100-ACCUM-ACCT-FUND-SUB-GRP
                 THRU 7100-EXIT
              GO TO 2000-EXIT.

           IF CFS-ACCT-NMBR = WS-SAVED-ACCT-NMBR AND
              CFS-FUND-NMBR = WS-SAVED-FUND-NMBR AND
              CFS-SUB-ACCT-CODE = WS-SAVED-SUB-ACCT-CODE
              IF CFS-RECORD-TYPE NOT EQUAL WS-SAVED-RECORD-TYPE
                 PERFORM 4000-WRITE-SUMMARIZED-REC
                    THRU 4000-EXIT
                 PERFORM 6000-UPDATE-SAVED-DATA
                    THRU 6000-EXIT
                 PERFORM 7000-ACCUM-SUMMARY-REC
                    THRU 7000-EXIT
                 PERFORM 7100-ACCUM-ACCT-FUND-SUB-GRP
                    THRU 7100-EXIT
              ELSE
                 IF WS-SAVED-RECORD-TYPE  = '31' AND
                    CFS-31-OBJECT-CODE NOT EQUAL WS-SAVED-OBJECT-CODE
                    PERFORM 4000-WRITE-SUMMARIZED-REC
                       THRU 4000-EXIT
                    PERFORM 6000-UPDATE-SAVED-DATA
                       THRU 6000-EXIT
                    PERFORM 7000-ACCUM-SUMMARY-REC
                       THRU 7000-EXIT
                    PERFORM 7100-ACCUM-ACCT-FUND-SUB-GRP
                       THRU 7100-EXIT
                 ELSE
                    PERFORM 7000-ACCUM-SUMMARY-REC
                       THRU 7000-EXIT
                    PERFORM 7100-ACCUM-ACCT-FUND-SUB-GRP
                       THRU 7100-EXIT.

       2000-EXIT.
           EXIT.

      *********************************
       2100-PROC-EXPEND-EXTR-EOF.

           IF FIRST-TIME
              GO TO 2100-EXIT.

           PERFORM 4000-WRITE-SUMMARIZED-REC
              THRU 4000-EXIT.

           PERFORM 5000-BALANCE-ACCT-FUND-SUB-GRP
              THRU 5000-EXIT.

       2100-EXIT.
           EXIT.

      ****************************************************************
      *  THE FOLLOWING PARAGRAPH WILL FORMAT AND WRITE SINGLE RECORD
      *  FOR EACH COMBINATION OF CFS ACCOUNT/FUND/SUB-ACCOUNT TO THE
      *  SUMMARIZED CFS EXPENDITURE ACCOUNTS (CFS RECORD TYPE 30) OR
      *  CFS EXPENDITURE OBJECT DETAIL ACCOUNTS (CFS RECORD TYPE 31).
      ****************************************************************

       4000-WRITE-SUMMARIZED-REC.

      *    THE FOLLOWING CODE WAS COMMENTED OUT 8/14/92 TO SOLVE A
      *    UCOP GENERATED EDIT ERROR CONDITION. TYPE '31' RECORDS
      *    WERE BEING GENERATED WITH NO TYPE '30' RECORDS DUE TO
      *    THIS STATEMENT.
      *
      *    IF WS-SAVED-RECORD-TYPE = '30'
      *       IF WS-BDGT-APPR-AMT-CURR-BAL = 0 AND
      *          WS-FIN-AMT-CURR-BAL       = 0 AND
      *          WS-ENCMBR-AMT-CURR-BAL    = 0 AND
      *          WS-FIN-AMT-CURR-MONTH-ACT = 0
      *          GO TO 4000-EXIT.

           IF WS-SAVED-RECORD-TYPE = '31'
              IF WS-FIN-AMT-CURR-BAL       = 0 AND
                 WS-FIN-AMT-CURR-MONTH-ACT = 0
                 GO TO 4000-EXIT.

           MOVE SPACES TO CFS-SUMMARY-RECORD.
           IF WS-SAVED-RECORD-TYPE = 30
              MOVE ZEROES TO
                   CSR-30-BDGT-APPR-AMT-CURR-BAL
                   CSR-30-FIN-AMT-CURR-BAL
                   CSR-30-ENCMBR-AMT-CURR-BAL
                   CSR-30-FIN-AMT-CURR-MONTH-ACT
           ELSE
              MOVE ZEROES TO
                   CSR-31-FIN-AMT-CURR-BAL
                   CSR-31-FIN-AMT-CURR-MONTH-ACT.

           MOVE WS-SAVED-LOC-CODE-1  TO
                CSR-LOC-CODE-1.
           MOVE WS-SAVED-LOC-CODE-2  TO
                CSR-LOC-CODE-2.
           MOVE WS-SAVED-ACCT-NMBR   TO
                CSR-ACCT-NMBR.
           MOVE WS-SAVED-FUND-NMBR   TO
                CSR-FUND-NMBR.
           MOVE WS-SAVED-SUB-ACCT-CODE TO
                CSR-SUB-ACCT-CODE.
           MOVE WS-SAVED-RECORD-TYPE TO
                CSR-RECORD-TYPE.

           IF WS-SAVED-RECORD-TYPE = 30
              MOVE WS-BDGT-APPR-AMT-CURR-BAL TO
                   CSR-30-BDGT-APPR-AMT-CURR-BAL
              MOVE WS-FIN-AMT-CURR-BAL TO
                   CSR-30-FIN-AMT-CURR-BAL
              MOVE WS-ENCMBR-AMT-CURR-BAL TO
                   CSR-30-ENCMBR-AMT-CURR-BAL
              MOVE WS-FIN-AMT-CURR-MONTH-ACT TO
                   CSR-30-FIN-AMT-CURR-MONTH-ACT
           ELSE
              MOVE WS-SAVED-OBJECT-CODE TO
                   CSR-31-OBJECT-CODE
              MOVE WS-FIN-AMT-CURR-BAL TO
                   CSR-31-FIN-AMT-CURR-BAL
              MOVE WS-FIN-AMT-CURR-MONTH-ACT TO
                   CSR-31-FIN-AMT-CURR-MONTH-ACT.

           WRITE EXPENDITURE-SUMM-REC FROM CFS-SUMMARY-RECORD.

           ADD 1 TO WS-EXPEND-REC-WRT.

           MOVE WS-OUTPUT-PHASE TO WS-PHASE.
           PERFORM 9500-CFS-ACCUM
              THRU 9500-EXIT.

       4000-EXIT.
           EXIT.

      ****************************************************************
      *  THE FOLLOWING PARAGRAPH WILL CHECK BALANCE BETWEEN THE TOTALS
      *  FOR THE FINANCIAL AMOUNT-CURRENT BALANCE AND THE FINANCIAL
      *  AMOUNT-CURRENT MONTH ACIVITY FOR THE CFS EXPENDITURE ACCOUNTS
      *  (CFS RECORD TYPE 30) AND THE CFS EXPENDITURE OBJECT DETAIL
      *  ACCOUNT (CFS RECORD TYPE 31) FOR A PARTICULAR ACCOUNT/FUND/
      *  SUB-ACCOUNT.
      ****************************************************************

       5000-BALANCE-ACCT-FUND-SUB-GRP.

           IF WS-SAVED-RECORD-TYPE = '30' AND
              BLNC-GROUP-31-EXISTS        OR
              WS-SAVED-RECORD-TYPE = '31' AND
              BLNC-GROUP-30-EXISTS
              PERFORM 5100-PROC-BALANCE THRU 5100-EXIT.

       5000-EXIT.
           EXIT.

      *******************
       5100-PROC-BALANCE.

           IF WS-30-FIN-AMT-CURR-BAL       = WS-31-FIN-AMT-CURR-BAL AND
              WS-30-FIN-AMT-CURR-MONTH-ACT =
                                            WS-31-FIN-AMT-CURR-MONTH-ACT
              NEXT SENTENCE
           ELSE
              MOVE WS-30-FIN-AMT-CURR-BAL TO
                   WS-30-BLNC-AMT-CURR-BAL
              MOVE WS-31-FIN-AMT-CURR-BAL TO
                   WS-31-BLNC-AMT-CURR-BAL
              MOVE WS-30-FIN-AMT-CURR-MONTH-ACT TO
                   WS-30-BLNC-AMT-CURR-MONTH-ACT
              MOVE WS-31-FIN-AMT-CURR-MONTH-ACT TO
                   WS-31-BLNC-AMT-CURR-MONTH-ACT
              STRING   'EXPENDITURE ACCOUNT COMBINATION ',
                       '(', WS-SAVED-ACCT-NMBR,
                       '/', WS-SAVED-FUND-NMBR,
                       '/', WS-SAVED-SUB-ACCT-CODE,
                       ')',
                       ' OUT OF BALANCE '
                       DELIMITED BY SIZE INTO CONTROL-REPORT-DATA
              MOVE '0'  TO CONTROL-REPORT-CC
              PERFORM 8000-WRITE-CONTROL-REPORT THRU 8000-EXIT
              STRING   '(', WS-30-BLNC-AMT-CURR-BAL,
                       '/', WS-31-BLNC-AMT-CURR-BAL,
                       '/', WS-30-BLNC-AMT-CURR-MONTH-ACT,
                       '/', WS-31-BLNC-AMT-CURR-MONTH-ACT,
                       ')'
                       DELIMITED BY SIZE INTO CONTROL-REPORT-DATA
              MOVE ' '  TO CONTROL-REPORT-CC
              PERFORM 8000-WRITE-CONTROL-REPORT THRU 8000-EXIT.

           MOVE SPACES TO WS-BLNC-GROUP.
           MOVE ZEROES TO WS-30-BLNC-AMT-CURR-BAL
                          WS-31-BLNC-AMT-CURR-BAL
                          WS-30-BLNC-AMT-CURR-MONTH-ACT
                          WS-31-BLNC-AMT-CURR-MONTH-ACT.

       5100-EXIT.
           EXIT.

      *****************************
       6000-UPDATE-SAVED-DATA.

           IF FIRST-TIME
              MOVE +0000000000000.00 TO WS-30-FIN-AMT-CURR-BAL
                                        WS-31-FIN-AMT-CURR-BAL
                                        WS-30-FIN-AMT-CURR-MONTH-ACT
                                        WS-31-FIN-AMT-CURR-MONTH-ACT.

           MOVE +0000000000000.00 TO WS-BDGT-APPR-AMT-CURR-BAL
                                     WS-FIN-AMT-CURR-BAL
                                     WS-ENCMBR-AMT-CURR-BAL
                                     WS-FIN-AMT-CURR-MONTH-ACT.

           MOVE CFS-LOC-CODE-1 TO
                WS-SAVED-LOC-CODE-1.
           MOVE CFS-LOC-CODE-2 TO
                WS-SAVED-LOC-CODE-2.
           MOVE CFS-ACCT-NMBR TO
                WS-SAVED-ACCT-NMBR.
           MOVE CFS-FUND-NMBR TO
                WS-SAVED-FUND-NMBR.
           MOVE CFS-SUB-ACCT-CODE TO
                WS-SAVED-SUB-ACCT-CODE.
           MOVE CFS-RECORD-TYPE TO
                WS-SAVED-RECORD-TYPE.
           IF CFS-RECORD-TYPE  = '31'
              MOVE CFS-31-OBJECT-CODE TO
                   WS-SAVED-OBJECT-CODE
           ELSE
              MOVE SPACES TO WS-SAVED-OBJECT-CODE.

       6000-EXIT.
           EXIT.

      ****************************************************************
      *  THE FOLLOWING PARAGRAPH WILL ACCUMULATE FINANCIAL, BUDGETARY
      *  AND ENCUMBRANCE AMOUNTS FOR SUMMARIZED RECORDS.
      ****************************************************************

       7000-ACCUM-SUMMARY-REC.

           IF CFS-RECORD-TYPE = '30'
              ADD CFS-30-BDGT-APPR-AMT-CURR-BAL TO
                  WS-BDGT-APPR-AMT-CURR-BAL
              ADD CFS-30-FIN-AMT-CURR-BAL TO
                  WS-FIN-AMT-CURR-BAL
              ADD CFS-30-ENCMBR-AMT-CURR-BAL TO
                  WS-ENCMBR-AMT-CURR-BAL
              ADD CFS-30-FIN-AMT-CURR-MONTH-ACT TO
                  WS-FIN-AMT-CURR-MONTH-ACT
           ELSE
              ADD CFS-31-FIN-AMT-CURR-BAL TO
                  WS-FIN-AMT-CURR-BAL
              ADD CFS-31-FIN-AMT-CURR-MONTH-ACT TO
                  WS-FIN-AMT-CURR-MONTH-ACT.

       7000-EXIT.
           EXIT.

      ****************************************************************
      *  THE FOLLOWING PARAGRAPH WILL ACCUMULATE FINANCIAL AMOUNT-
      *  CURRENT BALANCE AND FINANCIAL AMOUNT-CURRENT MONTH ACTIVITY
      *  FOR ACCOUNT/FUND/SUB-ACCOUNT GROUPS.
      ****************************************************************

       7100-ACCUM-ACCT-FUND-SUB-GRP.

           IF NEW-ACCT-FUND-SUB-GRP
              MOVE SPACES TO WS-NEW-ACCT-FUND-SUB-GRP
              MOVE +0000000000000.00 TO WS-30-FIN-AMT-CURR-BAL
                                        WS-31-FIN-AMT-CURR-BAL
                                        WS-30-FIN-AMT-CURR-MONTH-ACT
                                        WS-31-FIN-AMT-CURR-MONTH-ACT.

           IF CFS-RECORD-TYPE = '30'
              MOVE '30' TO WS-BLNC-GROUP
              ADD CFS-30-FIN-AMT-CURR-BAL TO
                  WS-30-FIN-AMT-CURR-BAL
              ADD CFS-30-FIN-AMT-CURR-MONTH-ACT TO
                  WS-30-FIN-AMT-CURR-MONTH-ACT
           ELSE
              MOVE '31' TO WS-BLNC-GROUP
              ADD CFS-31-FIN-AMT-CURR-BAL TO
                  WS-31-FIN-AMT-CURR-BAL
              ADD CFS-31-FIN-AMT-CURR-MONTH-ACT TO
                  WS-31-FIN-AMT-CURR-MONTH-ACT.

       7100-EXIT.
           EXIT.

      /
      ****************************************************************
      *  THE FOLLOWING PARAGRAPH WILL PRINT THE CONTROL REPORTS.
      ****************************************************************

       8000-WRITE-CONTROL-REPORT.

           IF INPUT-RPT-PRINTED
              WRITE CONTROL-RPT-INPUT-REC FROM
                                          LINE-ADV-CNTL-RPT-RECORD.
           IF OUTPUT-RPT-PRINTED
              WRITE CONTROL-RPT-OUTPUT-REC FROM
                                           LINE-ADV-CNTL-RPT-RECORD.

           MOVE SPACES TO LINE-ADV-CNTL-RPT-RECORD
                          WCR-ERROR-MSG-LINE.

       8000-EXIT.
           EXIT.

      ****************************************************************
      *  THE FOLLOWING PARAGRAPH WILL PRINT THE CONTROL REPORT
      *  HEADINGS.
      ****************************************************************

       8010-PRINT-CONTROL-RPT-HDLINE.

           ADD 1                     TO WS-CONTROL-PAGE-CNT.

           MOVE SPACES               TO CL1-PRGM-NAME
                                        CL2-RPT-NMBR
                                        CL2-RPT-NAME
                                        CL3-RPT-NAME.

           MOVE 'UGAX525'            TO CL1-PRGM-NAME.
           MOVE WS-CONTROL-PAGE-CNT  TO CL1-PAGE-NUMBER.
           MOVE '1'                  TO CONTROL-REPORT-CC.
           MOVE CNTL-HEAD-LINE-1     TO CONTROL-REPORT-DATA.
           PERFORM 8000-WRITE-CONTROL-REPORT THRU 8000-EXIT.

           IF INPUT-RPT-PRINTED
              MOVE 'CNTLRPT1'              TO CL2-RPT-NMBR
              MOVE 'INPUT CONTROL REPORT'  TO CL3-RPT-NAME.
           IF OUTPUT-RPT-PRINTED
              MOVE 'CNTLRPT2'              TO CL2-RPT-NMBR
              MOVE 'OUTPUT CONTROL REPORT' TO CL3-RPT-NAME.

           MOVE '   IFIS EXPENDITURE ACCOUNT SUMMARIZATION    '
                                     TO CL2-RPT-NAME.
           IF  WCR-DESCRIPTION = SPACES                                 00010000
               NEXT SENTENCE                                            00020000
           ELSE                                                         00030000
               UNSTRING WCR-DESCRIPTION                                 00040000
                   DELIMITED BY '  '                                    00050000
                   INTO CL2-RPT-DESC                                    00060000
                   COUNT IN WS-STRING-COUNT                             00070000
                                                                        00080000
               COMPUTE WS-STRING-POINTER =                              00090000
                   30 - WS-STRING-COUNT                                 00100000
               MOVE SPACES TO CL2-RPT-DESC                              00110000
                                                                        00120000
               STRING WCR-DESCRIPTION                                   00130000
                   DELIMITED BY '  '                                    00140000
                   INTO CL2-RPT-DESC                                    00150000
                   WITH POINTER WS-STRING-POINTER.                      00160000
                                                                        00170000
           MOVE CNTL-HEAD-LINE-2     TO CONTROL-REPORT-DATA.
           PERFORM 8000-WRITE-CONTROL-REPORT THRU 8000-EXIT.

           MOVE GREGORIAN-DATE       TO CL3-RUN-DATE.
           MOVE TIME-HH              TO CL3-RUN-TIME-HH.
           MOVE TIME-MM              TO CL3-RUN-TIME-MM.
           MOVE TIME-SS              TO CL3-RUN-TIME-SS.
           MOVE CNTL-HEAD-LINE-3     TO CONTROL-REPORT-DATA.
           PERFORM 8000-WRITE-CONTROL-REPORT THRU 8000-EXIT.

           IF   CL4-ACTG-PRD NOT = SPACES
                MOVE CNTL-HEAD-LINE-4 TO CONTROL-REPORT-DATA
                PERFORM 8000-WRITE-CONTROL-REPORT
                   THRU 8000-EXIT.

       8010-EXIT.
           EXIT.

      /
      ****************************************************************
      *  THE FOLLOWING PARAGRAPH WILL HANDLE END OF PROGRAM PROCESSING
      ****************************************************************

       9000-END-OF-PROGRAM-SECT SECTION.
       9000-010.

           MOVE 'PROGRAM STATUS' TO CONTROL-REPORT-DATA.
           MOVE '-'              TO CONTROL-REPORT-CC.
           PERFORM 8000-WRITE-CONTROL-REPORT THRU 8000-EXIT.

           PERFORM 9200-PUBLISH-STATISTICS THRU 9200-EXIT.
           COPY PDTIMEC2.
           MOVE TIME-HHMMSS TO PRE-EDIT-TIME.                           00010000

           STRING   'PROGRAM HAS BEEN SUCCESSFULLY COMPLETED AT ',
                    TIME-HH, ':',
                    TIME-MM
                    DELIMITED BY SIZE INTO CONTROL-REPORT-DATA.
           MOVE '-'  TO CONTROL-REPORT-CC.
           PERFORM 8000-WRITE-CONTROL-REPORT THRU 8000-EXIT.

           MOVE    1 TO WS-PHASE.
           PERFORM 9300-PUBLISH-CTRL-RPT-ARRAYS THRU 9300-EXIT.

           MOVE ALL 'END OF REPORT ' TO CONTROL-REPORT-DATA.
           MOVE '-'                  TO CONTROL-REPORT-CC.
           PERFORM 8000-WRITE-CONTROL-REPORT THRU 8000-EXIT.

           MOVE  'O'    TO WS-RPT-PRINTED.
           MOVE  '0'    TO WS-CONTROL-PAGE-CNT.

           MOVE    2 TO WS-PHASE.
           PERFORM 9300-PUBLISH-CTRL-RPT-ARRAYS THRU 9300-EXIT.

           MOVE ALL 'END OF REPORT ' TO CONTROL-REPORT-DATA.
           MOVE '-'                  TO CONTROL-REPORT-CC.
           PERFORM 8000-WRITE-CONTROL-REPORT THRU 8000-EXIT.

            CLOSE CONTROL-FILE
                  EXPENDITURE-EXTR-FILE
                  EXPENDITURE-SUMM-FILE
                  CONTROL-RPT-INPUT-FILE
                  CONTROL-RPT-OUTPUT-FILE.

       9000-EXIT.
           EXIT.

      ************************
       9200-PUBLISH-STATISTICS.

           MOVE  'PROCESS STATISTICS' TO CONTROL-REPORT-DATA.
           MOVE  '-'                  TO CONTROL-REPORT-CC.
           PERFORM 8000-WRITE-CONTROL-REPORT THRU 8000-EXIT.

           STRING 'TOTAL EXPENDITURE RECORDS READ...................: ',
                  WS-EXPEND-REC-READ
                  DELIMITED BY SIZE INTO CONTROL-REPORT-DATA.
           MOVE  '0'                  TO CONTROL-REPORT-CC.
           PERFORM 8000-WRITE-CONTROL-REPORT THRU 8000-EXIT.

           STRING 'TOTAL EXPENDITURE RECORDS WRITTEN................: ',
                  WS-EXPEND-REC-WRT
                  DELIMITED BY SIZE INTO CONTROL-REPORT-DATA.
           MOVE  '0'                  TO CONTROL-REPORT-CC.
           PERFORM 8000-WRITE-CONTROL-REPORT THRU 8000-EXIT.

       9200-EXIT.
           EXIT.

      ******************************************************************
      *  THE FOLLOWING PARAGRAPH WILL PUBLISH CONTROL REPORT.
      ******************************************************************
      *-----------------------------------------------------------------
           COPY CFSP9300.
      *-----------------------------------------------------------------
           COPY CFSP9400.
      *-----------------------------------------------------------------
           COPY CFSP9500.
      *-----------------------------------------------------------------
      * THIS PARAGRAPH WILL CAUSE THE PROGRAM TO ABORT DUE TO AN IDMS
      * ERROR.
      *-----------------------------------------------------------------

      *COPY IDMS IDMS-STATUS.

      *-----------------------------------------------------------------
      * THIS PARAGRAPH WILL BE PERFORMED WHEN THE PROGRAM IS ABOUT
      * TO ABORT DUE AN IDMS ERROR.
      *-----------------------------------------------------------------

       IDMS-ABORT SECTION.

           DISPLAY 'PROGRAM UGAX525 ABORTING'.

       IDMS-ABORT-EXIT.
           EXIT.

      /
      *%-------------------------------------------------------------- *
      *%                                                               *
      *%                   900-START-SUBROUTINES                       *
      *%                                                               *
      *%-------------------------------------------------------------- *
       900-START-SUBROUTINES SECTION.
      *    CONVERT/DB SUBROUTINES FOLLOW
       900-START-SUBROUTINES-EXIT.
           EXIT.

      /
      *%-------------------------------------------------------------- *
      *%                                                               *
      *%                 906-05-R4000-COA ROUTINE                      *
      *%                                                               *
      *%-------------------------------------------------------------- *
       906-05-R4000-COA.
           MOVE '906-05-R4000-COA' TO DBLINK-CURR-PARAGRAPH.
           MOVE 'R4000-COA' TO ERROR-RECORD.
           MOVE ZERO TO ERROR-STATUS.
           EXEC SQL
               SELECT
                  USER_CD
                 ,LAST_ACTVY_DT
                 ,UNVRS_CD
                 ,COA_CD
                 ,ACTVY_DT
               INTO
                  :COA-USER-CD
                 ,:COA-LAST-ACTVY-DT
                 ,:COA-UNVRS-CD
                 ,:COA-COA-CD
                 ,:COA-ACTVY-DT
               FROM COA_COA_V
               WHERE UNVRS_CD = :COA-UNVRS-CD
                 AND COA_CD = :COA-COA-CD
           END-EXEC.
           IF SQLCODE = +100
               EVALUATE DBLINK-TYPE-GET
                   WHEN DBLINK-CALC
                       MOVE DBLINK-NOT-FOUND TO ERROR-STATUS
                   WHEN DBLINK-CURR
                       MOVE DBLINK-NO-CURRENCY TO ERROR-STATUS
                   WHEN DBLINK-DBKEY
                       MOVE DBLINK-DBKEY-ERROR TO ERROR-STATUS
                   WHEN OTHER
                       MOVE DBLINK-DB2-ERROR TO ERROR-STATUS
               END-EVALUATE
               GO TO 906-05-R4000-COA-EXIT
           END-IF.
           IF SQLCODE NOT = 0
               MOVE DBLINK-DB2-ERROR TO ERROR-STATUS
               GO TO 906-05-R4000-COA-EXIT
           END-IF.
           MOVE DBLINK-R4000-COA TO DBLINK-RECORD-MADE-CURRENT.
           MOVE ' ' TO DBLINK-SET-NAME-WORK.
           MOVE ' ' TO DBLINK-CURSOR-NAME-WORK.
           PERFORM 985-CURR-R4000-COA
              THRU 985-CURR-R4000-COA-EXIT.
           IF ERROR-STATUS = DBLINK-DB2-ERROR
               GO TO 906-05-R4000-COA-EXIT
           END-IF.
           IF DBLINK-TYPE-SELECT = 'O'
               PERFORM 975-TO-R4000-COA
                  THRU 975-TO-R4000-COA-EXIT
           END-IF.
       906-05-R4000-COA-EXIT.
           EXIT.
      /
      *%-------------------------------------------------------------- *
      *%                                                               *
      *%              906-05-R4024-FSCL-YEAR ROUTINE                   *
      *%                                                               *
      *%-------------------------------------------------------------- *
       906-05-R4024-FSCL-YEAR.
           MOVE '906-05-R4024-FSCL-YEAR' TO DBLINK-CURR-PARAGRAPH.
           MOVE 'R4024-FSCL-YEAR' TO ERROR-RECORD.
           MOVE ZERO TO ERROR-STATUS.
           EXEC SQL
               SELECT
                  USER_CD
                 ,LAST_ACTVY_DT
                 ,UNVRS_CD
                 ,COA_CD
                 ,FSCL_YR
                 ,ACTVY_DT
                 ,NBR_OF_PRDS
                 ,FSCL_YR_START_DT
                 ,FSCL_YR_END_DT
                 ,PRD_STATUS_01
                 ,PRD_STATUS_02
                 ,PRD_STATUS_03
                 ,PRD_STATUS_04
                 ,PRD_STATUS_05
                 ,PRD_STATUS_06
                 ,PRD_STATUS_07
                 ,PRD_STATUS_08
                 ,PRD_STATUS_09
                 ,PRD_STATUS_10
                 ,PRD_STATUS_11
                 ,PRD_STATUS_12
                 ,PRD_STATUS_13
                 ,PRD_START_DT_01
                 ,PRD_START_DT_02
                 ,PRD_START_DT_03
                 ,PRD_START_DT_04
                 ,PRD_START_DT_05
                 ,PRD_START_DT_06
                 ,PRD_START_DT_07
                 ,PRD_START_DT_08
                 ,PRD_START_DT_09
                 ,PRD_START_DT_10
                 ,PRD_START_DT_11
                 ,PRD_START_DT_12
                 ,PRD_START_DT_13
                 ,PRD_END_DT_01
                 ,PRD_END_DT_02
                 ,PRD_END_DT_03
                 ,PRD_END_DT_04
                 ,PRD_END_DT_05
                 ,PRD_END_DT_06
                 ,PRD_END_DT_07
                 ,PRD_END_DT_08
                 ,PRD_END_DT_09
                 ,PRD_END_DT_10
                 ,PRD_END_DT_11
                 ,PRD_END_DT_12
                 ,PRD_END_DT_13
                 ,END_OF_QTR_IND_01
                 ,END_OF_QTR_IND_02
                 ,END_OF_QTR_IND_03
                 ,END_OF_QTR_IND_04
                 ,END_OF_QTR_IND_05
                 ,END_OF_QTR_IND_06
                 ,END_OF_QTR_IND_07
                 ,END_OF_QTR_IND_08
                 ,END_OF_QTR_IND_09
                 ,END_OF_QTR_IND_10
                 ,END_OF_QTR_IND_11
                 ,END_OF_QTR_IND_12
                 ,END_OF_QTR_IND_13
                 ,ACRL_PRD_STATUS
                 ,BEG_PURGE_FLAG
                 ,PRD_PRG_FLAG_01
                 ,PRD_PRG_FLAG_02
                 ,PRD_PRG_FLAG_03
                 ,PRD_PRG_FLAG_04
                 ,PRD_PRG_FLAG_05
                 ,PRD_PRG_FLAG_06
                 ,PRD_PRG_FLAG_07
                 ,PRD_PRG_FLAG_08
                 ,PRD_PRG_FLAG_09
                 ,PRD_PRG_FLAG_10
                 ,PRD_PRG_FLAG_11
                 ,PRD_PRG_FLAG_12
                 ,PRD_PRG_FLAG_13
                 ,PRD_PRG_FLAG_14
               INTO
                  :FLY-USER-CD
                 ,:FLY-LAST-ACTVY-DT
                 ,:FLY-UNVRS-CD
                 ,:FLY-COA-CD
                 ,:FLY-FSCL-YR
                 ,:FLY-ACTVY-DT
                 ,:FLY-NBR-OF-PRDS
                 ,:FLY-FSCL-YR-START-DT
                 ,:FLY-FSCL-YR-END-DT
                 ,:FLY-PRD-STATUS-01
                 ,:FLY-PRD-STATUS-02
                 ,:FLY-PRD-STATUS-03
                 ,:FLY-PRD-STATUS-04
                 ,:FLY-PRD-STATUS-05
                 ,:FLY-PRD-STATUS-06
                 ,:FLY-PRD-STATUS-07
                 ,:FLY-PRD-STATUS-08
                 ,:FLY-PRD-STATUS-09
                 ,:FLY-PRD-STATUS-10
                 ,:FLY-PRD-STATUS-11
                 ,:FLY-PRD-STATUS-12
                 ,:FLY-PRD-STATUS-13
                 ,:FLY-PRD-START-DT-01
                 ,:FLY-PRD-START-DT-02
                 ,:FLY-PRD-START-DT-03
                 ,:FLY-PRD-START-DT-04
                 ,:FLY-PRD-START-DT-05
                 ,:FLY-PRD-START-DT-06
                 ,:FLY-PRD-START-DT-07
                 ,:FLY-PRD-START-DT-08
                 ,:FLY-PRD-START-DT-09
                 ,:FLY-PRD-START-DT-10
                 ,:FLY-PRD-START-DT-11
                 ,:FLY-PRD-START-DT-12
                 ,:FLY-PRD-START-DT-13
                 ,:FLY-PRD-END-DT-01
                 ,:FLY-PRD-END-DT-02
                 ,:FLY-PRD-END-DT-03
                 ,:FLY-PRD-END-DT-04
                 ,:FLY-PRD-END-DT-05
                 ,:FLY-PRD-END-DT-06
                 ,:FLY-PRD-END-DT-07
                 ,:FLY-PRD-END-DT-08
                 ,:FLY-PRD-END-DT-09
                 ,:FLY-PRD-END-DT-10
                 ,:FLY-PRD-END-DT-11
                 ,:FLY-PRD-END-DT-12
                 ,:FLY-PRD-END-DT-13
                 ,:FLY-END-OF-QTR-IND-01
                 ,:FLY-END-OF-QTR-IND-02
                 ,:FLY-END-OF-QTR-IND-03
                 ,:FLY-END-OF-QTR-IND-04
                 ,:FLY-END-OF-QTR-IND-05
                 ,:FLY-END-OF-QTR-IND-06
                 ,:FLY-END-OF-QTR-IND-07
                 ,:FLY-END-OF-QTR-IND-08
                 ,:FLY-END-OF-QTR-IND-09
                 ,:FLY-END-OF-QTR-IND-10
                 ,:FLY-END-OF-QTR-IND-11
                 ,:FLY-END-OF-QTR-IND-12
                 ,:FLY-END-OF-QTR-IND-13
                 ,:FLY-ACRL-PRD-STATUS
                 ,:FLY-BEG-PURGE-FLAG
                 ,:FLY-PRD-PRG-FLAG-01
                 ,:FLY-PRD-PRG-FLAG-02
                 ,:FLY-PRD-PRG-FLAG-03
                 ,:FLY-PRD-PRG-FLAG-04
                 ,:FLY-PRD-PRG-FLAG-05
                 ,:FLY-PRD-PRG-FLAG-06
                 ,:FLY-PRD-PRG-FLAG-07
                 ,:FLY-PRD-PRG-FLAG-08
                 ,:FLY-PRD-PRG-FLAG-09
                 ,:FLY-PRD-PRG-FLAG-10
                 ,:FLY-PRD-PRG-FLAG-11
                 ,:FLY-PRD-PRG-FLAG-12
                 ,:FLY-PRD-PRG-FLAG-13
                 ,:FLY-PRD-PRG-FLAG-14
               FROM FLY_FSCL_YEAR_V
               WHERE FSCL_YR = :FLY-FSCL-YR
           END-EXEC.
           IF SQLCODE = +100
               EVALUATE DBLINK-TYPE-GET
                   WHEN DBLINK-CALC
                       MOVE DBLINK-NOT-FOUND TO ERROR-STATUS
                   WHEN DBLINK-CURR
                       MOVE DBLINK-NO-CURRENCY TO ERROR-STATUS
                   WHEN DBLINK-DBKEY
                       MOVE DBLINK-DBKEY-ERROR TO ERROR-STATUS
                   WHEN OTHER
                       MOVE DBLINK-DB2-ERROR TO ERROR-STATUS
               END-EVALUATE
               GO TO 906-05-R4024-FSCL-YEAR-EXIT
           END-IF.
           IF SQLCODE NOT = 0
               MOVE DBLINK-DB2-ERROR TO ERROR-STATUS
               GO TO 906-05-R4024-FSCL-YEAR-EXIT
           END-IF.
           MOVE DBLINK-R4024-FSCL-YEAR TO DBLINK-RECORD-MADE-CURRENT.
           MOVE ' ' TO DBLINK-SET-NAME-WORK.
           MOVE ' ' TO DBLINK-CURSOR-NAME-WORK.
           PERFORM 985-CURR-R4024-FSCL-YEAR
              THRU 985-CURR-R4024-FSCL-YEAR-EXIT.
           IF ERROR-STATUS = DBLINK-DB2-ERROR
               GO TO 906-05-R4024-FSCL-YEAR-EXIT
           END-IF.
           IF DBLINK-TYPE-SELECT = 'O'
               PERFORM 975-TO-R4024-FSCL-YEAR
                  THRU 975-TO-R4024-FSCL-YEAR-EXIT
           END-IF.
       906-05-R4024-FSCL-YEAR-EXIT.
           EXIT.
      /
      *%-------------------------------------------------------------- *
      *%                                                               *
      *%                906-05-R6001-UNVRS ROUTINE                     *
      *%                                                               *
      *%-------------------------------------------------------------- *
       906-05-R6001-UNVRS.
           MOVE '906-05-R6001-UNVRS' TO DBLINK-CURR-PARAGRAPH.
           MOVE 'R6001-UNVRS' TO ERROR-RECORD.
           MOVE ZERO TO ERROR-STATUS.
           EXEC SQL
               SELECT
                  USER_CD
                 ,LAST_ACTVY_DT
                 ,UNVRS_CD
                 ,FICE_CD
                 ,SHORT_NAME
                 ,FULL_NAME
                 ,LINE_ADR_1
                 ,LINE_ADR_2
                 ,LINE_ADR_3
                 ,LINE_ADR_4
                 ,TLPHN_ID
                 ,CITY_NAME
                 ,STATE_CD
                 ,ZIP_CD
                 ,CNTRY_CD
                 ,FK_SYS_SYS_CD
                 ,SYS_SET_TS
               INTO
                  :UNV-USER-CD
                 ,:UNV-LAST-ACTVY-DT
                 ,:UNV-UNVRS-CD
                 ,:UNV-FICE-CD
                 ,:UNV-SHORT-NAME
                 ,:UNV-FULL-NAME
                 ,:UNV-LINE-ADR-1
                 ,:UNV-LINE-ADR-2
                 ,:UNV-LINE-ADR-3
                 ,:UNV-LINE-ADR-4
                 ,:UNV-TLPHN-ID
                 ,:UNV-CITY-NAME
                 ,:UNV-STATE-CD
                 ,:UNV-ZIP-CD
                 ,:UNV-CNTRY-CD
                 ,:UNV-FK-SYS-SYS-CD
                 ,:UNV-SYS-SET-TS
               FROM UNV_UNVRS_V
               WHERE UNVRS_CD = :UNV-UNVRS-CD
           END-EXEC.
           IF SQLCODE = +100
               EVALUATE DBLINK-TYPE-GET
                   WHEN DBLINK-CALC
                       MOVE DBLINK-NOT-FOUND TO ERROR-STATUS
                   WHEN DBLINK-CURR
                       MOVE DBLINK-NO-CURRENCY TO ERROR-STATUS
                   WHEN DBLINK-DBKEY
                       MOVE DBLINK-DBKEY-ERROR TO ERROR-STATUS
                   WHEN OTHER
                       MOVE DBLINK-DB2-ERROR TO ERROR-STATUS
               END-EVALUATE
               GO TO 906-05-R6001-UNVRS-EXIT
           END-IF.
           IF SQLCODE NOT = 0
               MOVE DBLINK-DB2-ERROR TO ERROR-STATUS
               GO TO 906-05-R6001-UNVRS-EXIT
           END-IF.
           MOVE DBLINK-R6001-UNVRS TO DBLINK-RECORD-MADE-CURRENT.
           MOVE ' ' TO DBLINK-SET-NAME-WORK.
           MOVE ' ' TO DBLINK-CURSOR-NAME-WORK.
           PERFORM 985-CURR-R6001-UNVRS
              THRU 985-CURR-R6001-UNVRS-EXIT.
           IF ERROR-STATUS = DBLINK-DB2-ERROR
               GO TO 906-05-R6001-UNVRS-EXIT
           END-IF.
           IF DBLINK-TYPE-SELECT = 'O'
               PERFORM 975-TO-R6001-UNVRS
                  THRU 975-TO-R6001-UNVRS-EXIT
           END-IF.
       906-05-R6001-UNVRS-EXIT.
           EXIT.

      *%****************************** *
      *% 975-TO-R6001-UNVRS ROUTINE
      *%****************************** *
      *%   COPY CB756001.
CPYNME     COPY HVIDUNV.

      *%****************************** *
      *% 975-TO-R4000-COA ROUTINE
      *%****************************** *
      *%   COPY CB754000.
CPYNME     COPY HVIDCOA.

      *%****************************** *
      *% 975-TO-R4024-FSCL-YEAR ROUTINE
      *%****************************** *
      *%   COPY CB754024.
CPYNME     COPY HVIDFLY.

      *%****************************** *
      *% 976-FROM-R6001-UNVRS ROUTINE
      *%****************************** *
      *%   COPY CB766001.
CPYNME     COPY IDHVUNV.

      *%****************************** *
      *% 976-FROM-R4000-COA ROUTINE
      *%****************************** *
      *%   COPY CB764000.
CPYNME     COPY IDHVCOA.

      *%****************************** *
      *% 976-FROM-R4024-FSCL-YEAR ROUTINE
      *%****************************** *
      *%   COPY CB764024.
CPYNME     COPY IDHVFLY.
      /
      *%-------------------------------------------------------------- *
      *%                                                               *
      *%                985-CURR-R4000-COA ROUTINE                     *
      *%                                                               *
      *%-------------------------------------------------------------- *
       985-CURR-R4000-COA.
           MOVE '985-CURR-R4000-COA' TO DBLINK-CURR-PARAGRAPH.

      *%****************************** *
      *%INITIALIZE DBLINK SUBSCHEMA-CTRL
      *%****************************** *
           MOVE ZERO TO ERROR-STATUS.
           MOVE SPACES TO ERROR-AREA.
           MOVE SPACES TO ERROR-SET.
           MOVE SPACES TO ERROR-RECORD.
           MOVE 'R4000-COA' TO RECORD-NAME.
           MOVE 'F-CTRL' TO AREA-NAME.

      *%****************************** *
      *%CLOSE ALL RECORD-RELATED CURSORS
      *%****************************** *
           MOVE DBLINK-R4000-COA TO DBLINK-RECORD-MADE-CURRENT.
           MOVE ' ' TO DBLINK-CURSOR-NAME-WORK.
           IF ERROR-STATUS = DBLINK-DB2-ERROR
               GO TO 985-CURR-R4000-COA-EXIT
           END-IF.
           MOVE ' ' TO DBLINK-RECORD-MADE-CURRENT.

      *%****************************** *
      *%SET RECORD KEY
      *%****************************** *
           IF DBLINK-TYPE-GET NOT = DBLINK-CURR
               MOVE COA-UNVRS-CD TO DBLINK-R4000-COA-01
               MOVE COA-COA-CD TO DBLINK-R4000-COA-02
           END-IF.

      *%****************************** *
      *%SET CURRENT OF RUN-UNIT
      *%****************************** *
           MOVE DBLINK-R4000-COA TO DBLINK-VIEW-NAME-CURRENT.
           MOVE DBLINK-R4000-COA-KEY TO DBLINK-VIEW-200-CURRENT.

      *%****************************** *
      *%SET KEYS FOR SETS WHICH RECORD OWNS
      *%****************************** *

      *%****************************** *
      *%SET KEYS FOR SETS IN WHICH RECORD IS MEMBER
      *%****************************** *
       985-CURR-R4000-COA-EXIT.
           EXIT.
      /
      *%-------------------------------------------------------------- *
      *%                                                               *
      *%             985-CURR-R4024-FSCL-YEAR ROUTINE                  *
      *%                                                               *
      *%-------------------------------------------------------------- *
       985-CURR-R4024-FSCL-YEAR.
           MOVE '985-CURR-R4024-FSCL-YEAR' TO DBLINK-CURR-PARAGRAPH.

      *%****************************** *
      *%INITIALIZE DBLINK SUBSCHEMA-CTRL
      *%****************************** *
           MOVE ZERO TO ERROR-STATUS.
           MOVE SPACES TO ERROR-AREA.
           MOVE SPACES TO ERROR-SET.
           MOVE SPACES TO ERROR-RECORD.
           MOVE 'R4024-FSCL-YEAR' TO RECORD-NAME.
           MOVE 'F-CTRL' TO AREA-NAME.

      *%****************************** *
      *%CLOSE ALL RECORD-RELATED CURSORS
      *%****************************** *
           MOVE DBLINK-R4024-FSCL-YEAR TO DBLINK-RECORD-MADE-CURRENT.
           MOVE ' ' TO DBLINK-CURSOR-NAME-WORK.
           IF ERROR-STATUS = DBLINK-DB2-ERROR
               GO TO 985-CURR-R4024-FSCL-YEAR-EXIT
           END-IF.
           MOVE ' ' TO DBLINK-RECORD-MADE-CURRENT.

      *%****************************** *
      *%SET RECORD KEY
      *%****************************** *
           IF DBLINK-TYPE-GET NOT = DBLINK-CURR
               MOVE FLY-FSCL-YR TO DBLINK-R4024-FSCL-YEAR-01
           END-IF.

      *%****************************** *
      *%SET CURRENT OF RUN-UNIT
      *%****************************** *
           MOVE DBLINK-R4024-FSCL-YEAR TO DBLINK-VIEW-NAME-CURRENT.
           MOVE DBLINK-R4024-FSCL-YEAR-KEY TO DBLINK-VIEW-200-CURRENT.

      *%****************************** *
      *%SET KEYS FOR SETS WHICH RECORD OWNS
      *%****************************** *

      *%****************************** *
      *%SET KEYS FOR SETS IN WHICH RECORD IS MEMBER
      *%****************************** *
       985-CURR-R4024-FSCL-YEAR-EXIT.
           EXIT.
      /
      *%-------------------------------------------------------------- *
      *%                                                               *
      *%               985-CURR-R6001-UNVRS ROUTINE                    *
      *%                                                               *
      *%-------------------------------------------------------------- *
       985-CURR-R6001-UNVRS.
           MOVE '985-CURR-R6001-UNVRS' TO DBLINK-CURR-PARAGRAPH.

      *%****************************** *
      *%INITIALIZE DBLINK SUBSCHEMA-CTRL
      *%****************************** *
           MOVE ZERO TO ERROR-STATUS.
           MOVE SPACES TO ERROR-AREA.
           MOVE SPACES TO ERROR-SET.
           MOVE SPACES TO ERROR-RECORD.
           MOVE 'R6001-UNVRS' TO RECORD-NAME.
           MOVE 'F-OS' TO AREA-NAME.

      *%****************************** *
      *%CLOSE ALL RECORD-RELATED CURSORS
      *%****************************** *
           MOVE DBLINK-R6001-UNVRS TO DBLINK-RECORD-MADE-CURRENT.
           MOVE ' ' TO DBLINK-CURSOR-NAME-WORK.
           IF ERROR-STATUS = DBLINK-DB2-ERROR
               GO TO 985-CURR-R6001-UNVRS-EXIT
           END-IF.
           MOVE ' ' TO DBLINK-RECORD-MADE-CURRENT.

      *%****************************** *
      *%SET RECORD KEY
      *%****************************** *
           IF DBLINK-TYPE-GET NOT = DBLINK-CURR
               MOVE UNV-UNVRS-CD TO DBLINK-R6001-UNVRS-01
           END-IF.

      *%****************************** *
      *%SET CURRENT OF RUN-UNIT
      *%****************************** *
           MOVE DBLINK-R6001-UNVRS TO DBLINK-VIEW-NAME-CURRENT.
           MOVE DBLINK-R6001-UNVRS-KEY TO DBLINK-VIEW-200-CURRENT.

      *%****************************** *
      *%SET KEYS FOR SETS WHICH RECORD OWNS
      *%****************************** *

      *%****************************** *
      *%SET KEYS FOR SETS IN WHICH RECORD IS MEMBER
      *%****************************** *
       985-CURR-R6001-UNVRS-EXIT.
           EXIT.
      /
      *%-------------------------------------------------------------- *
      *%                                                               *
      *%                  986-RESET-KEYS ROUTINE                       *
      *%                                                               *
      *%-------------------------------------------------------------- *
       986-RESET-KEYS.
           MOVE '986-RESET-KEYS' TO DBLINK-CURR-PARAGRAPH.
           MOVE SPACES TO DBLINK-RECORD-KEYS.
           MOVE LOW-VALUES TO DBLINK-SET-KEYS.
       986-RESET-KEYS-EXIT.
           EXIT.
      /
      *%-------------------------------------------------------------- *
      *%                                                               *
      *%                 991-CLOSE-CURSORS ROUTINE                     *
      *%                                                               *
      *%-------------------------------------------------------------- *
       991-CLOSE-CURSORS.
       991-CLOSE-CURSORS-EXIT.
           EXIT.
      /
      *%-------------------------------------------------------------- *
      *%                                                               *
      *%                    996-COMMIT ROUTINE                         *
      *%                                                               *
      *%-------------------------------------------------------------- *
       996-COMMIT.
           MOVE '996-COMMIT' TO DBLINK-CURR-PARAGRAPH.
           EXEC SQL
               COMMIT WORK
           END-EXEC.
       996-COMMIT-EXIT.
           EXIT.
      /
      *%-------------------------------------------------------------- *
      *%                                                               *
      *%                  999-SQL-STATUS ROUTINE                       *
      *%                                                               *
      *%-------------------------------------------------------------- *
       999-SQL-STATUS.
           EXEC SQL
               INCLUDE BTCHERR
           END-EXEC.
       999-SQL-STATUS-EXIT.
           EXIT.

