       IDENTIFICATION DIVISION.
       PROGRAM-ID.    UPDVDR2.
      ******************************************************************
      *    TITLE ......... VENDOR TABLE ONE-TIME UPDATE PROCESS
      *    LANGUAGE ...... COBOL II / BATCH / DB2
      *    AUTHOR ........ M.RUSSELL
      *    DATE-WRITTEN .. APRIL, 2017
      *
      * 1. FUNCTION:
      *    THE PURPOSE OF THIS PROGRAM IS TO UPDATE TERMINATION (END)
      *    DATES ON THE VDR TABLE IDENTIFIED ON INPUT FILE
      *    "FIST.UPDVDR2.IN".
      *
      *
      * 2. FILES:
      *    INPUT:   INP1 INPUT FILE        (SEQ)
      *             VDR_VENDOR_V           (DB2)
      *
      *    OUTPUT:  OUT1 OUTPUT FILE       (SEQ)
      *             VDR_VENDOR_V           (DB2)
      *             TVL_TRVL_V             (DB2)
      *
      ******************************************************************
      /
       ENVIRONMENT DIVISION.
       INPUT-OUTPUT SECTION.
       FILE-CONTROL.
           SELECT INP1-FILE            ASSIGN INP1.
           SELECT OUT1-FILE            ASSIGN OUT1.
           SELECT CRPT-FILE            ASSIGN CNTLRPT.

       DATA DIVISION.
       FILE SECTION.

       FD  INP1-FILE
           RECORDING MODE F
           BLOCK CONTAINS 0 RECORDS
           LABEL RECORDS STANDARD.
       01  INP1-RECORD                 PIC X(80).

       FD  OUT1-FILE
           RECORDING MODE F
           BLOCK CONTAINS 0 RECORDS
           LABEL RECORDS STANDARD.
       01  OUT1-RECORD                 PIC X(100).

       FD  CRPT-FILE
           RECORDING MODE F
           BLOCK CONTAINS 0 RECORDS
           LABEL RECORDS OMITTED.
       01  CRPT-RECORD                 PIC X(132).
      /
       WORKING-STORAGE SECTION.
      ******************************************************************
      *    MISCELLANEOUS WORK AREAS
      ******************************************************************
       01  FILLER                      PIC X(36)       VALUE
           'UPDVDR2 WORKING-STORAGE BEGINS HERE'.

       01  WS-CONSTANTS.
           05  WS-THIS-PROGRAM         PIC X(08)       VALUE 'UPDVDR2'.

       01  WS-ABEND-AREA.
           05  WS-ABEND-PARAGRAPH      PIC X(30)       VALUE SPACES.
           05  WS-ABEND-SQL-NBR        PIC S9(4)       VALUE ZEROES.
           05  WS-ABEND-CODE           PIC -999        VALUE ZEROES.
           05  WS-SEQ-NBR              PIC 9(4)        VALUE ZEROES.
           05  WS-ITEM-NBR             PIC 9(4)        VALUE ZEROES.

       01  WS-MSG-AREA.
           05  WS-LOG-MSG.
               10 FILLER               PIC X(02)       VALUE '# '.
               10 WS-LOG-VENDOR        PIC X(09)       VALUE SPACES.
               10 FILLER               PIC X(25)       VALUE
                  ' UPDATED BY UPDVDR2   ON '.
               10 WS-LOG-DATE          PIC X(08)       VALUE SPACES.
           05  WS-END-DT-MSG.
               10 FILLER               PIC X(15)       VALUE
                  "END DATE FROM '".
               10 WS-END-DATE-FROM     PIC X(08)       VALUE SPACES.
               10 FILLER               PIC X(06)       VALUE
                  "' TO '".
               10 WS-END-DATE-TO       PIC X(08)       VALUE SPACES.
               10 FILLER               PIC X(01)       VALUE
                  "'".
           05  WS-STATUS-MSG.
               10 FILLER               PIC X(20)       VALUE
                  "SQ VDR STATUS FROM '".
               10 WS-STATUS-FROM       PIC X(01)       VALUE SPACES.
               10 FILLER               PIC X(06)       VALUE
                  "' TO '".
               10 WS-STATUS-TO         PIC X(01)       VALUE SPACES.
               10 FILLER               PIC X(01)       VALUE
                  "'".
           05  WS-ASTERISK-MSG.
               10 FILLER               PIC X(02)       VALUE
                  '* '.
               10 FILLER               PIC X(48)       VALUE SPACES.

       01  WS-DATE-AREA.
           05  WS-SYS-DATE.
               10  WS-SYS-DATE-CC      PIC 9(02)       VALUE ZEROES.
               10  WS-SYS-DATE-YYMMDD.
                   15  WS-SYS-DATE-YY  PIC 9(02)       VALUE ZEROES.
                   15  WS-SYS-DATE-MM  PIC 9(02)       VALUE ZEROES.
                   15  WS-SYS-DATE-DD  PIC 9(02)       VALUE ZEROES.
           05  WS-SYSTEM-DATE          REDEFINES WS-SYS-DATE
                                       PIC 9(08).
           05  WS-REF-DATE.
               10  WS-REF-DATE-CC      PIC X(02)       VALUE SPACES.
               10  WS-REF-DATE-YY      PIC X(02)       VALUE SPACES.
               10  FILLER              PIC X(01)       VALUE '-'.
               10  WS-REF-DATE-MM      PIC X(02)       VALUE SPACES.
               10  FILLER              PIC X(01)       VALUE '-'.
               10  WS-REF-DATE-DD      PIC X(02)       VALUE SPACES.
           05  WS-OUT-DATE.
               10  WS-OUT-DATE-MM      PIC X(02)       VALUE SPACES.
               10  FILLER              PIC X(01)       VALUE '/'.
               10  WS-OUT-DATE-DD      PIC X(02)       VALUE SPACES.
               10  FILLER              PIC X(01)       VALUE '/'.
               10  WS-OUT-DATE-YY      PIC X(02)       VALUE SPACES.
           05  WS-RPT-DATE.
               10  WS-RPT-DATE-MM      PIC X(02)       VALUE SPACES.
               10  FILLER              PIC X(01)       VALUE '/'.
               10  WS-RPT-DATE-DD      PIC X(02)       VALUE SPACES.
               10  FILLER              PIC X(01)       VALUE '/'.
               10  WS-RPT-DATE-YY      PIC X(02)       VALUE SPACES.

       01  WS-MISC-AREA.
           05  WS-PREV-VENDOR-ID       PIC X(09)       VALUE LOW-VALUES.
           05  WS-COMMIT-CTR           PIC 9(04) VALUE 0.               04300000
      /
      ******************************************************************
      *    INP1 INPUT RECORD AREA
      ******************************************************************
       01  INP1-COUNT                  PIC 9(08)       VALUE ZEROES.
       01  INP1-DUPL-COUNT             PIC 9(08)       VALUE ZEROES.
       01  INP1-AREA.
           05  INP1-VENDOR-ID          PIC X(09)       VALUE SPACES.
           05  FILLER                  PIC X(01)       VALUE SPACES.
           05  INP1-END-DT             PIC X(10)       VALUE SPACES.
           05  FILLER                  PIC X(01)       VALUE SPACES.
           05  INP1-VENDOR-STATUS      PIC X(01)       VALUE SPACES.
           05  FILLER                  PIC X(01)       VALUE SPACES.
           05  INP1-COMMENTS           PIC X(57)       VALUE SPACES.

      ******************************************************************
      *    OUT1 OUTPUT RECORD AREA
      ******************************************************************
       01  OUT1-COUNT                  PIC 9(08)       VALUE ZEROES.
       01  OUT1-AREA.
           05  OUT1-VENDOR-ID          PIC X(09)       VALUE SPACES.
           05  FILLER                  PIC X(01)       VALUE SPACES.
           05  OUT1-END-DT
                                       PIC X(10)       VALUE SPACES.
           05  FILLER                  PIC X(01)       VALUE SPACES.
           05  OUT1-OLD-END-DT
                                       PIC X(10)       VALUE SPACES.
           05  FILLER                  PIC X(01)       VALUE SPACES.
           05  OUT1-STATUS             PIC X(01)       VALUE SPACES.
           05  FILLER                  PIC X(01)       VALUE SPACES.
           05  OUT1-OLD-STATUS         PIC X(01)       VALUE SPACES.
           05  FILLER                  PIC X(01)       VALUE SPACES.
           05  OUT1-MESSAGE            PIC X(57)       VALUE SPACES.
           05  FILLER                  PIC X(07)       VALUE SPACES.
      /
      ******************************************************************
      *    CONTROL REPORT AREA
      ******************************************************************
       01  DATE-CONV-COB2.             COPY WSDATEC2.

       01  TIME-CONV-COB2.             COPY WSTIMEC2.

       01  WHEN-COMP-CONV.             COPY WHENCMC2.

       01  CRPT-COUNTERS.
           05  CRPT-PAGE-COUNT         PIC 9(03)       VALUE ZEROES.
           05  CRPT-LINE-COUNT         PIC 9(03)       VALUE 99.

       01  CRPT-HEADING-1.
           05  FILLER                  PIC X(08)       VALUE 'UPDVDR2'.
           05  FILLER                  PIC X(40)       VALUE SPACES.
           05  FILLER                  PIC X(35)       VALUE
               'UNIVERSITY OF CALIFORNIA, SAN DIEGO'.
           05  FILLER                  PIC X(35)       VALUE SPACES.
           05  CRPT-PAGE               PIC Z(04)       VALUE ZEROES.
           05  FILLER                  PIC X(10)       VALUE SPACES.

       01  CRPT-HEADING-2.
           05  FILLER                  PIC X(07)       VALUE 'RUN ON'.
           05  CRPT-RUN-DATE           PIC X(08)       VALUE SPACES.
           05  FILLER                  PIC X(04)       VALUE ' AT'.
           05  CRPT-RUN-TIME.
               10  CRPT-RUN-TIME-HH    PIC 9(02)       VALUE ZEROES.
               10  FILLER              PIC X(01)       VALUE ':'.
               10  CRPT-RUN-TIME-MM    PIC 9(02)       VALUE ZEROES.
               10  FILLER              PIC X(01)       VALUE ':'.
               10  CRPT-RUN-TIME-SS    PIC 9(02)       VALUE ZEROES.
           05  FILLER                  PIC X(27)       VALUE SPACES.
           05  FILLER                  PIC X(78)       VALUE
               'UPDATE VDR TERMINATION DATES             '.

       01  CRPT-HEADING-3.
           05  FILLER                  PIC X(59)       VALUE SPACES.
           05  FILLER                  PIC X(14)       VALUE
               'CONTROL REPORT'.
           05  FILLER                  PIC X(59)       VALUE SPACES.

       01  CRPT-DTL-LINE-1             PIC X(132)      VALUE SPACES.
      /
      ******************************************************************
      *    DB2 ERROR HANDLING WORK AREA
      ******************************************************************

           EXEC SQL INCLUDE DB2ERRBW
           END-EXEC.
      /
      ******************************************************************
      *    SQL AREA AND TABLE DB2 TABLE DCLGENS
      ******************************************************************

           EXEC SQL INCLUDE SQLCA
           END-EXEC.
      /
       01  VDR-VENDOR-SQLAREA.
           05  FILLER                  PIC X(04)       VALUE 'VDR*'.
           05  VDR-SEL-COUNT           PIC 9(08)       VALUE ZEROES.
           05  VDR-NOTFND-COUNT        PIC 9(08)       VALUE ZEROES.
           05  VDR-NOCHNG-COUNT        PIC 9(08)       VALUE ZEROES.
           05  VDR-UPD-COUNT           PIC 9(08)       VALUE ZEROES.
           05  VDR-SQLCODE             PIC S9(9)       COMP-4
                                                       VALUE +0.
           EXEC SQL INCLUDE HVVDR
           END-EXEC.
      /
       01  TVL-TRAVEL-SQLAREA.
           05  FILLER                  PIC X(04)       VALUE 'TVL*'.
           05  TVL-SEL-COUNT           PIC 9(08)       VALUE ZEROES.
           05  TVL-NOTFND-COUNT        PIC 9(08)       VALUE ZEROES.
           05  TVL-NOCHNG-COUNT        PIC 9(08)       VALUE ZEROES.
           05  TVL-UPD-COUNT           PIC 9(08)       VALUE ZEROES.
           05  TVL-SQLCODE             PIC S9(9)       COMP-4
                                                       VALUE +0.
           EXEC SQL INCLUDE HVTVL
           END-EXEC.
      /
       01  TXH-TEXT-HDR-SQLAREA.
           05  FILLER                  PIC X(04)       VALUE 'TXH*'.
           05  TXH-SEL-COUNT           PIC 9(08)       VALUE ZEROES.
           05  TXH-INS-COUNT           PIC 9(08)       VALUE ZEROES.
           05  TXH-NOTFND-COUNT        PIC 9(08)       VALUE ZEROES.
           05  TXH-NOCHNG-COUNT        PIC 9(08)       VALUE ZEROES.
           05  TXH-UPD-COUNT           PIC 9(08)       VALUE ZEROES.
           05  TXH-SQLCODE             PIC S9(9)       COMP-4
                                                       VALUE +0.
           EXEC SQL INCLUDE HVTXH
           END-EXEC.
      /
       01  TXD-TEXT-DTL-SQLAREA.
           05  FILLER                  PIC X(04)       VALUE 'TXD*'.
           05  TXD-SEL-COUNT           PIC 9(08)       VALUE ZEROES.
           05  TXD-NOTFND-COUNT        PIC 9(08)       VALUE ZEROES.
           05  TXD-NOCHNG-COUNT        PIC 9(08)       VALUE ZEROES.
           05  TXD-UPD-COUNT           PIC 9(08)       VALUE ZEROES.
           05  TXD-INS-COUNT           PIC 9(08)       VALUE ZEROES.
           05  TXD-SQLCODE             PIC S9(9)       COMP-4
                                                       VALUE +0.
           EXEC SQL INCLUDE HVTXD
           END-EXEC.
      /
       PROCEDURE DIVISION.
      /
       A0000-MAINLINE.

      ******************************************************************
      *    PERFORM THE PROGRAM'S MAINLINE FUNCTIONS.
      ******************************************************************

           PERFORM A1000-INITIALIZATION.

           PERFORM B1000-MAIN-PROCESS.

           PERFORM A8000-FINALIZATION.

           GOBACK.
      /
       A1000-INITIALIZATION.
      ******************************************************************
      *    OPEN FILES AND INITIALIZE WORKING STORAGE AREAS.
      ******************************************************************

           MOVE 'A1000-INITIALIZATION' TO WS-ABEND-PARAGRAPH.

           DISPLAY '>>>>  UPDVDR2 STARTING  <<<<'.

           OPEN INPUT  INP1-FILE
                OUTPUT OUT1-FILE
                       CRPT-FILE.

           MOVE FUNCTION CURRENT-DATE(1:8)
                                       TO WS-SYS-DATE.
           MOVE WS-SYS-DATE-YY         TO WS-RPT-DATE-YY.
           MOVE WS-SYS-DATE-MM         TO WS-RPT-DATE-MM.
           MOVE WS-SYS-DATE-DD         TO WS-RPT-DATE-DD.
           MOVE WS-RPT-DATE            TO CRPT-RUN-DATE.

           COPY PDTIMEC2.

           MOVE TIME-HH                TO CRPT-RUN-TIME-HH.
           MOVE TIME-MM                TO CRPT-RUN-TIME-MM.
           MOVE TIME-SS                TO CRPT-RUN-TIME-SS.

           MOVE WHEN-COMPILED          TO COMPILED-DATA.
           INSPECT COMPILED-DATA-TIME
                   REPLACING ALL '.' BY ':'.
           STRING 'PROGRAM COMPILED '     COMPILED-DATA-DATE
                  ' AT '                  COMPILED-DATA-TIME
                   DELIMITED BY SIZE INTO CRPT-DTL-LINE-1.

           PERFORM A9000-PRINT-CRPT-DETAIL.
      /
       A8000-FINALIZATION.
      ******************************************************************
      *    REPORT/DISPLAY FINAL TOTALS AND CLOSE FILES.
      ******************************************************************

           MOVE 'A8000-FINALIZATION'   TO WS-ABEND-PARAGRAPH.

           COPY PDTIMEC2.

           MOVE 'PROGRAM STATUS'       TO CRPT-DTL-LINE-1.
           PERFORM A9000-PRINT-CRPT-DETAIL.

           STRING 'NBR OF INPUT RECORDS READ        =>  '
                   INP1-COUNT
                   DELIMITED BY SIZE INTO CRPT-DTL-LINE-1.
           PERFORM A9000-PRINT-CRPT-DETAIL.

           STRING 'NBR OF DUPLICATE VENDOR IDS      =>  '
                   INP1-DUPL-COUNT
                   DELIMITED BY SIZE INTO CRPT-DTL-LINE-1.
           PERFORM A9000-PRINT-CRPT-DETAIL.

           STRING 'NBR OF VDR ROWS SELECTED         =>  '
                   VDR-SEL-COUNT
                   DELIMITED BY SIZE INTO CRPT-DTL-LINE-1.
           PERFORM A9000-PRINT-CRPT-DETAIL.

           STRING 'NBR OF VENDOR IDS NOT FOUND      =>  '
                   VDR-NOTFND-COUNT
                   DELIMITED BY SIZE INTO CRPT-DTL-LINE-1.
           PERFORM A9000-PRINT-CRPT-DETAIL.

           STRING 'NBR OF RECORDS NOT CHANGED       =>  '
                   VDR-NOCHNG-COUNT
                   DELIMITED BY SIZE INTO CRPT-DTL-LINE-1.
           PERFORM A9000-PRINT-CRPT-DETAIL.

           STRING 'NBR OF VDR ROWS UPDATED          =>  '
                   VDR-UPD-COUNT
                   DELIMITED BY SIZE INTO CRPT-DTL-LINE-1.
           PERFORM A9000-PRINT-CRPT-DETAIL.

           STRING 'NBR OF TVL ROWS UPDATED          =>  '
                   TVL-UPD-COUNT
                   DELIMITED BY SIZE INTO CRPT-DTL-LINE-1.
           PERFORM A9000-PRINT-CRPT-DETAIL.

           STRING 'NBR OF TRAVEL IDS NOT FOUND      =>  '
                   TVL-NOTFND-COUNT
                   DELIMITED BY SIZE INTO CRPT-DTL-LINE-1.
           PERFORM A9000-PRINT-CRPT-DETAIL.

           STRING 'NBR OF OUTPUT RECORDS WRITTEN    =>  '
                   OUT1-COUNT
                   DELIMITED BY SIZE INTO CRPT-DTL-LINE-1.
           PERFORM A9000-PRINT-CRPT-DETAIL.

           STRING 'PROGRAM HAS BEEN SUCCESSFULLY COMPLETED AT '
                   TIME-HH ':' TIME-MM
                   DELIMITED BY SIZE INTO CRPT-DTL-LINE-1.
           PERFORM A9000-PRINT-CRPT-DETAIL.

           MOVE ALL 'END OF REPORT '   TO CRPT-DTL-LINE-1.
           PERFORM A9000-PRINT-CRPT-DETAIL.

           CLOSE INP1-FILE
                 OUT1-FILE
                 CRPT-FILE.

           DISPLAY '>>>>  UPDVDR2 FINISHED  <<<<'.
      /
       A9000-PRINT-CRPT-DETAIL.
      ******************************************************************
      *    WRITE CONTROL REPORT DETAIL LINE.
      ******************************************************************

           MOVE 'A9000-PRINT-CRPT-DETAIL' TO WS-ABEND-PARAGRAPH.

           IF CRPT-LINE-COUNT > 55
               PERFORM A9500-PRINT-CRPT-HEADING
           END-IF.

           WRITE CRPT-RECORD         FROM CRPT-DTL-LINE-1
                                    AFTER ADVANCING 2.

           MOVE SPACES                 TO CRPT-DTL-LINE-1.
           ADD  2                      TO CRPT-LINE-COUNT.


       A9500-PRINT-CRPT-HEADING.
      ******************************************************************
      *    WRITE CONTROL REPORT PAGE HEADINGS.
      ******************************************************************

           MOVE 'A9500-PRINT-CRPT-HEADING' TO WS-ABEND-PARAGRAPH.

           ADD  1                      TO CRPT-PAGE-COUNT.
           MOVE CRPT-PAGE-COUNT        TO CRPT-PAGE.

           WRITE CRPT-RECORD         FROM CRPT-HEADING-1
                                    AFTER ADVANCING PAGE.
           WRITE CRPT-RECORD         FROM CRPT-HEADING-2
                                    AFTER ADVANCING 1.
           WRITE CRPT-RECORD         FROM CRPT-HEADING-3
                                    AFTER ADVANCING 1.

           MOVE 3                      TO CRPT-LINE-COUNT.
      /
       B1000-MAIN-PROCESS.
      ******************************************************************
      *    READ THE INP1 INPUT FILE PARAMETER RECORD.
      *    PROCESS THE INP1 FILE UNTIL END OF FILE.
      ******************************************************************

           MOVE 'B1000-MAIN-PROCESS'   TO WS-ABEND-PARAGRAPH.

           PERFORM B1100-READ-INP1-FILE.

           PERFORM B2000-PROCESS-INP1 THRU B2000-EXIT
               UNTIL INP1-VENDOR-ID = HIGH-VALUES.


       B1100-READ-INP1-FILE.
      ******************************************************************
      *    READ THE INP1 INPUT FILE.
      ******************************************************************

           MOVE 'B1100-READ-INP1-FILE' TO WS-ABEND-PARAGRAPH.

           READ INP1-FILE            INTO INP1-AREA
             AT END
               MOVE HIGH-VALUES        TO INP1-AREA
             NOT AT END
               ADD  1                  TO INP1-COUNT
           END-READ.
      /
       B2000-PROCESS-INP1.
      ******************************************************************
      *    PROCESS EACH INP1 RECORD TO UPDATE THE VDR TABLE.
      ******************************************************************

           MOVE 'B2000-PROCESS-INP1'   TO WS-ABEND-PARAGRAPH.

           MOVE INP1-VENDOR-ID         TO OUT1-VENDOR-ID.
           MOVE INP1-END-DT            TO OUT1-END-DT.
           MOVE SPACES                 TO OUT1-OLD-END-DT.
           MOVE SPACES                 TO OUT1-STATUS.
           MOVE SPACES                 TO OUT1-MESSAGE.

           IF INP1-VENDOR-ID = WS-PREV-VENDOR-ID
               ADD 1                   TO INP1-DUPL-COUNT
               DISPLAY ' ** DUPLICATE VENDOR = '
                                              INP1-VENDOR-ID
               MOVE 'DUPLICATE VENDOR ID '
                                       TO OUT1-MESSAGE
               WRITE OUT1-RECORD       FROM OUT1-AREA
               ADD  1                  TO OUT1-COUNT

               PERFORM B1100-READ-INP1-FILE
               GO TO B2000-EXIT
           ELSE
               MOVE INP1-VENDOR-ID     TO WS-PREV-VENDOR-ID
           END-IF.

           MOVE SPACES                 TO VDR-VNDR-ID-DGT-ONE.
           MOVE INP1-VENDOR-ID         TO VDR-VNDR-ID-LST-NINE
           PERFORM S2000-SELECT-VDR.

           IF VDR-SQLCODE = +0
               MOVE VDR-SQ-VDR-STATUS  TO OUT1-OLD-STATUS
               IF INP1-VENDOR-STATUS NOT = SPACES
                  MOVE INP1-VENDOR-STATUS TO VDR-SQ-VDR-STATUS
                                             OUT1-STATUS
               ELSE
                  MOVE VDR-SQ-VDR-STATUS  TO OUT1-STATUS
               END-IF
               MOVE INP1-COMMENTS      TO OUT1-MESSAGE
               MOVE VDR-END-DT
                                       TO OUT1-OLD-END-DT

               IF INP1-END-DT          = VDR-END-DT
                   ADD 1               TO VDR-NOCHNG-COUNT
                   MOVE 'NO CHANGE FOUND '
                                       TO OUT1-MESSAGE
               ELSE
                   IF INP1-END-DT = SPACES
                      MOVE VDR-END-DT  TO INP1-END-DT
                                          OUT1-END-DT
                   END-IF
                   MOVE INP1-END-DT
                                       TO VDR-END-DT
                                          OUT1-END-DT
MATTR              DISPLAY 'UPDATING...'
MATTR              DISPLAY 'INP1-VENDOR-ID       : ', INP1-VENDOR-ID
MATTR              DISPLAY 'INP1-VENDOR-STATUS   : ', INP1-VENDOR-STATUS
MATTR              DISPLAY 'VDR-SQ-VDR-STATUS    : ', VDR-SQ-VDR-STATUS
MATTR              DISPLAY 'INP1-END-DT : ', INP1-END-DT
MATTR              DISPLAY 'VDR-END-DT  : ', VDR-END-DT
MATTR              DISPLAY 'INP1-COMMENTS: ', INP1-COMMENTS
MATTR              PERFORM S3000-UPDATE-VDR
MATTR              PERFORM S4000-UPDATE-TVL
MATTR              PERFORM S5000-SELECT-TXH
                   IF TXH-SQLCODE = 0
                             OR
                      TXH-SQLCODE = -811

                      INITIALIZE TXD-TXD-TXT-DTL

                      MOVE 'N'                TO TXD-PRINT-FLAG
                      MOVE TXH-DOC-TYP-SEQ-NBR TO TXD-FK-TXH-DOC-TYP-SEQ
                      MOVE TXH-TEXT-ENTY-CD   TO TXD-FK-TXH-TXT-ENTYCD
                      MOVE TXH-CHNG-SEQ-NBR   TO TXD-FK-TXH-CHG-SEQ-NBR
                      MOVE TXH-ITEM-NBR       TO TXD-FK-TXH-ITEM-NBR

                      MOVE INP1-VENDOR-ID     TO WS-LOG-VENDOR
                      MOVE WS-RPT-DATE        TO WS-LOG-DATE
                      MOVE SPACES             TO TXD-CMNT-TEXT
                      MOVE WS-LOG-MSG         TO TXD-CMNT-TEXT
                      PERFORM S7000-INSERT-TXD

                      IF OUT1-END-DT NOT = OUT1-OLD-END-DT
                                   AND
                         INP1-END-DT NOT = SPACES
                         MOVE OUT1-END-DT        TO WS-REF-DATE
                         MOVE WS-REF-DATE-MM     TO WS-OUT-DATE-MM
                         MOVE WS-REF-DATE-DD     TO WS-OUT-DATE-DD
                         MOVE WS-REF-DATE-YY     TO WS-OUT-DATE-YY
                         MOVE WS-OUT-DATE        TO WS-END-DATE-TO
                         MOVE OUT1-OLD-END-DT TO WS-REF-DATE
                         MOVE WS-REF-DATE-MM     TO WS-OUT-DATE-MM
                         MOVE WS-REF-DATE-DD     TO WS-OUT-DATE-DD
                         MOVE WS-REF-DATE-YY     TO WS-OUT-DATE-YY
                         MOVE WS-OUT-DATE        TO WS-END-DATE-FROM
                         MOVE SPACES             TO TXD-CMNT-TEXT
                         MOVE WS-END-DT-MSG      TO TXD-CMNT-TEXT
MATTR                    DISPLAY 'WS-END-DT-MSG: ', WS-END-DT-MSG
                         PERFORM S7000-INSERT-TXD
                      END-IF

                      IF INP1-VENDOR-STATUS NOT = SPACES
                                  AND
                         OUT1-STATUS NOT = OUT1-OLD-STATUS
                         MOVE OUT1-OLD-STATUS TO WS-STATUS-FROM
                         MOVE OUT1-STATUS        TO WS-STATUS-TO
                         MOVE SPACES             TO TXD-CMNT-TEXT
                         MOVE WS-STATUS-MSG      TO TXD-CMNT-TEXT
MATTR                    DISPLAY 'WS-STATUS-MSG: ', WS-STATUS-MSG
                         PERFORM S7000-INSERT-TXD
                      END-IF

                      MOVE SPACES             TO TXD-CMNT-TEXT
                      MOVE INP1-COMMENTS      TO TXD-CMNT-TEXT
                      PERFORM S7000-INSERT-TXD

                      MOVE SPACES             TO TXD-CMNT-TEXT
                      MOVE WS-ASTERISK-MSG TO TXD-CMNT-TEXT
                      PERFORM S7000-INSERT-TXD
                   ELSE
MATTR                 DISPLAY 'TXH NOT FOUND!'
                      PERFORM S8000-INSERT-TXH

                      INITIALIZE TXD-TXD-TXT-DTL

                      MOVE 'N'                TO TXD-PRINT-FLAG
                      MOVE TXH-DOC-TYP-SEQ-NBR TO TXD-FK-TXH-DOC-TYP-SEQ
                      MOVE TXH-TEXT-ENTY-CD   TO TXD-FK-TXH-TXT-ENTYCD
                      MOVE TXH-CHNG-SEQ-NBR   TO TXD-FK-TXH-CHG-SEQ-NBR
                      MOVE TXH-ITEM-NBR       TO TXD-FK-TXH-ITEM-NBR

                      MOVE INP1-VENDOR-ID     TO WS-LOG-VENDOR
                      MOVE WS-RPT-DATE        TO WS-LOG-DATE
                      MOVE SPACES             TO TXD-CMNT-TEXT
                      MOVE WS-LOG-MSG         TO TXD-CMNT-TEXT

                      PERFORM S7000-INSERT-TXD

                      IF OUT1-END-DT NOT = OUT1-OLD-END-DT
                                   AND
                         INP1-END-DT NOT = SPACES
                         MOVE OUT1-END-DT        TO WS-REF-DATE
                         MOVE WS-REF-DATE-MM     TO WS-OUT-DATE-MM
                         MOVE WS-REF-DATE-DD     TO WS-OUT-DATE-DD
                         MOVE WS-REF-DATE-YY     TO WS-OUT-DATE-YY
                         MOVE WS-OUT-DATE        TO WS-END-DATE-TO
                         MOVE OUT1-OLD-END-DT TO WS-REF-DATE
                         MOVE WS-REF-DATE-MM     TO WS-OUT-DATE-MM
                         MOVE WS-REF-DATE-DD     TO WS-OUT-DATE-DD
                         MOVE WS-REF-DATE-YY     TO WS-OUT-DATE-YY
                         MOVE WS-OUT-DATE        TO WS-END-DATE-FROM
                         MOVE SPACES             TO TXD-CMNT-TEXT
                         MOVE WS-END-DT-MSG      TO TXD-CMNT-TEXT
MATTR                    DISPLAY 'WS-END-DT-MSG: ', WS-END-DT-MSG
                         PERFORM S7000-INSERT-TXD
                      END-IF

                      IF INP1-VENDOR-STATUS NOT = SPACES
                                  AND
                         OUT1-STATUS NOT = OUT1-OLD-STATUS
                         MOVE OUT1-OLD-STATUS TO WS-STATUS-FROM
                         MOVE OUT1-STATUS        TO WS-STATUS-TO
                         MOVE SPACES             TO TXD-CMNT-TEXT
                         MOVE WS-STATUS-MSG      TO TXD-CMNT-TEXT
MATTR                    DISPLAY 'WS-STATUS-MSG: ', WS-STATUS-MSG
                         PERFORM S7000-INSERT-TXD
                      END-IF

                      MOVE SPACES             TO TXD-CMNT-TEXT
                      MOVE INP1-COMMENTS      TO TXD-CMNT-TEXT
                      PERFORM S7000-INSERT-TXD

                      MOVE SPACES             TO TXD-CMNT-TEXT
                      MOVE WS-ASTERISK-MSG TO TXD-CMNT-TEXT
                      PERFORM S7000-INSERT-TXD
                   END-IF
                   MOVE 'UPDATED'      TO OUT1-MESSAGE
               END-IF
           ELSE
               MOVE 'VENDOR ID NOT FOUND '
                                       TO OUT1-MESSAGE
           END-IF.

           WRITE OUT1-RECORD         FROM OUT1-AREA.
           ADD  1                      TO OUT1-COUNT.

           ADD  1                      TO WS-COMMIT-CTR.                25210000
           IF WS-COMMIT-CTR > 99                                        25220000
               PERFORM S9000-COMMIT                                     25230000
                  THRU S9000-EXIT.                                      25240000

           PERFORM B1100-READ-INP1-FILE.

       B2000-EXIT.
           EXIT.
      /
       S2000-SELECT-VDR.
      ******************************************************************
      *    GET VDR_VENDOR_V INFORMATION.
      ******************************************************************

           MOVE 'S2000-SELECT-VDR'     TO WS-ABEND-PARAGRAPH.
           MOVE  +2000                 TO WS-ABEND-SQL-NBR.

           EXEC SQL
               SELECT  VDR.VNDR_ID_LST_NINE
                      ,VDR.END_DT
                      ,VDR.SQ_VDR_STATUS
                 INTO :VDR-VNDR-ID-LST-NINE
                     ,:VDR-END-DT
                     ,:VDR-SQ-VDR-STATUS
                 FROM  VDR_VENDOR_V             VDR
                WHERE  VDR.VNDR_ID_LST_NINE     = :VDR-VNDR-ID-LST-NINE
                  AND  VDR.VNDR_ID_DGT_ONE      = :VDR-VNDR-ID-DGT-ONE
           END-EXEC.

           MOVE SQLCODE                TO VDR-SQLCODE.

           EVALUATE SQLCODE
             WHEN +0
               ADD 1                   TO VDR-SEL-COUNT
             WHEN +100
               ADD 1                   TO VDR-NOTFND-COUNT
             WHEN OTHER
               GO TO S9999-DB2-ERROR
           END-EVALUATE.
      /
       S3000-UPDATE-VDR.
      ******************************************************************
      *    UPDATE VDR_VENDOR_V INFORMATION.
      ******************************************************************

           MOVE 'S3000-UPDATE-VDR'     TO WS-ABEND-PARAGRAPH.
           MOVE  +3000                 TO WS-ABEND-SQL-NBR.

           EXEC SQL
               UPDATE  VDR_VENDOR_V
                  SET  END_DT             = :VDR-END-DT
                      ,SQ_VDR_STATUS      = :VDR-SQ-VDR-STATUS
      ***             ,USER_CD            = 'UPDVDR2'
      ***             ,START_DT           = '07/29/2016'
                WHERE  VNDR_ID_LST_NINE   = :VDR-VNDR-ID-LST-NINE
                  AND  VNDR_ID_DGT_ONE    = :VDR-VNDR-ID-DGT-ONE
           END-EXEC.

           MOVE SQLCODE                TO VDR-SQLCODE.

           EVALUATE SQLCODE
             WHEN +0
               ADD 1                   TO VDR-UPD-COUNT
             WHEN OTHER
               GO TO S9999-DB2-ERROR
           END-EVALUATE.
      /
       S4000-UPDATE-TVL.
      ******************************************************************
      *    UPDATE TVL_TRVL_V INFORMATION.
      ******************************************************************

           MOVE 'S4000-UPDATE-TVL'     TO WS-ABEND-PARAGRAPH.
           MOVE  +4000                 TO WS-ABEND-SQL-NBR.
MATTR      DISPLAY 'INTO S4000-UPDATE-TVL...'.
MATTR      DISPLAY 'VDR-VNDR-ID-LST-NINE: ', VDR-VNDR-ID-LST-NINE.
MATTR      DISPLAY 'VDR-VNDR-ID-DGT-ONE : ', VDR-VNDR-ID-DGT-ONE.
MATTR      DISPLAY 'VDR-END-DT          : ', VDR-END-DT.

           EXEC SQL
               UPDATE  TVL_TRVL_V
                  SET  END_DT             = :VDR-END-DT
      ***             ,USER_CD            = 'UPDVDR2'
      ***             ,START_DT           = '07/29/2016'
                WHERE  TRVL_ACCT_NINE     = :VDR-VNDR-ID-LST-NINE
                  AND  TRVL_ACCT_ONE      = :VDR-VNDR-ID-DGT-ONE
           END-EXEC.

           MOVE SQLCODE                TO TVL-SQLCODE.
MATTR      DISPLAY 'TVL-SQLCODE         : ', TVL-SQLCODE.

           EVALUATE SQLCODE
             WHEN +0
               ADD 1                   TO TVL-UPD-COUNT
             WHEN +100
               ADD 1                   TO TVL-NOTFND-COUNT
             WHEN OTHER
               GO TO S9999-DB2-ERROR
           END-EVALUATE.
      /
       S5000-SELECT-TXH.
      ******************************************************************
      *    GET TXH_TXT_HDR_V INFORMATION.
      ******************************************************************

           MOVE 'S5000-SELECT-TXH'     TO WS-ABEND-PARAGRAPH.
           MOVE  +5000                 TO WS-ABEND-SQL-NBR.

MATTR      DISPLAY 'VDR-VNDR-ID-LST-NINE: ', VDR-VNDR-ID-LST-NINE.
           MOVE VDR-VNDR-ID-LST-NINE (2:8) TO TXH-TEXT-ENTY-CD.
MATTR      DISPLAY 'TXH-TEXT-ENTY-CD    : ', TXH-TEXT-ENTY-CD.
           MOVE 800                        TO TXH-DOC-TYP-SEQ-NBR.
MATTR      DISPLAY 'TXH-DOC-TYP-SEQ-NBR : ', TXH-DOC-TYP-SEQ-NBR.
           MOVE ZERO                       TO TXH-ITEM-NBR.
MATTR      DISPLAY 'TXH-ITEM-NBR        : ', TXH-ITEM-NBR.
           EXEC SQL
               SELECT  TXH.USER_CD
                      ,TXH.LAST_ACTVY_DT
                      ,TXH.UNVRS_CD
                      ,TXH.DOC_TYP_SEQ_NBR
                      ,TXH.TEXT_ENTY_CD
                      ,TXH.CHNG_SEQ_NBR
                      ,TXH.ITEM_NBR
                 INTO :TXH-USER-CD
                     ,:TXH-LAST-ACTVY-DT
                     ,:TXH-UNVRS-CD
                     ,:TXH-DOC-TYP-SEQ-NBR
                     ,:TXH-TEXT-ENTY-CD
                     ,:TXH-CHNG-SEQ-NBR
                     ,:TXH-ITEM-NBR
                 FROM  TXH_TXT_HDR_V            TXH
                WHERE  TXH.TEXT_ENTY_CD         = :TXH-TEXT-ENTY-CD
                  AND  TXH.DOC_TYP_SEQ_NBR      = :TXH-DOC-TYP-SEQ-NBR
                  AND  TXH.ITEM_NBR             = :TXH-ITEM-NBR
      ***         AND  TXH.ITEM_NBR =
      ***             (SELECT MAX(B.ITEM_NBR)
      ***                FROM TXH_TXT_HDR_V     B
      ***               WHERE B.TEXT_ENTY_CD    = :TXH-TEXT-ENTY-CD
      ***            AND B.DOC_TYP_SEQ_NBR      = :TXH-DOC-TYP-SEQ-NBR)
           END-EXEC.

           MOVE SQLCODE                TO TXH-SQLCODE.

           EVALUATE SQLCODE
             WHEN +0
               MOVE TXH-DOC-TYP-SEQ-NBR    TO WS-SEQ-NBR
               MOVE TXH-ITEM-NBR           TO WS-ITEM-NBR
               DISPLAY 'WS-SEQ-NBR   : ', WS-SEQ-NBR
               DISPLAY 'WS-ITEM-NBR  : ', WS-ITEM-NBR
MATTR          DISPLAY 'TXH-TXH-TXT-HDR1: ', TXH-TXH-TXT-HDR
               ADD 1                   TO TXH-SEL-COUNT
             WHEN -811
               MOVE TXH-DOC-TYP-SEQ-NBR    TO WS-SEQ-NBR
               MOVE TXH-ITEM-NBR           TO WS-ITEM-NBR
               DISPLAY 'WS-SEQ-NBR   : ', WS-SEQ-NBR
               DISPLAY 'WS-ITEM-NBR  : ', WS-ITEM-NBR
MATTR          DISPLAY 'TXH-TXH-TXT-HDR2: ', TXH-TXH-TXT-HDR
               ADD 1                   TO TXH-SEL-COUNT
             WHEN +100
MATT           DISPLAY 'TXH NOT FOUND FOR VENDOR: ',
                        TXH-TEXT-ENTY-CD
               ADD 1                   TO TXH-NOTFND-COUNT
             WHEN OTHER
               GO TO S9999-DB2-ERROR
           END-EVALUATE.
      /
       S6000-SELECT-TXD.
      ******************************************************************
      *    GET TXD_TXT_DTL_V INFORMATION.
      ******************************************************************

           MOVE 'S6000-SELECT-TXD'     TO WS-ABEND-PARAGRAPH.
           MOVE  +6000                 TO WS-ABEND-SQL-NBR.

           INITIALIZE TXD-TXD-TXT-DTL.

           EXEC SQL
               SELECT  TXD.USER_CD
                      ,TXD.LAST_ACTVY_DT
                      ,TXD.CLAUSE_CD
                      ,TXD.CMNT_TEXT
                      ,TXD.FK_TXH_DOC_TYP_SEQ
                      ,TXD.FK_TXH_TXT_ENTYCD
                      ,TXD.FK_TXH_ITEM_NBR
                 INTO :TXD-USER-CD
                     ,:TXD-LAST-ACTVY-DT
                     ,:TXD-CLAUSE-CD
                     ,:TXD-CMNT-TEXT
                     ,:TXD-FK-TXH-DOC-TYP-SEQ
                     ,:TXD-FK-TXH-TXT-ENTYCD
                     ,:TXD-FK-TXH-ITEM-NBR
                 FROM  TXD_TXT_DTL_V            TXD
                WHERE  TXD.FK_TXH_TXT_ENTYCD    = :TXH-TEXT-ENTY-CD
                  AND  TXD.FK_TXH_DOC_TYP_SEQ   = :TXH-DOC-TYP-SEQ-NBR
                  AND  TXD.FK_TXH_ITEM_NBR      = :TXH-ITEM-NBR
      ***         AND  TXD.FK_TXH_ITEM_NBR =
      ***             (SELECT MAX(C.FK_TXH_ITEM_NBR)
      ***                FROM TXD_TXT_DTL_V     C
      ***               WHERE C.FK_TXH_TXT_ENTYCD
      ***                                       = :TXH-TEXT-ENTY-CD
      ***               AND
      ***                     C.FK_TXH_DOC_TYP_SEQ
      ***                                       = :TXH-DOC-TYP-SEQ-NBR)
           END-EXEC.

           MOVE SQLCODE                TO TXD-SQLCODE.

           EVALUATE SQLCODE
             WHEN +0
               MOVE TXH-DOC-TYP-SEQ-NBR    TO WS-SEQ-NBR
               MOVE TXH-ITEM-NBR           TO WS-ITEM-NBR
               DISPLAY 'WS-SEQ-NBR   : ', WS-SEQ-NBR
               DISPLAY 'WS-ITEM-NBR  : ', WS-ITEM-NBR
MATTR          DISPLAY 'TXD-TXD-TXT-DTL: ', TXD-TXD-TXT-DTL
               ADD 1                   TO TXD-SEL-COUNT
             WHEN -811
               MOVE TXH-DOC-TYP-SEQ-NBR    TO WS-SEQ-NBR
               MOVE TXH-ITEM-NBR           TO WS-ITEM-NBR
               DISPLAY 'WS-SEQ-NBR   : ', WS-SEQ-NBR
               DISPLAY 'WS-ITEM-NBR  : ', WS-ITEM-NBR
MATTR          DISPLAY 'TXD-TXD-TXT-DTL: ', TXD-TXD-TXT-DTL
               ADD 1                   TO TXD-SEL-COUNT
             WHEN +100
               ADD 1                   TO TXD-NOTFND-COUNT
             WHEN OTHER
               GO TO S9999-DB2-ERROR
           END-EVALUATE.
      /
       S7000-INSERT-TXD.
      ******************************************************************
      *    INSERT TXD_TXT_DTL_V.
      ******************************************************************

           MOVE 'S7000-INSERT-TXD'     TO WS-ABEND-PARAGRAPH.
           MOVE  +7000                 TO WS-ABEND-SQL-NBR.

           MOVE 'UPDVDR2'              TO TXD-USER-CD.

           EXEC SQL
               INSERT INTO TXD_TXT_DTL_V
                 (USER_CD
                 ,LAST_ACTVY_DT
                 ,CLAUSE_CD
                 ,CMNT_TEXT
                 ,PRINT_FLAG
                 ,FK_TXH_DOC_TYP_SEQ
                 ,FK_TXH_TXT_ENTYCD
                 ,FK_TXH_CHG_SEQ_NBR
                 ,FK_TXH_ITEM_NBR
                 ,TXH_SET_TS
                 )
               VALUES
                 (:TXD-USER-CD
                 ,:TXD-LAST-ACTVY-DT
                 ,:TXD-CLAUSE-CD
                 ,:TXD-CMNT-TEXT
                 ,:TXD-PRINT-FLAG
                 ,:TXD-FK-TXH-DOC-TYP-SEQ
                 ,:TXD-FK-TXH-TXT-ENTYCD
                 ,:TXD-FK-TXH-CHG-SEQ-NBR
                 ,:TXD-FK-TXH-ITEM-NBR
                 , CURRENT_TIMESTAMP
                 )
           END-EXEC.

           MOVE SQLCODE                    TO TXD-SQLCODE.

           EVALUATE SQLCODE
             WHEN +0
               ADD 1                       TO TXD-INS-COUNT
             WHEN -803
MATTR          DISPLAY 'TXD ALREADY EXISTS FOR: ',
MATTR                   TXD-FK-TXH-TXT-ENTYCD
             WHEN OTHER
               GO TO S9999-DB2-ERROR
           END-EVALUATE.
      /
       S8000-INSERT-TXH.
      ******************************************************************
      *    INSERT TXH_TXT_HDR_V.
      ******************************************************************

MATTR      DISPLAY 'INTO S8000-INSERT-TXH...'.
           MOVE 'S8000-INSERT-TXH'     TO WS-ABEND-PARAGRAPH.
           MOVE  +8000                 TO WS-ABEND-SQL-NBR.

           MOVE 'UPDVDR2'              TO TXH-USER-CD.
           MOVE '01'                   TO TXH-UNVRS-CD.
           MOVE 800                    TO TXH-DOC-TYP-SEQ-NBR.
           MOVE VDR-VNDR-ID-LST-NINE (2:8) TO TXH-TEXT-ENTY-CD.
           MOVE SPACES                 TO TXH-CHNG-SEQ-NBR.
           MOVE ZERO                   TO TXH-ITEM-NBR.
MATTR      DISPLAY 'TXH-TEXT-ENTY-CD    : ', TXH-TEXT-ENTY-CD.
MATTR      DISPLAY 'TXH-DOC-TYP-SEQ-NBR : ', TXH-DOC-TYP-SEQ-NBR.

           EXEC SQL
               INSERT INTO TXH_TXT_HDR_V
                 (USER_CD
                 ,LAST_ACTVY_DT
                 ,UNVRS_CD
                 ,DOC_TYP_SEQ_NBR
                 ,TEXT_ENTY_CD
                 ,CHNG_SEQ_NBR
                 ,ITEM_NBR
               )
               VALUES
                 (:TXH-USER-CD
                 ,:TXH-LAST-ACTVY-DT
                 ,:TXH-UNVRS-CD
                 ,:TXH-DOC-TYP-SEQ-NBR
                 ,:TXH-TEXT-ENTY-CD
                 ,:TXH-CHNG-SEQ-NBR
                 ,:TXH-ITEM-NBR
               )
           END-EXEC.

           MOVE SQLCODE                    TO TXH-SQLCODE.

           EVALUATE SQLCODE
             WHEN +0
MATTR          DISPLAY 'TXH INSERT SUCCESSFUL...'
               ADD 1                       TO TXH-INS-COUNT
             WHEN -803
MATTR          DISPLAY 'TXH ALREADY EXISTS FOR: ',
MATTR                   TXH-TEXT-ENTY-CD
             WHEN OTHER
               GO TO S9999-DB2-ERROR
           END-EVALUATE.
      /
      *%-------------------------------------------------------------- *
      *%                  S9000-COMMIT ROUTINE                         *
      *%-------------------------------------------------------------- *
       S9000-COMMIT.
           DISPLAY 'INTO S9000-COMMIT...'.
           MOVE 'S9000-COMMIT'         TO WS-ABEND-PARAGRAPH.
           MOVE  +9000                 TO WS-ABEND-SQL-NBR.
           EXEC SQL
               COMMIT WORK
           END-EXEC.

           IF SQLCODE = ZERO
              DISPLAY 'COMMIT SUCCESSFUL...'.

           MOVE ZERO                   TO WS-COMMIT-CTR.                25210000

       S9000-EXIT.
           EXIT.
      /
       S9999-DB2-ERROR.
      ******************************************************************
      *    DB2ERRBP - DB2-ERROR-ROUTINE   (DB2 ERROR HANDLING ROUTINE)
      *    DB2ERRBP DISPLAYS DB2 ERROR MSG TO SYSOUT, ROLLSBACK UPDATES,
      *    SETS RETURN-CODE TO '9', AND CALLS 'ABORT' TO PRODUCE A DUMP.
      ******************************************************************

           MOVE WS-THIS-PROGRAM        TO DB2-PROGRAM-NAME.
           MOVE WS-ABEND-SQL-NBR       TO DB2-DML-NUMBER.
           MOVE SQLCODE                TO WS-ABEND-CODE.

           DISPLAY 'ABNORMAL DB2 ERROR DETECTED IN PROGRAM '
                                          DB2-PROGRAM-NAME
           DISPLAY 'LAST PARAGRAPH ENTERED WAS '
                                          WS-ABEND-PARAGRAPH.
           DISPLAY 'PARAGRAPH / SQL NUMBER = '
                                          DB2-DML-NUMBER.
           DISPLAY 'DB2 SQLCODE = '       WS-ABEND-CODE.


           EXEC SQL INCLUDE DB2ERRBP
           END-EXEC.
      /
       Z9999-ABORT-PROGRAM.
      ******************************************************************
      *    AN ABNORMAL CONDITION HAS OCCURED.  ABORT PROGRAM PROCESSING.
      ******************************************************************

           DISPLAY ' '.
           DISPLAY '**************************************************'.
           DISPLAY '** ABNORMAL ERROR DETECTED IN PROGRAM '
                                          WS-THIS-PROGRAM.
           DISPLAY '** ERROR MESSAGE IS DISPLAYED BEFORE THIS TEXT BOX'.
           DISPLAY '** LAST PARAGRAPH ENTERED WAS '
                                          WS-ABEND-PARAGRAPH.
           DISPLAY '** PROGRAM PROCESSING IS BEING ABORTED'.
           DISPLAY '**************************************************'.

           MOVE '9' TO RETURN-CODE.
           CALL 'ABORT'.
