       IDENTIFICATION DIVISION.
       PROGRAM-ID. UTAU350.
       AUTHOR.        ADCOM SYSTEMS.
       DATE-WRITTEN.  MARCH, 2000.
       DATE-COMPILED.

      *****************************************************************
      *               TRAVEL ADVANCE RECORD  LOADER
      *
      *  THE PROGRAM READS THE FILE OF TRAVEL ADVANCE RECORDS CREATED BY
      *  PROGRAM UTAU310. FOR ALL RECORDS WHERE WS-POSTED-FLAG = 'Y' THE
      *  R4212-APRVL-HDR IS MODIFIED AND A R4214-APRVL-AUD IS STORED.
      *  THE R4212-APRVL-HDR IS DISCONNECTED FROM ALL CONNECTED SETS.
      *  A R4207-APRVD RECORD IS CREATED.  FGAUB00X WILL POST LATER.
      *****************************************************************
      *
      * MM/DD/YY - XXX  XXXXX - XXXXXXXXXXXXXXXXXXXXXXXXXXXXXXXXXX
      *****************************************************************

      *%****************************************************************
      *%                                                               *
      *%  Converted using Forecross Corporation Redeployment Software  *
      *%                                                               *
      *%               Convert/IDMS-DB Version 8 Release 01            *
      *%                                                               *
      *%                Converted on 12/08/00 at 16:15                 *
      *%                                                               *
      *%****************************************************************
      *%              COPYRIGHT FORECROSS CORPORATION                  *
      *%                2000  ALL RIGHTS RESERVED                      *
      *%****************************************************************
           COPY CBCVDBNT.

      /
      *%-------------------------------------------------------------- *
      *%
      *%  *** TABLE VIEWS USED IN THIS PROGRAM
      *%
      *%APR_APRVD_V           R4207-APRVD                      CBL CPY
      *%ADV_ADVNC_V           R4404-ADVNC                      CBL CPY
      *%APV_APRV_TMPLT_V      R4215-APRV-TMPLT                 CBL CPY
      *%APJ_APRVL_J_V         R4204-APRVL-J                    CBL CPY
      *%DOC_DOCUMENT_V        R4203-DOCUMENT                   CBL CPY
      *%APL_APRVL_LVL_V       R4205-APRVL-LVL                  CBL CPY
      *%APH_APRVL_HDR_V       R4212-APRVL-HDR                  CBL CPY
      *%APD_APRVL_AUD_V       R4214-APRVL-AUD                  CBL CPY
      *%
      *%  *** CURSORS DECLARED IN THIS PROGRAM
      *%
      *%
      *%  *** SUBROUTINES GENERATED FOR THIS PROGRAM
      *%
      *%000-SQL-INITIALIZATION
      *%986-RESET-KEYS
      *%903-S-4212-4214
      *%904-ISRT-R4207-APRVD
      *%904-ISRT-R4214-APRVL-AUD
      *%904-UPDT-R4212-APRVL-HDR
      *%904-UPDT-R4214-APRVL-AUD
      *%904-UPDT-R4404-ADVNC
      *%904-DIS-S-4205-4212
      *%904-DIS-S-INDX-APRVL
      *%904-DIS-S-INDX-UNAPRVD
      *%906-02-S-4212-4214
      *%906-05-R4207-APRVD
      *%906-05-R4212-APRVL-HDR
      *%906-05-R4404-ADVNC
      *%985-CURR-R4207-APRVD
      *%985-CURR-R4212-APRVL-HDR
      *%985-CURR-R4214-APRVL-AUD
      *%985-CURR-R4404-ADVNC
      *%996-COMMIT
      *%
      *%-------------------------------------------------------------- *
       ENVIRONMENT DIVISION.
       CONFIGURATION SECTION.
       SOURCE-COMPUTER. IBM-4341.
       OBJECT-COMPUTER. IBM-4341.

       SPECIAL-NAMES.
           C01 IS TOP-OF-PAGE.

       INPUT-OUTPUT SECTION.
       FILE-CONTROL.

           SELECT TRAVEL-AGENCY-FILE   ASSIGN TO AGENCYI.

           SELECT CONTROL-REPORT-FILE  ASSIGN TO CNTLRPT.

      *IDMS-CONTROL SECTION.
      *PROTOCOL.   MODE IS BATCH-AUTOSTATUS DEBUG
      *%           IDMS-RECORDS MANUAL.

       DATA DIVISION.
      *SCHEMA SECTION.
      *DB FIMSNWKB WITHIN FIMSNTWN.

       FILE SECTION.
       FD  TRAVEL-AGENCY-FILE
           RECORDING MODE IS F
           LABEL RECORDS ARE OMITTED
           BLOCK CONTAINS 0 RECORDS
           RECORD CONTAINS 140 CHARACTERS
           DATA RECORD IS TRAVEL-AGENCY-RECORD.

       01  TRAVEL-AGENCY-RECORD.
           03 FD-RECORD-IND                   PIC X(01).
           03 FILLER                          PIC X(139).

       FD  CONTROL-REPORT-FILE
           RECORDING MODE IS F
           LABEL RECORDS ARE OMITTED
           BLOCK CONTAINS 0 RECORDS
           RECORD CONTAINS 132 CHARACTERS
           DATA RECORD IS CONTROL-REPORT-RECORD.

       01  CONTROL-REPORT-RECORD                PIC X(132).

      /

       WORKING-STORAGE SECTION.

       01  DBLINK-USER-CD   PIC X(8) VALUE 'UTAU350'.
       01  WS-SWITCHES.
           03  WS-END-OF-FILE                PIC X(01) VALUE ' '.
               88  END-OF-FILE                         VALUE 'Y'.
           03  WS-COMMIT-CTR                 PIC 9(04) VALUE ZEROES.

       01  WS-TOTALS.
           03  WS-HDR-REC-READ               PIC 9(06) VALUE ZEROES.
           03  WS-DTL-REC-READ               PIC 9(06) VALUE ZEROES.
           03  WS-TOT-REC-READ               PIC 9(06) VALUE ZEROES.
           03  WS-R4207-WRITTEN              PIC 9(06) VALUE ZEROES.

       01  WS-AGENCY-HDR-REC.
               05  WS-REC-IND-HDR        PIC X(01).
               05  WS-FILE-TRANS-DATE.
                   07  WS-FILE-TRANS-DATE-MM  PIC X(02).
                   07  FILLER                 PIC X(01).
                   07  WS-FILE-TRANS-DATE-DD  PIC X(02).
                   07  FILLER                 PIC X(01).
                   07  WS-FILE-TRANS-DATE-CCYY PIC X(04).
               05  WS-AGENCY-ID          PIC X(09).
               05  WS-TOTAL-NUMBER       PIC 9(05).
               05  WS-TOTAL-FARE-AMT     PIC 9(06)V99.
               05  WS-TOTAL-SERVICE-FEE
                                         PIC 9(06)V99.

       01  WS-AGENCY-DTL-REC.
               05  WS-REC-IND-DTL          PIC X(01).
               05  WS-INVOICE-DATE.
                   07  WS-INVOICE-DATE-MM  PIC X(02).
                   07  FILLER              PIC X(01).
                   07  WS-INVOICE-DATE-DD  PIC X(02).
                   07  FILLER              PIC X(01).
                   07  WS-INVOICE-DATE-CCYY PIC X(04).
               05  WS-EVENT-NMBR         PIC X(08).
               05  WS-PASSENGER-NAME     PIC X(30).
               05  WS-VC                 PIC X(02).
               05  WS-DEPARTURE-DATE     PIC X(10).
               05  WS-ROUTING            PIC X(30).
               05  WS-D-OR-I             PIC X(01).
               05  WS-TICKET-NMBR        PIC X(10).
               05  WS-CC-TYPE            PIC X(02).
               05  WS-EKT-IND            PIC X(02).
               05  WS-AIRFARE-N          PIC 9(06)V99.
               05  WS-SERVICE-FEE-N      PIC 9(06)V99.
               05  WS-SERVICE-TYPE       PIC X(01).
               05  WS-POSTED-FLAG        PIC X(01).
               05  WS-POSTED-DATE        PIC X(08).
               05  WS-ADVNC-NMBR         PIC X(08).

       01  WS-SYS-DATE.
           03  WS-SYS-DATE-CC            PIC 9(02) VALUE ZEROES.
           03  WS-SYS-DATE-YYMMDD.
               05  WS-SYS-DATE-YY        PIC 9(02) VALUE ZEROES.
               05  WS-SYS-DATE-MM        PIC 9(02) VALUE ZEROES.
               05  WS-SYS-DATE-DD        PIC 9(02) VALUE ZEROES.
       01  WS-SYSTEM-DATE REDEFINES WS-SYS-DATE
                                         PIC 9(08).
      /
      ******************************************************************
      *   REPORTS
      ******************************************************************

       01  CONTROL-LINE-1.
           03  FILLER                    PIC X(48) VALUE 'UTAU350'.
           03  FILLER                    PIC X(65) VALUE
               'UNIVERSITY OF CALIFORNIA, SAN DIEGO'.
           03  FILLER                    PIC X(05) VALUE 'PAGE:'.
           03  CL1-PAGE-NUMBER           PIC ZZZ9.

       01  CONTROL-LINE-2.
           03  FILLER                    PIC X(07) VALUE 'RUN ON'.
           03  CL2-RUN-DATE              PIC X(08).
           03  FILLER                    PIC X(04) VALUE ' AT'.
           03  CL2-RUN-TIME-HH           PIC 9(02).
           03  FILLER                    PIC X(01) VALUE ':'.
           03  CL2-RUN-TIME-MM           PIC 9(02).
           03  FILLER                    PIC X(01) VALUE ':'.
           03  CL2-RUN-TIME-SS           PIC 9(02).
           03  FILLER                    PIC X(27) VALUE SPACES.
           03  FILLER                    PIC X(78) VALUE
               'BATCH TRANSACTION LOADER'.

       01  CONTROL-LINE-3.
           03  FILLER                    PIC X(59) VALUE SPACES.
           03  FILLER                    PIC X(73) VALUE
               'CONTROL REPORT'.

       01  CONTROL-REPORT-DATA           PIC X(132) VALUE SPACES.

       01  WS-RPT-TRANS-DATE.
           03  WS-RPT-TRANS-DATE-MM          PIC X(02) VALUE SPACES.
           03  FILLER                        PIC X(01) VALUE '/'.
           03  WS-RPT-TRANS-DATE-DD          PIC X(02) VALUE SPACES.
           03  FILLER                        PIC X(01) VALUE '/'.
           03  WS-RPT-TRANS-DATE-YY          PIC X(02) VALUE SPACES.

       01  WS-REPORT-COUNTERS.
           03  WS-CNTL-RPT-PAGE-CNT      PIC 9(04) VALUE ZEROES.
           03  WS-CNTL-RPT-LINE-CNT      PIC 9(02) VALUE 61.
      /
      ******************************************************************
      *   COPYLIB MEMBERS USED BY PROGRAM
      ******************************************************************

       01  DATE-CONV-COB2.
                                  COPY WSDATEC2.

       01  TIME-CONV-COB2.
                                  COPY WSTIMEC2.

       01  WHEN-COMP-CONV.
                                  COPY WHENCMC2.

      /
      *****************************************************************
      *  IDMS/R CONTROL RECORD AND DICTIONARY RECORDS USED BY PROGRAM
      *****************************************************************

      *01  COPY IDMS SUBSCHEMA-CONTROL.
       01  SUBSCHEMA-CONTROL  PIC X.


      *%****************************** *
      *% APR_APRVD_V DATA VIEW AREAS
      *%****************************** *
      *%   COPY CBID4207.
CPYNME     COPY R4207.
      *01  COPY IDMS R4207-APRVD.

      *%****************************** *
      *% ADV_ADVNC_V DATA VIEW AREAS
      *%****************************** *
      *%   COPY CBID4404.
CPYNME     COPY R4404.
      *01  COPY IDMS R4404-ADVNC.

      *%****************************** *
      *% APV_APRV_TMPLT_V DATA VIEW AREAS
      *%****************************** *
      *%   COPY CBID4215.
CPYNME     COPY R4215.
      *01  COPY IDMS R4215-APRV-TMPLT.

      *%****************************** *
      *% APJ_APRVL_J_V DATA VIEW AREAS
      *%****************************** *
      *%   COPY CBID4204.
CPYNME     COPY R4204.
      *01  COPY IDMS R4204-APRVL-J.

      *%****************************** *
      *% DOC_DOCUMENT_V DATA VIEW AREAS
      *%****************************** *
      *%   COPY CBID4203.
CPYNME     COPY R4203.
      *01  COPY IDMS R4203-DOCUMENT.

      *%****************************** *
      *% APL_APRVL_LVL_V DATA VIEW AREAS
      *%****************************** *
      *%   COPY CBID4205.
CPYNME     COPY R4205.
      *01  COPY IDMS R4205-APRVL-LVL.

      *%****************************** *
      *% APH_APRVL_HDR_V DATA VIEW AREAS
      *%****************************** *
      *%   COPY CBID4212.
CPYNME     COPY R4212.
      *01  COPY IDMS R4212-APRVL-HDR.

      *%****************************** *
      *% APD_APRVL_AUD_V DATA VIEW AREAS
      *%****************************** *
      *%   COPY CBID4214.
CPYNME     COPY R4214.
      *01  COPY IDMS R4214-APRVL-AUD.

      /
           EXEC SQL
               INCLUDE CBCVDBCA
           END-EXEC.

      /
      *%-------------------------------------------------------------- *
      *%                                                               *
      *%          STANDARD CONVERT/DB COMMUNICATION AREAS              *
      *%                                                               *
      *%-------------------------------------------------------------- *
           COPY CBCVDBXD.
           COPY BTCHWS.
       01  DBLINK-NAMES.
           05  DBLINK-SCHEMA-NAME.
               10  FILLER                   PIC X(8)
                       VALUE 'FIMSNTWN'.
           05  DBLINK-RECORD-NAMES.
               10  DBLINK-R4000-COA         PIC X(16)
                       VALUE 'R4000-COA'.
               10  DBLINK-R4001-FUND        PIC X(16)
                       VALUE 'R4001-FUND'.
               10  DBLINK-R4002-ORGN        PIC X(16)
                       VALUE 'R4002-ORGN'.
               10  DBLINK-R4003-ACCT        PIC X(16)
                       VALUE 'R4003-ACCT'.
               10  DBLINK-R4004-PROG        PIC X(16)
                       VALUE 'R4004-PROG'.
               10  DBLINK-R4006-LCTN        PIC X(16)
                       VALUE 'R4006-LCTN'.
               10  DBLINK-R4008-FNDT        PIC X(16)
                       VALUE 'R4008-FNDT'.
               10  DBLINK-R4011-SYSDAT      PIC X(16)
                       VALUE 'R4011-SYSDAT'.
               10  DBLINK-R4014-ACTT        PIC X(16)
                       VALUE 'R4014-ACTT'.
               10  DBLINK-R4016-BDGT-CTRL   PIC X(16)
                       VALUE 'R4016-BDGT-CTRL'.
               10  DBLINK-R4021-CTRL-ACCTS  PIC X(16)
                       VALUE 'R4021-CTRL-ACCTS'.
               10  DBLINK-R4026-INDRT-COST  PIC X(16)
                       VALUE 'R4026-INDRT-COST'.
               10  DBLINK-R4030-COST-SHARE  PIC X(16)
                       VALUE 'R4030-COST-SHARE'.
               10  DBLINK-R4033-BANK        PIC X(16)
                       VALUE 'R4033-BANK'.
               10  DBLINK-R4035-PAY-MTHD    PIC X(16)
                       VALUE 'R4035-PAY-MTHD'.
               10  DBLINK-R4036-USER-RCRD   PIC X(16)
                       VALUE 'R4036-USER-RCRD'.
               10  DBLINK-R4038-USER-CODES  PIC X(16)
                       VALUE 'R4038-USER-CODES'.
               10  DBLINK-R4040-CLOSE-HDR   PIC X(16)
                       VALUE 'R4040-CLOSE-HDR'.
               10  DBLINK-R4045-ACTI        PIC X(16)
                       VALUE 'R4045-ACTI'.
               10  DBLINK-R4046-BANK-NAME   PIC X(16)
                       VALUE 'R4046-BANK-NAME'.
               10  DBLINK-R4050-ACTV        PIC X(16)
                       VALUE 'R4050-ACTV'.
               10  DBLINK-R4052-XTRN-ENTY   PIC X(16)
                       VALUE 'R4052-XTRN-ENTY'.
               10  DBLINK-R4053-INTR-ENTY   PIC X(16)
                       VALUE 'R4053-INTR-ENTY'.
               10  DBLINK-R4054-XTRN-CODE   PIC X(16)
                       VALUE 'R4054-XTRN-CODE'.
               10  DBLINK-R4056-AGNC        PIC X(16)
                       VALUE 'R4056-AGNC'.
               10  DBLINK-R4057-RQST-ID     PIC X(16)
                       VALUE 'R4057-RQST-ID'.
               10  DBLINK-R4060-RPT         PIC X(16)
                       VALUE 'R4060-RPT'.
               10  DBLINK-R4064-CS-EFCTV    PIC X(16)
                       VALUE 'R4064-CS-EFCTV'.
               10  DBLINK-R4065-IC-EFCTV    PIC X(16)
                       VALUE 'R4065-IC-EFCTV'.
               10  DBLINK-R4069-JRNL-HDR    PIC X(16)
                       VALUE 'R4069-JRNL-HDR'.
               10  DBLINK-R4070-RQST        PIC X(16)
                       VALUE 'R4070-RQST'.
               10  DBLINK-R4071-RQST-DTL    PIC X(16)
                       VALUE 'R4071-RQST-DTL'.
               10  DBLINK-R4072-BUYER       PIC X(16)
                       VALUE 'R4072-BUYER'.
               10  DBLINK-R4073-VENDOR      PIC X(16)
                       VALUE 'R4073-VENDOR'.
               10  DBLINK-R4074-CMDTY       PIC X(16)
                       VALUE 'R4074-CMDTY'.
               10  DBLINK-R4081-AGRMNT      PIC X(16)
                       VALUE 'R4081-AGRMNT'.
               10  DBLINK-R4083-PO-HDR      PIC X(16)
                       VALUE 'R4083-PO-HDR'.
               10  DBLINK-R4084-PO-CLASS    PIC X(16)
                       VALUE 'R4084-PO-CLASS'.
               10  DBLINK-R4085-PO-DTL      PIC X(16)
                       VALUE 'R4085-PO-DTL'.
               10  DBLINK-R4088-BID         PIC X(16)
                       VALUE 'R4088-BID'.
               10  DBLINK-R4089-BID-DTL     PIC X(16)
                       VALUE 'R4089-BID-DTL'.
               10  DBLINK-R4093-RCVNG-HDR   PIC X(16)
                       VALUE 'R4093-RCVNG-HDR'.
               10  DBLINK-R4096-PO-HDR-SEQ  PIC X(16)
                       VALUE 'R4096-PO-HDR-SEQ'.
               10  DBLINK-R4099-RETURNS     PIC X(16)
                       VALUE 'R4099-RETURNS'.
               10  DBLINK-R4104-VENDOR-CMD  PIC X(16)
                       VALUE 'R4104-VENDOR-CMD'.
               10  DBLINK-R4106-AUTO-JRNL   PIC X(16)
                       VALUE 'R4106-AUTO-JRNL'.
               10  DBLINK-R4120-TXT-HDR     PIC X(16)
                       VALUE 'R4120-TXT-HDR'.
               10  DBLINK-R4150-INV-HDR     PIC X(16)
                       VALUE 'R4150-INV-HDR'.
               10  DBLINK-R4151-INV-DTL     PIC X(16)
                       VALUE 'R4151-INV-DTL'.
               10  DBLINK-R4157-CHK-RQST-H  PIC X(16)
                       VALUE 'R4157-CHK-RQST-H'.
               10  DBLINK-R4158-CHK-HDR     PIC X(16)
                       VALUE 'R4158-CHK-HDR'.
               10  DBLINK-R4161-DSCNT-TBLE  PIC X(16)
                       VALUE 'R4161-DSCNT-TBLE'.
               10  DBLINK-R4163-RSBLE-INV   PIC X(16)
                       VALUE 'R4163-RSBLE-INV'.
               10  DBLINK-R4166-VNDR-TYPE   PIC X(16)
                       VALUE 'R4166-VNDR-TYPE'.
               10  DBLINK-R4168-TAX-RATES   PIC X(16)
                       VALUE 'R4168-TAX-RATES'.
               10  DBLINK-R4174-TOF-HDR     PIC X(16)
                       VALUE 'R4174-TOF-HDR'.
               10  DBLINK-R4180-RULE-CLASS  PIC X(16)
                       VALUE 'R4180-RULE-CLASS'.
               10  DBLINK-R4181-RULE-EFCTV  PIC X(16)
                       VALUE 'R4181-RULE-EFCTV'.
               10  DBLINK-R4183-ENCMBR-YRS  PIC X(16)
                       VALUE 'R4183-ENCMBR-YRS'.
               10  DBLINK-R4187-G-FOAPAL    PIC X(16)
                       VALUE 'R4187-G-FOAPAL'.
               10  DBLINK-R4188-TRAN-HIST   PIC X(16)
                       VALUE 'R4188-TRAN-HIST'.
               10  DBLINK-R4190-ENCMBR-DTL  PIC X(16)
                       VALUE 'R4190-ENCMBR-DTL'.
               10  DBLINK-R4191-ENCMBR-HDR  PIC X(16)
                       VALUE 'R4191-ENCMBR-HDR'.
               10  DBLINK-R4192-USER-PRFL   PIC X(16)
                       VALUE 'R4192-USER-PRFL'.
               10  DBLINK-R4197-GNRL-LDGR   PIC X(16)
                       VALUE 'R4197-GNRL-LDGR'.
               10  DBLINK-R4199-ACCT-LDGR   PIC X(16)
                       VALUE 'R4199-ACCT-LDGR'.
               10  DBLINK-R4203-DOCUMENT    PIC X(16)
                       VALUE 'R4203-DOCUMENT'.
               10  DBLINK-R4204-APRVL-J     PIC X(16)
                       VALUE 'R4204-APRVL-J'.
               10  DBLINK-R4205-APRVL-LVL   PIC X(16)
                       VALUE 'R4205-APRVL-LVL'.
               10  DBLINK-R4207-APRVD       PIC X(16)
                       VALUE 'R4207-APRVD'.
               10  DBLINK-R4209-CLAUSE      PIC X(16)
                       VALUE 'R4209-CLAUSE'.
               10  DBLINK-R4212-APRVL-HDR   PIC X(16)
                       VALUE 'R4212-APRVL-HDR'.
               10  DBLINK-R4214-APRVL-AUD   PIC X(16)
                       VALUE 'R4214-APRVL-AUD'.
               10  DBLINK-R4215-APRV-TMPLT  PIC X(16)
                       VALUE 'R4215-APRV-TMPLT'.
               10  DBLINK-R4224-DLVRY-HDR   PIC X(16)
                       VALUE 'R4224-DLVRY-HDR'.
               10  DBLINK-R4226-EXPR-VNDR   PIC X(16)
                       VALUE 'R4226-EXPR-VNDR'.
               10  DBLINK-R4228-FILE-CNTL   PIC X(16)
                       VALUE 'R4228-FILE-CNTL'.
               10  DBLINK-R4229-RLSE-HDR    PIC X(16)
                       VALUE 'R4229-RLSE-HDR'.
               10  DBLINK-R4230-RLSE-DTL    PIC X(16)
                       VALUE 'R4230-RLSE-DTL'.
               10  DBLINK-R4232-AP-TRANS    PIC X(16)
                       VALUE 'R4232-AP-TRANS'.
               10  DBLINK-R4300-AST         PIC X(16)
                       VALUE 'R4300-AST'.
               10  DBLINK-R4400-TRVL        PIC X(16)
                       VALUE 'R4400-TRVL'.
               10  DBLINK-R4401-EVENT       PIC X(16)
                       VALUE 'R4401-EVENT'.
               10  DBLINK-R4402-TRIP        PIC X(16)
                       VALUE 'R4402-TRIP'.
               10  DBLINK-R4404-ADVNC       PIC X(16)
                       VALUE 'R4404-ADVNC'.
               10  DBLINK-R4405-EXPNS       PIC X(16)
                       VALUE 'R4405-EXPNS'.
               10  DBLINK-R4406-RECON       PIC X(16)
                       VALUE 'R4406-RECON'.
               10  DBLINK-R4410-TRVL-INV    PIC X(16)
                       VALUE 'R4410-TRVL-INV'.
               10  DBLINK-R6000-SYS         PIC X(16)
                       VALUE 'R6000-SYS'.
               10  DBLINK-R6001-UNVRS       PIC X(16)
                       VALUE 'R6001-UNVRS'.
               10  DBLINK-R6117-PRSN        PIC X(16)
                       VALUE 'R6117-PRSN'.
               10  DBLINK-R6151-STATE       PIC X(16)
                       VALUE 'R6151-STATE'.
               10  DBLINK-R6152-ZIP         PIC X(16)
                       VALUE 'R6152-ZIP'.
               10  DBLINK-R6153-COUNTRY     PIC X(16)
                       VALUE 'R6153-COUNTRY'.
               10  DBLINK-R6200-ACH-DATA    PIC X(16)
                       VALUE 'R6200-ACH-DATA'.
               10  DBLINK-R6257             PIC X(16)
                       VALUE 'R6257'.
               10  DBLINK-R6258             PIC X(16)
                       VALUE 'R6258'.
               10  DBLINK-R6259             PIC X(16)
                       VALUE 'R6259'.
               10  DBLINK-R6260             PIC X(16)
                       VALUE 'R6260'.
               10  DBLINK-R6268             PIC X(16)
                       VALUE 'R6268'.
               10  DBLINK-R6270             PIC X(16)
                       VALUE 'R6270'.
               10  DBLINK-R6273             PIC X(16)
                       VALUE 'R6273'.
               10  DBLINK-R6311-ENTY        PIC X(16)
                       VALUE 'R6311-ENTY'.
               10  DBLINK-R6313-PRSN-CHG    PIC X(16)
                       VALUE 'R6313-PRSN-CHG'.
               10  DBLINK-R6353-ENTY-CHG    PIC X(16)
                       VALUE 'R6353-ENTY-CHG'.
               10  DBLINK-R6600-TABL-HDR    PIC X(16)
                       VALUE 'R6600-TABL-HDR'.
               10  DBLINK-R6605             PIC X(16)
                       VALUE 'R6605'.
               10  DBLINK-R6606             PIC X(16)
                       VALUE 'R6606'.
               10  DBLINK-R8001             PIC X(16)
                       VALUE 'R8001'.
               10  DBLINK-R8002             PIC X(16)
                       VALUE 'R8002'.
               10  DBLINK-R8003             PIC X(16)
                       VALUE 'R8003'.
               10  DBLINK-R8005             PIC X(16)
                       VALUE 'R8005'.
               10  DBLINK-R8007             PIC X(16)
                       VALUE 'R8007'.
               10  DBLINK-R8008             PIC X(16)
                       VALUE 'R8008'.
               10  DBLINK-R8009             PIC X(16)
                       VALUE 'R8009'.
               10  DBLINK-R8010             PIC X(16)
                       VALUE 'R8010'.
               10  DBLINK-R8013             PIC X(16)
                       VALUE 'R8013'.
               10  DBLINK-R8020             PIC X(16)
                       VALUE 'R8020'.
               10  DBLINK-R8030             PIC X(16)
                       VALUE 'R8030'.
               10  DBLINK-R8040             PIC X(16)
                       VALUE 'R8040'.
               10  DBLINK-R8044             PIC X(16)
                       VALUE 'R8044'.
               10  DBLINK-R8050             PIC X(16)
                       VALUE 'R8050'.
               10  DBLINK-R8051             PIC X(16)
                       VALUE 'R8051'.
               10  DBLINK-R8052             PIC X(16)
                       VALUE 'R8052'.
           05  DBLINK-SET-NAMES.
               10  S-4205-4212              PIC X(16)
                       VALUE 'S-4205-4212'.
               10  S-4212-4214              PIC X(16)
                       VALUE 'S-4212-4214'.
               10  S-INDX-APRVL             PIC X(16)
                       VALUE 'S-INDX-APRVL'.
               10  S-INDX-UNAPRVD           PIC X(16)
                       VALUE 'S-INDX-UNAPRVD'.
           05  DBLINK-AREA-NAMES.
               10  F-INDX-UNAPRVD           PIC X(16)
                       VALUE 'F-INDX-UNAPRVD'.
               10  F-APPROVAL               PIC X(16)
                       VALUE 'F-APPROVAL'.
               10  F-TRVL                   PIC X(16)
                       VALUE 'F-TRVL'.
               10  F-INDX-APRVL             PIC X(16)
                       VALUE 'F-INDX-APRVL'.
           05  DBLINK-RECORD-LOCK-FLAGS.
               10  FILLER                   PIC X(1)        VALUE SPACE.
           05  DBLINK-CURSOR-NAMES.
               10  FILLER                   PIC X(1)        VALUE SPACE.
           05  DBLINK-CURSOR-CODES.
               10  FILLER                   PIC X(1)        VALUE SPACE.
      /
DEVHV      EXEC SQL
DEVHV          INCLUDE CBRSKEYS
DEVHV      END-EXEC.
      /
      *%-------------------------------------------------------------- *
      *%                                                               *
      *%                  CONTROL AREAS AND VIEWS                      *
      *%                                                               *
      *%-------------------------------------------------------------- *

      *%****************************** *
      *%CONVERT/DB COMMAREA
      *%****************************** *
           EXEC SQL
               INCLUDE SQLCA
           END-EXEC.

      *%****************************** *
      *%APR_APRVD_V AREAS(HOST VAR INCLUDE)
      *%****************************** *
      *%   EXEC SQL
      *%       INCLUDE CBHV4207
CPYNME     EXEC SQL
CPYNME         INCLUDE HVAPR
CPYNME     END-EXEC.
      *%   END-EXEC.

      *%****************************** *
      *%ADV_ADVNC_V AREAS(HOST VAR INCLUDE)
      *%****************************** *
      *%   EXEC SQL
      *%       INCLUDE CBHV4404
CPYNME     EXEC SQL
CPYNME         INCLUDE HVADV
CPYNME     END-EXEC.
      *%   END-EXEC.

      *%****************************** *
      *%APV_APRV_TMPLT_V AREAS(HOST VAR INCLUDE)
      *%****************************** *
      *%   EXEC SQL
      *%       INCLUDE CBHV4215
CPYNME     EXEC SQL
CPYNME         INCLUDE HVAPV
CPYNME     END-EXEC.
      *%   END-EXEC.

      *%****************************** *
      *%APJ_APRVL_J_V AREAS(HOST VAR INCLUDE)
      *%****************************** *
      *%   EXEC SQL
      *%       INCLUDE CBHV4204
CPYNME     EXEC SQL
CPYNME         INCLUDE HVAPJ
CPYNME     END-EXEC.
      *%   END-EXEC.

      *%****************************** *
      *%DOC_DOCUMENT_V AREAS(HOST VAR INCLUDE)
      *%****************************** *
      *%   EXEC SQL
      *%       INCLUDE CBHV4203
CPYNME     EXEC SQL
CPYNME         INCLUDE HVDOC
CPYNME     END-EXEC.
      *%   END-EXEC.

      *%****************************** *
      *%APL_APRVL_LVL_V AREAS(HOST VAR INCLUDE)
      *%****************************** *
      *%   EXEC SQL
      *%       INCLUDE CBHV4205
CPYNME     EXEC SQL
CPYNME         INCLUDE HVAPL
CPYNME     END-EXEC.
      *%   END-EXEC.

      *%****************************** *
      *%APH_APRVL_HDR_V AREAS(HOST VAR INCLUDE)
      *%****************************** *
      *%   EXEC SQL
      *%       INCLUDE CBHV4212
CPYNME     EXEC SQL
CPYNME         INCLUDE HVAPH
CPYNME     END-EXEC.
      *%   END-EXEC.

      *%****************************** *
      *%APD_APRVL_AUD_V AREAS(HOST VAR INCLUDE)
      *%****************************** *
      *%   EXEC SQL
      *%       INCLUDE CBHV4214
CPYNME     EXEC SQL
CPYNME         INCLUDE HVAPD
CPYNME     END-EXEC.
      *%   END-EXEC.



       PROCEDURE DIVISION.
      /
      *%-------------------------------------------------------------- *
      *%                                                               *
      *%              000-SQL-INITIALIZATION ROUTINE                   *
      *%                                                               *
      *%-------------------------------------------------------------- *
       000-SQL-INITIALIZATION.
           MOVE '000-SQL-INITIALIZATION' TO DBLINK-CURR-PARAGRAPH.
           ACCEPT DBLINK-RUN-DATE-2 FROM DATE.
           MOVE DBLINK-RUN-DATE-2-MO TO DBLINK-RUN-DATE-MO.
           MOVE DBLINK-RUN-DATE-2-DY TO DBLINK-RUN-DATE-DY.
           MOVE DBLINK-RUN-DATE-2-YR TO DBLINK-RUN-DATE-YR.
           ACCEPT DBLINK-TIME FROM TIME.
           MOVE DBLINKX-NULL-DB2-DATE-ISO TO DBLINK-DEFAULT-DATE.
           MOVE '0001-01-01' TO DBLINK-LOW-DATE.
           MOVE '9999-12-31' TO DBLINK-HIGH-DATE.
           MOVE DBLINKX-NULL-DB2-TIME-ISO TO DBLINK-DEFAULT-TIME.
           MOVE '00.00.01' TO DBLINK-LOW-TIME.
           MOVE '23.59.59' TO DBLINK-HIGH-TIME.
       000-SQL-INITIALIZATION-EXIT.
           EXIT.


      ****************************************************************
      *  THIS PARAGRAPH WILL CONTROL THE THREE PROCESSES
      *    1) INITIALIZE
      *    2) PROCESS THE DATABASE DATA
      *    3) PERFORM END OF PROCESSING.
      ****************************************************************
       0000-MAINLINE SECTION.

           PERFORM 1000-INIT-PROCESS   THRU 1000-EXIT.

           PERFORM 2000-MAIN-PROCESS   THRU 2000-EXIT
             UNTIL END-OF-FILE.

           PERFORM 9000-END-OF-PROGRAM THRU 9000-EXIT.

      *%   FINISH.
           MOVE 0001 TO DBLINK-CURR-IO-NUM
           MOVE +0 TO SQLCODE
           MOVE ZERO TO ERROR-STATUS
           PERFORM 986-RESET-KEYS
              THRU 986-RESET-KEYS-EXIT
           PERFORM 996-COMMIT
              THRU 996-COMMIT-EXIT
           PERFORM 999-SQL-STATUS
              THRU 999-SQL-STATUS-EXIT.

           GOBACK.
      /
      ******************************************************************
      * THIS PARAGRAPH DOES THE INITIAL PROCESSING
      ******************************************************************
       1000-INIT-PROCESS.

           MOVE 'UTAU350' TO PROGRAM-NAME.

           OPEN INPUT  TRAVEL-AGENCY-FILE.
           OPEN OUTPUT CONTROL-REPORT-FILE.

           MOVE FUNCTION CURRENT-DATE(1:8) TO WS-SYS-DATE.
           MOVE WS-SYS-DATE-YY    TO WS-RPT-TRANS-DATE-YY.
           MOVE WS-SYS-DATE-MM    TO WS-RPT-TRANS-DATE-MM.
           MOVE WS-SYS-DATE-DD    TO WS-RPT-TRANS-DATE-DD.
           MOVE WS-RPT-TRANS-DATE TO CL2-RUN-DATE.

           COPY PDTIMEC2.
           MOVE TIME-HH           TO CL2-RUN-TIME-HH.
           MOVE TIME-MM           TO CL2-RUN-TIME-MM.
           MOVE TIME-SS           TO CL2-RUN-TIME-SS.

           PERFORM 8010-PRINT-CONTROL-RPT-HDL    THRU 8010-EXIT.

           MOVE WHEN-COMPILED TO COMPILED-DATA.
           INSPECT COMPILED-DATA-TIME REPLACING ALL '.' BY ':'.
           MOVE SPACES        TO CONTROL-REPORT-DATA.
           STRING  'PROGRAM COMPILED ',
                   COMPILED-DATA-DATE,
                   ' AT ',
                   COMPILED-DATA-TIME
                   DELIMITED BY SIZE INTO CONTROL-REPORT-DATA.

           PERFORM 8000-PRINT-CONTROL-RPT THRU 8000-EXIT.

      *%   BIND RUN-UNIT.
           MOVE 0002 TO DBLINK-CURR-IO-NUM
           MOVE +0 TO SQLCODE
           MOVE ZERO TO ERROR-STATUS
           PERFORM 986-RESET-KEYS
              THRU 986-RESET-KEYS-EXIT.
      *%   BIND R4207-APRVD.
           MOVE 0003 TO DBLINK-CURR-IO-NUM
           MOVE +0 TO SQLCODE
           MOVE ZERO TO ERROR-STATUS.
      *%   BIND R4404-ADVNC.
           MOVE 0004 TO DBLINK-CURR-IO-NUM
           MOVE +0 TO SQLCODE
           MOVE ZERO TO ERROR-STATUS.
      *%   BIND R4203-DOCUMENT.
           MOVE 0005 TO DBLINK-CURR-IO-NUM
           MOVE +0 TO SQLCODE
           MOVE ZERO TO ERROR-STATUS.
      *%   BIND R4204-APRVL-J.
           MOVE 0006 TO DBLINK-CURR-IO-NUM
           MOVE +0 TO SQLCODE
           MOVE ZERO TO ERROR-STATUS.
      *%   BIND R4205-APRVL-LVL.
           MOVE 0007 TO DBLINK-CURR-IO-NUM
           MOVE +0 TO SQLCODE
           MOVE ZERO TO ERROR-STATUS.
      *%   BIND R4212-APRVL-HDR.
           MOVE 0008 TO DBLINK-CURR-IO-NUM
           MOVE +0 TO SQLCODE
           MOVE ZERO TO ERROR-STATUS.
      *%   BIND R4214-APRVL-AUD.
           MOVE 0009 TO DBLINK-CURR-IO-NUM
           MOVE +0 TO SQLCODE
           MOVE ZERO TO ERROR-STATUS.
      *%   BIND R4215-APRV-TMPLT.
           MOVE 0010 TO DBLINK-CURR-IO-NUM
           MOVE +0 TO SQLCODE
           MOVE ZERO TO ERROR-STATUS.

      *%   READY F-TRVL          USAGE-MODE IS UPDATE.
           MOVE 0011 TO DBLINK-CURR-IO-NUM
           MOVE +0 TO SQLCODE
           MOVE ZERO TO ERROR-STATUS.
      *%   READY F-APPROVAL      USAGE-MODE IS UPDATE.
           MOVE 0012 TO DBLINK-CURR-IO-NUM
           MOVE +0 TO SQLCODE
           MOVE ZERO TO ERROR-STATUS.
      *%   READY F-INDX-APRVL    USAGE-MODE IS UPDATE.
           MOVE 0013 TO DBLINK-CURR-IO-NUM
           MOVE +0 TO SQLCODE
           MOVE ZERO TO ERROR-STATUS.
      *%   READY F-INDX-UNAPRVD  USAGE-MODE IS UPDATE.
           MOVE 0014 TO DBLINK-CURR-IO-NUM
           MOVE +0 TO SQLCODE
           MOVE ZERO TO ERROR-STATUS.

           PERFORM 1200-READ-TRANSACTION-FILE  THRU 1200-EXIT.

       1000-EXIT.
            EXIT.

      ******************************************************************
      * THIS PARAGRAPH READS THE TRANSACTION FILE
      ******************************************************************
       1200-READ-TRANSACTION-FILE.

           READ TRAVEL-AGENCY-FILE
              AT END
                 MOVE 'Y' TO WS-END-OF-FILE
                 GO TO 1200-EXIT.

           IF FD-RECORD-IND     = '1'
              MOVE SPACES TO WS-AGENCY-HDR-REC
              MOVE TRAVEL-AGENCY-RECORD   TO WS-AGENCY-HDR-REC
              ADD 1 TO WS-HDR-REC-READ
                       WS-TOT-REC-READ.

           IF FD-RECORD-IND    = '2'
              MOVE SPACES TO WS-AGENCY-DTL-REC
              MOVE TRAVEL-AGENCY-RECORD   TO WS-AGENCY-DTL-REC
              ADD 1 TO WS-DTL-REC-READ
                       WS-TOT-REC-READ.

       1200-EXIT.
           EXIT.

      ******************************************************************
      * THIS PARAGRAPH CONTROLS THE MAIN PROCESSING
      ******************************************************************
       2000-MAIN-PROCESS.

           IF FD-RECORD-IND = '2'
            AND WS-POSTED-FLAG = 'Y'
              PERFORM 3000-GET-ADVNC-RECORD   THRU 3000-EXIT.

           PERFORM 1200-READ-TRANSACTION-FILE THRU 1200-EXIT.

       2000-EXIT.
           EXIT.

      ******************************************************************
      * THIS PARAGRAPH GETS THE ADVANCE RECORD
      ******************************************************************
       3000-GET-ADVNC-RECORD.

           MOVE WS-ADVNC-NMBR          TO ADVNC-NMBR-4404.
           MOVE '01'                   TO UNVRS-CODE-4404.

      *%   OBTAIN CALC R4404-ADVNC
           MOVE 0015 TO DBLINK-CURR-IO-NUM
           MOVE DBLINK-OBTAIN TO DBLINK-TYPE-SELECT
           MOVE DBLINK-CALC TO DBLINK-TYPE-GET
           MOVE ADVNC-NMBR-4404 OF R4404-ADVNC TO ADV-ADVNC-NBR
           PERFORM 906-05-R4404-ADVNC
              THRU 906-05-R4404-ADVNC-EXIT
      *%          ON DB-REC-NOT-FOUND
                  IF NOT DB-REC-NOT-FOUND
                      PERFORM 999-SQL-STATUS
                         THRU 999-SQL-STATUS-EXIT
                  ELSE
                     GO TO 3000-EXIT.

           IF  APRVL-IND-4404 = 'N'
               PERFORM 4000-GET-R4212-RECORD   THRU 4000-EXIT
               MOVE 'Y'                    TO CMPLT-IND-4404
               MOVE 'Y'                    TO APRVL-IND-4404
      *%       FIND CURRENT R4404-ADVNC.
               MOVE 0016 TO DBLINK-CURR-IO-NUM
               MOVE DBLINK-FIND TO DBLINK-TYPE-SELECT
               MOVE DBLINK-CURR TO DBLINK-TYPE-GET
               IF DBLINK-R4404-ADVNC-KEY = SPACES
                   MOVE DBLINK-NO-CURRENCY TO ERROR-STATUS
                   MOVE +100 TO SQLCODE
               ELSE
                   MOVE ZERO TO ERROR-STATUS
                   MOVE 0 TO SQLCODE
                   MOVE DBLINK-R4404-ADVNC-01 TO ADV-ADVNC-NBR
                   PERFORM 906-05-R4404-ADVNC
                      THRU 906-05-R4404-ADVNC-EXIT
               END-IF
               PERFORM 999-SQL-STATUS
                  THRU 999-SQL-STATUS-EXIT.
      *%       MODIFY R4404-ADVNC.
               MOVE 0017 TO DBLINK-CURR-IO-NUM
               MOVE DBLINK-MODIFY TO DBLINK-TYPE-SELECT
               MOVE DBLINK-MODIFY TO DBLINK-TYPE-GET
               PERFORM 976-FROM-R4404-ADVNC
                  THRU 976-FROM-R4404-ADVNC-EXIT
               PERFORM 904-UPDT-R4404-ADVNC
                  THRU 904-UPDT-R4404-ADVNC-EXIT
               PERFORM 999-SQL-STATUS
                  THRU 999-SQL-STATUS-EXIT.

       3000-EXIT.
            EXIT.

      ******************************************************************
      * THIS PARAGRAPH GETS THE ADVANCE RECORD AND CONTROLS R4212 AND
      * R4214 PROCESSING
      ******************************************************************
       4000-GET-R4212-RECORD.

           MOVE '01'                  TO UNVRS-CODE-4212.
           MOVE SPACES                TO FSCL-YR-4212.
           MOVE 0015                  TO SEQ-NMBR-4212.
           MOVE ADVNC-NMBR-4404       TO DCMNT-NMBR-4212.
           MOVE SPACES                TO CHNG-SEQ-NMBR-4212.

      *%   OBTAIN CALC R4212-APRVL-HDR
           MOVE 0018 TO DBLINK-CURR-IO-NUM
           MOVE DBLINK-OBTAIN TO DBLINK-TYPE-SELECT
           MOVE DBLINK-CALC TO DBLINK-TYPE-GET
           MOVE FSCL-YR-4212 OF R4212-APRVL-HDR TO APH-FSCL-YR
           MOVE SEQ-NMBR-4212 OF R4212-APRVL-HDR TO APH-SEQ-NBR
           MOVE DCMNT-NMBR-4212 OF R4212-APRVL-HDR TO APH-DOC-NBR
           MOVE CHNG-SEQ-NMBR-4212 OF R4212-APRVL-HDR TO
               APH-CHNG-SEQ-NBR
           PERFORM 906-05-R4212-APRVL-HDR
              THRU 906-05-R4212-APRVL-HDR-EXIT
      *%       ON DB-REC-NOT-FOUND
               IF NOT DB-REC-NOT-FOUND
                   PERFORM 999-SQL-STATUS
                      THRU 999-SQL-STATUS-EXIT
               ELSE
               GO TO 4000-EXIT.

           MOVE 'Y'                   TO APRVL-IND-4212.

      *%   MODIFY R4212-APRVL-HDR
           MOVE 0019 TO DBLINK-CURR-IO-NUM
           MOVE DBLINK-MODIFY TO DBLINK-TYPE-SELECT
           MOVE DBLINK-MODIFY TO DBLINK-TYPE-GET
           PERFORM 976-FROM-R4212-APRVL-HDR
              THRU 976-FROM-R4212-APRVL-HDR-EXIT
           PERFORM 904-UPDT-R4212-APRVL-HDR
              THRU 904-UPDT-R4212-APRVL-HDR-EXIT
           PERFORM 999-SQL-STATUS
              THRU 999-SQL-STATUS-EXIT

           PERFORM 5000-STORE-4214-RECORD     THRU 5000-EXIT.

           PERFORM 6000-DISC-4212-RECORD      THRU 6000-EXIT.

           PERFORM 7000-STORE-4207-RECORD     THRU 7000-EXIT.

       4000-EXIT.
           EXIT.

      ******************************************************************
      * THIS PARAGRAPH STORES THE R4214 RECORD
      ******************************************************************
       5000-STORE-4214-RECORD.

           INITIALIZE R4214-APRVL-AUD.

           MOVE 001        TO    LEVEL-SEQ-NMBR-4214.
           MOVE 'UTAU350'  TO    APRVL-CODE-4214.
           MOVE 'SYSTEM'   TO    ALTRNT-APRVL-CODE-4214.
           MOVE WS-SYSTEM-DATE TO   APRVL-DATE-4214.
           MOVE PRE-EDIT-TIME  TO   APRVL-TIME-4214.
      *%   OBTAIN R4214-APRVL-AUD WITHIN S-4212-4214
      *%            USING LEVEL-SEQ-NMBR-4214
           MOVE 0020 TO DBLINK-CURR-IO-NUM
           MOVE DBLINK-OBTAIN TO DBLINK-TYPE-SELECT
           MOVE DBLINK-SORTED TO DBLINK-TYPE-GET
           MOVE LEVEL-SEQ-NMBR-4214 TO DBLINK-WS-S-4212-4214-KEY
           MOVE DBLINK-WS-S-4212-4214-05 TO DBLINK-S-4212-4214-05
           PERFORM 906-02-S-4212-4214
              THRU 906-02-S-4212-4214-EXIT
      *%            ON DB-REC-NOT-FOUND
                    IF NOT DB-REC-NOT-FOUND
                        PERFORM 999-SQL-STATUS
                           THRU 999-SQL-STATUS-EXIT
                    ELSE
                    NEXT SENTENCE.

           IF DB-REC-NOT-FOUND
      *%      STORE R4214-APRVL-AUD
              MOVE 0021 TO DBLINK-CURR-IO-NUM
              MOVE DBLINK-STORE TO DBLINK-TYPE-SELECT
              MOVE DBLINK-STORE TO DBLINK-TYPE-GET
              PERFORM 976-FROM-R4214-APRVL-AUD
                 THRU 976-FROM-R4214-APRVL-AUD-EXIT
              PERFORM 903-S-4212-4214
                 THRU 903-S-4212-4214-EXIT
              PERFORM 904-ISRT-R4214-APRVL-AUD
                 THRU 904-ISRT-R4214-APRVL-AUD-EXIT
              PERFORM 999-SQL-STATUS
                 THRU 999-SQL-STATUS-EXIT
           ELSE
      *%      MODIFY R4214-APRVL-AUD.
              MOVE 0022 TO DBLINK-CURR-IO-NUM
              MOVE DBLINK-MODIFY TO DBLINK-TYPE-SELECT
              MOVE DBLINK-MODIFY TO DBLINK-TYPE-GET
              PERFORM 976-FROM-R4214-APRVL-AUD
                 THRU 976-FROM-R4214-APRVL-AUD-EXIT
              PERFORM 904-UPDT-R4214-APRVL-AUD
                 THRU 904-UPDT-R4214-APRVL-AUD-EXIT
              PERFORM 999-SQL-STATUS
                 THRU 999-SQL-STATUS-EXIT.

       5000-EXIT.
           EXIT.

      ******************************************************************
      * THIS PARAGRAPH DISCONNECTS THE R4212 RECORD
      ******************************************************************
       6000-DISC-4212-RECORD.

      *%   OBTAIN CURRENT R4212-APRVL-HDR.
           MOVE 0023 TO DBLINK-CURR-IO-NUM
           MOVE DBLINK-OBTAIN TO DBLINK-TYPE-SELECT
           MOVE DBLINK-CURR TO DBLINK-TYPE-GET
           IF DBLINK-R4212-APRVL-HDR-KEY = SPACES
               MOVE DBLINK-NO-CURRENCY TO ERROR-STATUS
               MOVE +100 TO SQLCODE
           ELSE
               MOVE ZERO TO ERROR-STATUS
               MOVE 0 TO SQLCODE
               MOVE DBLINK-R4212-APRVL-HDR-01 TO APH-FSCL-YR
               MOVE DBLINK-R4212-APRVL-HDR-02 TO APH-SEQ-NBR
               MOVE DBLINK-R4212-APRVL-HDR-03 TO APH-DOC-NBR
               MOVE DBLINK-R4212-APRVL-HDR-04 TO APH-CHNG-SEQ-NBR
               PERFORM 906-05-R4212-APRVL-HDR
                  THRU 906-05-R4212-APRVL-HDR-EXIT
           END-IF
           PERFORM 999-SQL-STATUS
              THRU 999-SQL-STATUS-EXIT.

      *%   IF S-INDX-APRVL MEMBER
           MOVE 0024 TO DBLINK-CURR-IO-NUM
           MOVE DBLINK-IF TO DBLINK-TYPE-SELECT
           MOVE DBLINK-MEMBER TO DBLINK-TYPE-GET
           IF DBLINK-S-INDX-APRVL-F = DBLINK-MEMBER
               MOVE ZERO TO ERROR-STATUS
           ELSE
               MOVE DBLINK-AREA-NOT-READY-IF TO ERROR-STATUS
           END-IF
           IF ERROR-STATUS = ZERO
      *%      DISCONNECT R4212-APRVL-HDR FROM S-INDX-APRVL.
              MOVE 0025 TO DBLINK-CURR-IO-NUM
              MOVE DBLINK-MODIFY TO DBLINK-TYPE-GET
              MOVE 'N' TO APH-IDX-APRVL-SETF
              PERFORM 904-DIS-S-INDX-APRVL
                 THRU 904-DIS-S-INDX-APRVL-EXIT
              PERFORM 999-SQL-STATUS
                 THRU 999-SQL-STATUS-EXIT
              MOVE 'N' TO DBLINK-S-INDX-APRVL-F.

      *%   IF S-INDX-UNAPRVD MEMBER
           MOVE 0026 TO DBLINK-CURR-IO-NUM
           MOVE DBLINK-IF TO DBLINK-TYPE-SELECT
           MOVE DBLINK-MEMBER TO DBLINK-TYPE-GET
           IF DBLINK-S-INDX-UNAPRVD-F = DBLINK-MEMBER
               MOVE ZERO TO ERROR-STATUS
           ELSE
               MOVE DBLINK-AREA-NOT-READY-IF TO ERROR-STATUS
           END-IF
           IF ERROR-STATUS = ZERO
      *%      DISCONNECT R4212-APRVL-HDR FROM S-INDX-UNAPRVD.
              MOVE 0027 TO DBLINK-CURR-IO-NUM
              MOVE DBLINK-MODIFY TO DBLINK-TYPE-GET
              MOVE 'N' TO APH-IDX-UNAPRVD-SETF
              PERFORM 904-DIS-S-INDX-UNAPRVD
                 THRU 904-DIS-S-INDX-UNAPRVD-EXIT
              PERFORM 999-SQL-STATUS
                 THRU 999-SQL-STATUS-EXIT
              MOVE 'N' TO DBLINK-S-INDX-UNAPRVD-F.

      *%   IF S-4205-4212  MEMBER
           MOVE 0028 TO DBLINK-CURR-IO-NUM
           MOVE DBLINK-IF TO DBLINK-TYPE-SELECT
           MOVE DBLINK-MEMBER TO DBLINK-TYPE-GET
           IF DBLINK-S-4205-4212-F = DBLINK-MEMBER
               MOVE ZERO TO ERROR-STATUS
           ELSE
               MOVE DBLINK-AREA-NOT-READY-IF TO ERROR-STATUS
           END-IF
           IF ERROR-STATUS = ZERO
      *%       DISCONNECT R4212-APRVL-HDR FROM S-4205-4212.
               MOVE 0029 TO DBLINK-CURR-IO-NUM
               MOVE DBLINK-MODIFY TO DBLINK-TYPE-GET
               MOVE 'N' TO APH-APL-SETF
               PERFORM 904-DIS-S-4205-4212
                  THRU 904-DIS-S-4205-4212-EXIT
               PERFORM 999-SQL-STATUS
                  THRU 999-SQL-STATUS-EXIT
               MOVE 'N' TO DBLINK-S-4205-4212-F.

       6000-EXIT.
           EXIT.

      ******************************************************************
      * THIS PARAGRAPH STORES THE R4207 RECORD
      ******************************************************************
       7000-STORE-4207-RECORD.

           INITIALIZE R4207-APRVD.
           MOVE '01'                          TO UNVRS-CODE-4207.
           MOVE 0015                          TO SEQ-NMBR-4207.
           MOVE ADVNC-NMBR-4404               TO DCMNT-NMBR-4207.
           MOVE SPACES                        TO CHNG-SEQ-NMBR-4207.
           MOVE '01'                          TO BANK-ACCT-CODE-4207.
           MOVE SPACES                        TO RVRSL-IND-4207.
           MOVE ADVNC-DATE-4404               TO ACTVY-DATE-4207.

      *%   OBTAIN CALC R4207-APRVD
           MOVE 0030 TO DBLINK-CURR-IO-NUM
           MOVE DBLINK-OBTAIN TO DBLINK-TYPE-SELECT
           MOVE DBLINK-CALC TO DBLINK-TYPE-GET
           MOVE SEQ-NMBR-4207 OF R4207-APRVD TO APR-SEQ-NBR
           MOVE DCMNT-NMBR-4207 OF R4207-APRVD TO APR-DOC-NBR
           MOVE CHNG-SEQ-NMBR-4207 OF R4207-APRVD TO APR-CHNG-SEQ-NBR
           MOVE BANK-ACCT-CODE-4207 OF R4207-APRVD TO APR-BANK-ACCT-CD
           MOVE RVRSL-IND-4207 OF R4207-APRVD TO APR-RVRSL-IND
           PERFORM 906-05-R4207-APRVD
              THRU 906-05-R4207-APRVD-EXIT
      *%       ON DB-REC-NOT-FOUND
               IF NOT DB-REC-NOT-FOUND
                   PERFORM 999-SQL-STATUS
                      THRU 999-SQL-STATUS-EXIT
               ELSE
                  NEXT SENTENCE.

           IF DB-REC-NOT-FOUND
              ADD 1                           TO  WS-R4207-WRITTEN
              ADD 1                           TO  WS-COMMIT-CTR
      *%      STORE R4207-APRVD
              MOVE 0031 TO DBLINK-CURR-IO-NUM
              MOVE DBLINK-STORE TO DBLINK-TYPE-SELECT
              MOVE DBLINK-STORE TO DBLINK-TYPE-GET
              PERFORM 976-FROM-R4207-APRVD
                 THRU 976-FROM-R4207-APRVD-EXIT
              PERFORM 904-ISRT-R4207-APRVD
                 THRU 904-ISRT-R4207-APRVD-EXIT
              PERFORM 999-SQL-STATUS
                 THRU 999-SQL-STATUS-EXIT
              IF  WS-COMMIT-CTR  =   50
      *%          COMMIT
                  MOVE 0032 TO DBLINK-CURR-IO-NUM
                  MOVE +0 TO SQLCODE
                  MOVE ZERO TO ERROR-STATUS
                  PERFORM 996-COMMIT
                     THRU 996-COMMIT-EXIT
                  PERFORM 999-SQL-STATUS
                     THRU 999-SQL-STATUS-EXIT
                  MOVE ZERO                   TO WS-COMMIT-CTR.

       7000-EXIT.
           EXIT.

      ******************************************************************
      * THIS PARAGRAPH PRINTS THE CONTROL REPORT
      ******************************************************************
       8000-PRINT-CONTROL-RPT.

           IF WS-CNTL-RPT-LINE-CNT > 55
              PERFORM 8010-PRINT-CONTROL-RPT-HDL THRU 8010-EXIT.

           WRITE CONTROL-REPORT-RECORD FROM
                 CONTROL-REPORT-DATA AFTER 2.
           MOVE SPACES TO CONTROL-REPORT-DATA.

           ADD 2 TO WS-CNTL-RPT-LINE-CNT.

       8000-EXIT.
           EXIT.

      ******************************************************************
      * THIS PARAGRAPH PRINTS THE HEADINGS OF THE CONTROL REPORT
      ******************************************************************
       8010-PRINT-CONTROL-RPT-HDL.

           ADD 1  TO WS-CNTL-RPT-PAGE-CNT.
           MOVE WS-CNTL-RPT-PAGE-CNT TO CL1-PAGE-NUMBER.

           MOVE CONTROL-LINE-1       TO CONTROL-REPORT-DATA.
           WRITE CONTROL-REPORT-RECORD FROM
                 CONTROL-REPORT-DATA AFTER TOP-OF-PAGE.

           MOVE CONTROL-LINE-2       TO CONTROL-REPORT-DATA.
           WRITE CONTROL-REPORT-RECORD FROM CONTROL-REPORT-DATA.

           MOVE CONTROL-LINE-3       TO CONTROL-REPORT-DATA.
           WRITE CONTROL-REPORT-RECORD FROM
                 CONTROL-REPORT-DATA.

           MOVE 3                    TO WS-CNTL-RPT-LINE-CNT.

       8010-EXIT.
           EXIT.

      /
      ******************************************************************
      * THIS PARAGRAPH WILL HANDLE END OF PROGRAM PROCESSING
      ******************************************************************
       9000-END-OF-PROGRAM.

           COPY PDTIMEC2.

           MOVE 'PROGRAM STATUS' TO CONTROL-REPORT-DATA.
           WRITE CONTROL-REPORT-RECORD FROM
                 CONTROL-REPORT-DATA AFTER 2.

           STRING 'DOCUMENT HEADER RECORDS READ..........: ',
                  WS-HDR-REC-READ
                  DELIMITED BY SIZE INTO CONTROL-REPORT-DATA.
           WRITE CONTROL-REPORT-RECORD FROM
                 CONTROL-REPORT-DATA AFTER 2.

           STRING 'DOCUMENT TRANSACTION RECORDS READ.....: ',
                  WS-DTL-REC-READ
                  DELIMITED BY SIZE INTO CONTROL-REPORT-DATA.
           WRITE CONTROL-REPORT-RECORD FROM
                 CONTROL-REPORT-DATA AFTER 2.

           STRING 'DOCUMENT TRANSACTION RECORDS LOADED...: ',
                   WS-R4207-WRITTEN
                  DELIMITED BY SIZE INTO CONTROL-REPORT-DATA.
           WRITE CONTROL-REPORT-RECORD FROM
                 CONTROL-REPORT-DATA AFTER 2.

           STRING   'PROGRAM HAS BEEN SUCCESSFULLY COMPLETED AT ',
                    TIME-HH, ':',
                    TIME-MM
                    DELIMITED BY SIZE INTO CONTROL-REPORT-DATA.
           WRITE CONTROL-REPORT-RECORD FROM
                 CONTROL-REPORT-DATA AFTER 2.

           MOVE SPACES               TO CONTROL-REPORT-DATA.
           MOVE ALL 'END OF REPORT ' TO CONTROL-REPORT-DATA.
           WRITE CONTROL-REPORT-RECORD FROM
                 CONTROL-REPORT-DATA AFTER 2.

           CLOSE TRAVEL-AGENCY-FILE
                 CONTROL-REPORT-FILE.

       9000-EXIT.
           EXIT.

      ******************************************************************
      * THIS PARAGRAPH WILL CAUSE THE PROGRAM TO ABORT DUE TO AN IDMS
      * ERROR.
      ******************************************************************

      *COPY IDMS IDMS-STATUS.

      ******************************************************************
      * THIS PARAGRAPH WILL BE PERFORMED WHEN THE PROGRAM IS ABOUT
      * TO ABORT DUE AN IDMS ERROR.
      ******************************************************************

       IDMS-ABORT SECTION.

           WRITE CONTROL-REPORT-RECORD.
           DISPLAY 'PROGRAM UTAU350 ABORTING'.

       IDMS-ABORT-EXIT.
           EXIT.
      /
      *%-------------------------------------------------------------- *
      *%                                                               *
      *%                   900-START-SUBROUTINES                       *
      *%                                                               *
      *%-------------------------------------------------------------- *
       900-START-SUBROUTINES SECTION.
      *    CONVERT/DB SUBROUTINES FOLLOW
       900-START-SUBROUTINES-EXIT.
           EXIT.

      /
      *%-------------------------------------------------------------- *
      *%                                                               *
      *%                  903-S-4212-4214 ROUTINE                      *
      *%                                                               *
      *%-------------------------------------------------------------- *
       903-S-4212-4214.
           MOVE '903-S-4212-4214' TO DBLINK-CURR-PARAGRAPH.
           MOVE 'R4214-APRVL-AUD' TO ERROR-RECORD.
           MOVE DBLINK-S-4212-4214-01 TO APD-FK-APH-FSCL-YR.
           MOVE DBLINK-S-4212-4214-02 TO APD-FK-APH-SEQ-NBR.
           MOVE DBLINK-S-4212-4214-03 TO APD-FK-APH-DOC-NBR.
           MOVE DBLINK-S-4212-4214-04 TO APD-FK-APH-CHG-SEQ-NBR.
       903-S-4212-4214-EXIT.
           EXIT.
      /
      *%-------------------------------------------------------------- *
      *%                                                               *
      *%               904-ISRT-R4207-APRVD ROUTINE                    *
      *%                                                               *
      *%-------------------------------------------------------------- *
       904-ISRT-R4207-APRVD.
           MOVE '904-ISRT-R4207-APRVD' TO DBLINK-CURR-PARAGRAPH.
           MOVE 'R4207-APRVD' TO ERROR-RECORD.
           MOVE ZERO TO ERROR-STATUS.
           MOVE ' ' TO DBLINK-SET-NAME-WORK.
           MOVE ' ' TO DBLINK-CURSOR-NAME-WORK.
           EXEC SQL
               INSERT INTO APR_APRVD_V
                 (USER_CD
                 ,LAST_ACTVY_DT
                 ,UNVRS_CD
                 ,SEQ_NBR
                 ,DOC_NBR
                 ,CHNG_SEQ_NBR
                 ,BANK_ACCT_CD
                 ,RVRSL_IND
                 ,ACTVY_DT
               )
               VALUES
                 (:APR-USER-CD
                 ,:APR-LAST-ACTVY-DT
                 ,:APR-UNVRS-CD
                 ,:APR-SEQ-NBR
                 ,:APR-DOC-NBR
                 ,:APR-CHNG-SEQ-NBR
                 ,:APR-BANK-ACCT-CD
                 ,:APR-RVRSL-IND
                 ,:APR-ACTVY-DT
               )
           END-EXEC.
           IF SQLCODE = -803
               MOVE DBLINK-STORE-DUP TO ERROR-STATUS
               GO TO 904-ISRT-R4207-APRVD-EXIT
           END-IF.
           IF SQLCODE NOT = 0
               MOVE DBLINK-DB2-ERROR TO ERROR-STATUS
               GO TO 904-ISRT-R4207-APRVD-EXIT
           END-IF.
           MOVE 'R4207-APRVD' TO DBLINK-RECORD-MADE-CURRENT.
           PERFORM 985-CURR-R4207-APRVD
              THRU 985-CURR-R4207-APRVD-EXIT.
       904-ISRT-R4207-APRVD-EXIT.
           EXIT.
      /
      *%-------------------------------------------------------------- *
      *%                                                               *
      *%             904-ISRT-R4214-APRVL-AUD ROUTINE                  *
      *%                                                               *
      *%-------------------------------------------------------------- *
       904-ISRT-R4214-APRVL-AUD.
           MOVE '904-ISRT-R4214-APRVL-AUD' TO DBLINK-CURR-PARAGRAPH.
           MOVE 'R4214-APRVL-AUD' TO ERROR-RECORD.
           MOVE ZERO TO ERROR-STATUS.
           MOVE ' ' TO DBLINK-SET-NAME-WORK.
           MOVE ' ' TO DBLINK-CURSOR-NAME-WORK.
           EXEC SQL
               INSERT INTO APD_APRVL_AUD_V
                 (USER_CD
                 ,LAST_ACTVY_DT
                 ,LEVEL_SEQ_NBR
                 ,APRVL_CD
                 ,ALT_APRVL_CD
                 ,APRVL_DT
                 ,APRVL_TIME
                 ,SRC_IND
                 ,PAN_IND
                 ,FK_APH_FSCL_YR
                 ,FK_APH_SEQ_NBR
                 ,FK_APH_DOC_NBR
                 ,FK_APH_CHG_SEQ_NBR
               )
               VALUES
                 (:APD-USER-CD
                 ,:APD-LAST-ACTVY-DT
                 ,:APD-LEVEL-SEQ-NBR
                 ,:APD-APRVL-CD
                 ,:APD-ALT-APRVL-CD
                 ,:APD-APRVL-DT
                 ,:APD-APRVL-TIME
                 ,:APD-SRC-IND
                 ,:APD-PAN-IND
                 ,:APD-FK-APH-FSCL-YR
                 ,:APD-FK-APH-SEQ-NBR
                 ,:APD-FK-APH-DOC-NBR
                 ,:APD-FK-APH-CHG-SEQ-NBR
               )
           END-EXEC.
           IF SQLCODE = -803
               MOVE DBLINK-STORE-DUP TO ERROR-STATUS
               GO TO 904-ISRT-R4214-APRVL-AUD-EXIT
           END-IF.
           IF SQLCODE NOT = 0
               MOVE DBLINK-DB2-ERROR TO ERROR-STATUS
               GO TO 904-ISRT-R4214-APRVL-AUD-EXIT
           END-IF.
           MOVE 'R4214-APRVL-AUD' TO DBLINK-RECORD-MADE-CURRENT.
           PERFORM 985-CURR-R4214-APRVL-AUD
              THRU 985-CURR-R4214-APRVL-AUD-EXIT.
       904-ISRT-R4214-APRVL-AUD-EXIT.
           EXIT.
      /
      *%-------------------------------------------------------------- *
      *%                                                               *
      *%             904-UPDT-R4212-APRVL-HDR ROUTINE                  *
      *%                                                               *
      *%-------------------------------------------------------------- *
       904-UPDT-R4212-APRVL-HDR.
           MOVE '904-UPDT-R4212-APRVL-HDR' TO DBLINK-CURR-PARAGRAPH.
           MOVE 'R4212-APRVL-HDR' TO ERROR-RECORD.
           MOVE ZERO TO ERROR-STATUS.
           IF (APH-FSCL-YR NOT = DBLINK-R4212-APRVL-HDR-01)
             OR (APH-SEQ-NBR NOT = DBLINK-R4212-APRVL-HDR-02)
             OR (APH-DOC-NBR NOT = DBLINK-R4212-APRVL-HDR-03)
             OR (APH-CHNG-SEQ-NBR NOT = DBLINK-R4212-APRVL-HDR-04)
               MOVE '9998' TO ERROR-STATUS
               MOVE -999 TO SQLCODE
               GO TO 904-UPDT-R4212-APRVL-HDR-EXIT
           END-IF.
           EXEC SQL
               UPDATE APH_APRVL_HDR_V
               SET  USER_CD =
                 :APH-USER-CD
                   ,LAST_ACTVY_DT =
                 :APH-LAST-ACTVY-DT
                   ,UNVRS_CD =
                 :APH-UNVRS-CD
                   ,APRVL_IND =
                 :APH-APRVL-IND
                   ,APRVL_ID =
                 :APH-APRVL-ID
                   ,DOC_AMT =
                 :APH-DOC-AMT
                   ,USER_ID =
                 :APH-USER-ID
                   ,APV_TPLT_CD =
                 :APH-APV-TPLT-CD
                   ,ACTG_PRD =
                 :APH-ACTG-PRD
                   ,DOC_DT =
                 :APH-DOC-DT
                   ,PURGE_DT =
                 :APH-PURGE-DT
               WHERE FSCL_YR = :DBLINK-R4212-APRVL-HDR-01
                 AND SEQ_NBR = :DBLINK-R4212-APRVL-HDR-02
                 AND DOC_NBR = :DBLINK-R4212-APRVL-HDR-03
                 AND CHNG_SEQ_NBR = :DBLINK-R4212-APRVL-HDR-04
           END-EXEC.
           IF SQLCODE = -803
               MOVE DBLINK-MODIFY-DUP TO ERROR-STATUS
               GO TO 904-UPDT-R4212-APRVL-HDR-EXIT
           END-IF.
           IF SQLCODE NOT = 0
               MOVE DBLINK-DB2-ERROR TO ERROR-STATUS
               GO TO 904-UPDT-R4212-APRVL-HDR-EXIT
           END-IF.
       904-UPDT-R4212-APRVL-HDR-EXIT.
           EXIT.
      /
      *%-------------------------------------------------------------- *
      *%                                                               *
      *%             904-UPDT-R4214-APRVL-AUD ROUTINE                  *
      *%                                                               *
      *%-------------------------------------------------------------- *
       904-UPDT-R4214-APRVL-AUD.
           MOVE '904-UPDT-R4214-APRVL-AUD' TO DBLINK-CURR-PARAGRAPH.
           MOVE 'R4214-APRVL-AUD' TO ERROR-RECORD.
           MOVE ZERO TO ERROR-STATUS.
           EXEC SQL
               UPDATE APD_APRVL_AUD_V
               SET  USER_CD =
                 :APD-USER-CD
                   ,LAST_ACTVY_DT =
                 :APD-LAST-ACTVY-DT
                   ,LEVEL_SEQ_NBR =
                 :APD-LEVEL-SEQ-NBR
                   ,APRVL_CD =
                 :APD-APRVL-CD
                   ,ALT_APRVL_CD =
                 :APD-ALT-APRVL-CD
                   ,APRVL_DT =
                 :APD-APRVL-DT
                   ,APRVL_TIME =
                 :APD-APRVL-TIME
                   ,SRC_IND =
                 :APD-SRC-IND
                   ,PAN_IND =
                 :APD-PAN-IND
               WHERE FK_APH_FSCL_YR = :DBLINK-R4214-APRVL-AUD-01
                 AND FK_APH_SEQ_NBR = :DBLINK-R4214-APRVL-AUD-02
                 AND FK_APH_DOC_NBR = :DBLINK-R4214-APRVL-AUD-03
                 AND FK_APH_CHG_SEQ_NBR = :DBLINK-R4214-APRVL-AUD-04
                 AND LEVEL_SEQ_NBR = :DBLINK-R4214-APRVL-AUD-05
           END-EXEC.
           IF SQLCODE = -803
               MOVE DBLINK-MODIFY-DUP TO ERROR-STATUS
               GO TO 904-UPDT-R4214-APRVL-AUD-EXIT
           END-IF.
           IF SQLCODE NOT = 0
               MOVE DBLINK-DB2-ERROR TO ERROR-STATUS
               GO TO 904-UPDT-R4214-APRVL-AUD-EXIT
           END-IF.
           PERFORM 985-CURR-R4214-APRVL-AUD
              THRU 985-CURR-R4214-APRVL-AUD-EXIT.
       904-UPDT-R4214-APRVL-AUD-EXIT.
           EXIT.
      /
      *%-------------------------------------------------------------- *
      *%                                                               *
      *%               904-UPDT-R4404-ADVNC ROUTINE                    *
      *%                                                               *
      *%-------------------------------------------------------------- *
       904-UPDT-R4404-ADVNC.
           MOVE '904-UPDT-R4404-ADVNC' TO DBLINK-CURR-PARAGRAPH.
           MOVE 'R4404-ADVNC' TO ERROR-RECORD.
           MOVE ZERO TO ERROR-STATUS.
           EXEC SQL
               UPDATE ADV_ADVNC_V
               SET  USER_CD =
                 :ADV-USER-CD
                   ,LAST_ACTVY_DT =
                 :ADV-LAST-ACTVY-DT
                   ,UNVRS_CD =
                 :ADV-UNVRS-CD
                   ,ADVNC_NBR =
                 :ADV-ADVNC-NBR
                   ,ADVNC_DT =
                 :ADV-ADVNC-DT
                   ,ADVNC_AMT =
                 :ADV-ADVNC-AMT
                   ,ADVNC_STATUS =
                 :ADV-ADVNC-STATUS
                   ,ADR_TYP_CD =
                 :ADV-ADR-TYP-CD
                   ,CHECK_NBR =
                 :ADV-CHECK-NBR
                   ,CHECK_DT =
                 :ADV-CHECK-DT
                   ,CMPLT_IND =
                 :ADV-CMPLT-IND
                   ,APRVL_IND =
                 :ADV-APRVL-IND
                   ,CNCL_IND =
                 :ADV-CNCL-IND
                   ,CNCL_DT =
                 :ADV-CNCL-DT
                   ,HDR_ERROR_IND =
                 :ADV-HDR-ERROR-IND
                   ,HDR_CNTR_DTL =
                 :ADV-HDR-CNTR-DTL
                   ,ADVNC_TYP =
                 :ADV-ADVNC-TYP
                   ,RULE_CLS_CD =
                 :ADV-RULE-CLS-CD
                   ,COA_CD =
                 :ADV-COA-CD
                   ,ACCT_INDX_CD =
                 :ADV-ACCT-INDX-CD
                   ,FUND_CD =
                 :ADV-FUND-CD
                   ,ORGN_CD =
                 :ADV-ORGN-CD
                   ,ACCT_CD =
                 :ADV-ACCT-CD
                   ,PRGRM_CD =
                 :ADV-PRGRM-CD
                   ,ACTVY_CD =
                 :ADV-ACTVY-CD
                   ,LCTN_CD =
                 :ADV-LCTN-CD
                   ,BANK_ACCT_CD =
                 :ADV-BANK-ACCT-CD
                   ,NSF_OVRDE =
                 :ADV-NSF-OVRDE
                   ,CASH_IND =
                 :ADV-CASH-IND
                   ,BATCH_CHECK_IND =
                 :ADV-BATCH-CHECK-IND
                   ,MNL_CHECK_IND =
                 :ADV-MNL-CHECK-IND
                   ,FSCL_YR =
                 :ADV-FSCL-YR
                   ,PSTNG_PRD =
                 :ADV-PSTNG-PRD
                   ,IMMDT_CHECK_IND =
                 :ADV-IMMDT-CHECK-IND
               WHERE ADVNC_NBR = :DBLINK-R4404-ADVNC-01
           END-EXEC.
           IF SQLCODE = -803
               MOVE DBLINK-MODIFY-DUP TO ERROR-STATUS
               GO TO 904-UPDT-R4404-ADVNC-EXIT
           END-IF.
           IF SQLCODE NOT = 0
               MOVE DBLINK-DB2-ERROR TO ERROR-STATUS
               GO TO 904-UPDT-R4404-ADVNC-EXIT
           END-IF.
           PERFORM 985-CURR-R4404-ADVNC
              THRU 985-CURR-R4404-ADVNC-EXIT.
       904-UPDT-R4404-ADVNC-EXIT.
           EXIT.
      /
      *%-------------------------------------------------------------- *
      *%                                                               *
      *%                904-DIS-S-4205-4212 ROUTINE                    *
      *%                                                               *
      *%-------------------------------------------------------------- *
       904-DIS-S-4205-4212.
           MOVE '904-DIS-S-4205-4212' TO DBLINK-CURR-PARAGRAPH.
           MOVE 'R4212-APRVL-HDR' TO ERROR-RECORD.
           MOVE ZERO TO ERROR-STATUS.
           EXEC SQL
               UPDATE APH_APRVL_HDR_V
               SET  APL_SETF =
               'N'
               WHERE FSCL_YR = :DBLINK-R4212-APRVL-HDR-01
                 AND SEQ_NBR = :DBLINK-R4212-APRVL-HDR-02
                 AND DOC_NBR = :DBLINK-R4212-APRVL-HDR-03
                 AND CHNG_SEQ_NBR = :DBLINK-R4212-APRVL-HDR-04
           END-EXEC.
           IF SQLCODE = -803
               MOVE DBLINK-MODIFY-DUP TO ERROR-STATUS
               GO TO 904-DIS-S-4205-4212-EXIT
           END-IF.
           IF SQLCODE NOT = 0
               MOVE DBLINK-DB2-ERROR TO ERROR-STATUS
               GO TO 904-DIS-S-4205-4212-EXIT
           END-IF.
       904-DIS-S-4205-4212-EXIT.
           EXIT.
      /
      *%-------------------------------------------------------------- *
      *%                                                               *
      *%               904-DIS-S-INDX-APRVL ROUTINE                    *
      *%                                                               *
      *%-------------------------------------------------------------- *
       904-DIS-S-INDX-APRVL.
           MOVE '904-DIS-S-INDX-APRVL' TO DBLINK-CURR-PARAGRAPH.
           MOVE 'R4212-APRVL-HDR' TO ERROR-RECORD.
           MOVE ZERO TO ERROR-STATUS.
           EXEC SQL
               UPDATE APH_APRVL_HDR_V
               SET  IDX_APRVL_SETF =
               'N'
               WHERE FSCL_YR = :DBLINK-R4212-APRVL-HDR-01
                 AND SEQ_NBR = :DBLINK-R4212-APRVL-HDR-02
                 AND DOC_NBR = :DBLINK-R4212-APRVL-HDR-03
                 AND CHNG_SEQ_NBR = :DBLINK-R4212-APRVL-HDR-04
           END-EXEC.
           IF SQLCODE = -803
               MOVE DBLINK-MODIFY-DUP TO ERROR-STATUS
               GO TO 904-DIS-S-INDX-APRVL-EXIT
           END-IF.
           IF SQLCODE NOT = 0
               MOVE DBLINK-DB2-ERROR TO ERROR-STATUS
               GO TO 904-DIS-S-INDX-APRVL-EXIT
           END-IF.
       904-DIS-S-INDX-APRVL-EXIT.
           EXIT.
      /
      *%-------------------------------------------------------------- *
      *%                                                               *
      *%              904-DIS-S-INDX-UNAPRVD ROUTINE                   *
      *%                                                               *
      *%-------------------------------------------------------------- *
       904-DIS-S-INDX-UNAPRVD.
           MOVE '904-DIS-S-INDX-UNAPRVD' TO DBLINK-CURR-PARAGRAPH.
           MOVE 'R4212-APRVL-HDR' TO ERROR-RECORD.
           MOVE ZERO TO ERROR-STATUS.
           EXEC SQL
               UPDATE APH_APRVL_HDR_V
               SET  IDX_UNAPRVD_SETF =
               'N'
               WHERE FSCL_YR = :DBLINK-R4212-APRVL-HDR-01
                 AND SEQ_NBR = :DBLINK-R4212-APRVL-HDR-02
                 AND DOC_NBR = :DBLINK-R4212-APRVL-HDR-03
                 AND CHNG_SEQ_NBR = :DBLINK-R4212-APRVL-HDR-04
           END-EXEC.
           IF SQLCODE = -803
               MOVE DBLINK-MODIFY-DUP TO ERROR-STATUS
               GO TO 904-DIS-S-INDX-UNAPRVD-EXIT
           END-IF.
           IF SQLCODE NOT = 0
               MOVE DBLINK-DB2-ERROR TO ERROR-STATUS
               GO TO 904-DIS-S-INDX-UNAPRVD-EXIT
           END-IF.
       904-DIS-S-INDX-UNAPRVD-EXIT.
           EXIT.
      /
      *%-------------------------------------------------------------- *
      *%                                                               *
      *%                906-02-S-4212-4214 ROUTINE                     *
      *%                                                               *
      *%-------------------------------------------------------------- *
       906-02-S-4212-4214.
           MOVE '906-02-S-4212-4214' TO DBLINK-CURR-PARAGRAPH.
           MOVE 'R4214-APRVL-AUD' TO ERROR-RECORD.
           MOVE ZERO TO ERROR-STATUS.
           MOVE ' ' TO DBLINK-SET-NAME-WORK.
           IF DBLINK-S-4212-4214-KEY = LOW-VALUES
               MOVE DBLINK-NO-CURRENCY TO ERROR-STATUS
               MOVE DBLINK-NONE TO DBLINK-TYPE-LOCK
               GO TO 906-02-S-4212-4214-EXIT
           END-IF.
           EXEC SQL
               SELECT
                  USER_CD
                 ,LAST_ACTVY_DT
                 ,LEVEL_SEQ_NBR
                 ,APRVL_CD
                 ,ALT_APRVL_CD
                 ,APRVL_DT
                 ,APRVL_TIME
                 ,SRC_IND
                 ,PAN_IND
                 ,FK_APH_FSCL_YR
                 ,FK_APH_SEQ_NBR
                 ,FK_APH_DOC_NBR
                 ,FK_APH_CHG_SEQ_NBR
               INTO
                  :APD-USER-CD
                 ,:APD-LAST-ACTVY-DT
                 ,:APD-LEVEL-SEQ-NBR
                 ,:APD-APRVL-CD
                 ,:APD-ALT-APRVL-CD
                 ,:APD-APRVL-DT
                 ,:APD-APRVL-TIME
                 ,:APD-SRC-IND
                 ,:APD-PAN-IND
                 ,:APD-FK-APH-FSCL-YR
                 ,:APD-FK-APH-SEQ-NBR
                 ,:APD-FK-APH-DOC-NBR
                 ,:APD-FK-APH-CHG-SEQ-NBR
               FROM APD_APRVL_AUD_V
               WHERE FK_APH_FSCL_YR = :DBLINK-S-4212-4214-01
                 AND FK_APH_SEQ_NBR = :DBLINK-S-4212-4214-02
                 AND FK_APH_DOC_NBR = :DBLINK-S-4212-4214-03
                 AND FK_APH_CHG_SEQ_NBR = :DBLINK-S-4212-4214-04
                 AND LEVEL_SEQ_NBR = :DBLINK-S-4212-4214-05
           END-EXEC.
           IF SQLCODE = +100
               MOVE DBLINK-NOT-FOUND TO ERROR-STATUS
               MOVE DBLINK-NONE TO DBLINK-TYPE-LOCK
               GO TO 906-02-S-4212-4214-EXIT
           END-IF.
           IF SQLCODE NOT = 0
               MOVE DBLINK-DB2-ERROR TO ERROR-STATUS
               GO TO 906-02-S-4212-4214-EXIT
           END-IF.
           MOVE 'R4214-APRVL-AUD' TO DBLINK-RECORD-MADE-CURRENT.
           PERFORM 985-CURR-R4214-APRVL-AUD
              THRU 985-CURR-R4214-APRVL-AUD-EXIT.
           IF ERROR-STATUS = DBLINK-DB2-ERROR
               GO TO 906-02-S-4212-4214-EXIT
           END-IF.
           IF DBLINK-TYPE-SELECT = 'O'
               PERFORM 975-TO-R4214-APRVL-AUD
                  THRU 975-TO-R4214-APRVL-AUD-EXIT
           END-IF.
       906-02-S-4212-4214-EXIT.
           EXIT.
      /
      *%-------------------------------------------------------------- *
      *%                                                               *
      *%                906-05-R4207-APRVD ROUTINE                     *
      *%                                                               *
      *%-------------------------------------------------------------- *
       906-05-R4207-APRVD.
           MOVE '906-05-R4207-APRVD' TO DBLINK-CURR-PARAGRAPH.
           MOVE 'R4207-APRVD' TO ERROR-RECORD.
           MOVE ZERO TO ERROR-STATUS.
           EXEC SQL
               SELECT
                  USER_CD
                 ,LAST_ACTVY_DT
                 ,UNVRS_CD
                 ,SEQ_NBR
                 ,DOC_NBR
                 ,CHNG_SEQ_NBR
                 ,BANK_ACCT_CD
                 ,RVRSL_IND
                 ,ACTVY_DT
               INTO
                  :APR-USER-CD
                 ,:APR-LAST-ACTVY-DT
                 ,:APR-UNVRS-CD
                 ,:APR-SEQ-NBR
                 ,:APR-DOC-NBR
                 ,:APR-CHNG-SEQ-NBR
                 ,:APR-BANK-ACCT-CD
                 ,:APR-RVRSL-IND
                 ,:APR-ACTVY-DT
               FROM APR_APRVD_V
               WHERE SEQ_NBR = :APR-SEQ-NBR
                 AND DOC_NBR = :APR-DOC-NBR
                 AND CHNG_SEQ_NBR = :APR-CHNG-SEQ-NBR
                 AND BANK_ACCT_CD = :APR-BANK-ACCT-CD
                 AND RVRSL_IND = :APR-RVRSL-IND
           END-EXEC.
           IF SQLCODE = +100
               EVALUATE DBLINK-TYPE-GET
                   WHEN DBLINK-CALC
                       MOVE DBLINK-NOT-FOUND TO ERROR-STATUS
                   WHEN DBLINK-CURR
                       MOVE DBLINK-NO-CURRENCY TO ERROR-STATUS
                   WHEN DBLINK-DBKEY
                       MOVE DBLINK-DBKEY-ERROR TO ERROR-STATUS
                   WHEN OTHER
                       MOVE DBLINK-DB2-ERROR TO ERROR-STATUS
               END-EVALUATE
               GO TO 906-05-R4207-APRVD-EXIT
           END-IF.
           IF SQLCODE NOT = 0
               MOVE DBLINK-DB2-ERROR TO ERROR-STATUS
               GO TO 906-05-R4207-APRVD-EXIT
           END-IF.
           MOVE DBLINK-R4207-APRVD TO DBLINK-RECORD-MADE-CURRENT.
           MOVE ' ' TO DBLINK-SET-NAME-WORK.
           MOVE ' ' TO DBLINK-CURSOR-NAME-WORK.
           PERFORM 985-CURR-R4207-APRVD
              THRU 985-CURR-R4207-APRVD-EXIT.
           IF ERROR-STATUS = DBLINK-DB2-ERROR
               GO TO 906-05-R4207-APRVD-EXIT
           END-IF.
           IF DBLINK-TYPE-SELECT = 'O'
               PERFORM 975-TO-R4207-APRVD
                  THRU 975-TO-R4207-APRVD-EXIT
           END-IF.
       906-05-R4207-APRVD-EXIT.
           EXIT.
      /
      *%-------------------------------------------------------------- *
      *%                                                               *
      *%              906-05-R4212-APRVL-HDR ROUTINE                   *
      *%                                                               *
      *%-------------------------------------------------------------- *
       906-05-R4212-APRVL-HDR.
           MOVE '906-05-R4212-APRVL-HDR' TO DBLINK-CURR-PARAGRAPH.
           MOVE 'R4212-APRVL-HDR' TO ERROR-RECORD.
           MOVE ZERO TO ERROR-STATUS.
           EXEC SQL
               SELECT
                  USER_CD
                 ,LAST_ACTVY_DT
                 ,UNVRS_CD
                 ,FSCL_YR
                 ,SEQ_NBR
                 ,DOC_NBR
                 ,CHNG_SEQ_NBR
                 ,APRVL_IND
                 ,APRVL_ID
                 ,DOC_AMT
                 ,USER_ID
                 ,APV_TPLT_CD
                 ,ACTG_PRD
                 ,DOC_DT
                 ,PURGE_DT
                 ,IDX_UNAPRVD_SETF
                 ,IDX_APRVL_SETF
                 ,IDX_APRVL_TS
                 ,APL_SETF
                 ,FK_APL_SEQ_NBR
                 ,FK_APL_USER_ID
                 ,FK_APL_APV_TPLT_CD
                 ,FK_APL_LVL_SEQ_NBR
                 ,APL_SET_TS
               INTO
                  :APH-USER-CD
                 ,:APH-LAST-ACTVY-DT
                 ,:APH-UNVRS-CD
                 ,:APH-FSCL-YR
                 ,:APH-SEQ-NBR
                 ,:APH-DOC-NBR
                 ,:APH-CHNG-SEQ-NBR
                 ,:APH-APRVL-IND
                 ,:APH-APRVL-ID
                 ,:APH-DOC-AMT
                 ,:APH-USER-ID
                 ,:APH-APV-TPLT-CD
                 ,:APH-ACTG-PRD
                 ,:APH-DOC-DT
                 ,:APH-PURGE-DT
                 ,:APH-IDX-UNAPRVD-SETF
                 ,:APH-IDX-APRVL-SETF
                 ,:APH-IDX-APRVL-TS
                 ,:APH-APL-SETF
                 ,:APH-FK-APL-SEQ-NBR
                 ,:APH-FK-APL-USER-ID
                 ,:APH-FK-APL-APV-TPLT-CD
                 ,:APH-FK-APL-LVL-SEQ-NBR
                 ,:APH-APL-SET-TS
               FROM APH_APRVL_HDR_V
               WHERE FSCL_YR = :APH-FSCL-YR
                 AND SEQ_NBR = :APH-SEQ-NBR
                 AND DOC_NBR = :APH-DOC-NBR
                 AND CHNG_SEQ_NBR = :APH-CHNG-SEQ-NBR
           END-EXEC.
           IF SQLCODE = +100
               EVALUATE DBLINK-TYPE-GET
                   WHEN DBLINK-CALC
                       MOVE DBLINK-NOT-FOUND TO ERROR-STATUS
                   WHEN DBLINK-CURR
                       MOVE DBLINK-NO-CURRENCY TO ERROR-STATUS
                   WHEN DBLINK-DBKEY
                       MOVE DBLINK-DBKEY-ERROR TO ERROR-STATUS
                   WHEN OTHER
                       MOVE DBLINK-DB2-ERROR TO ERROR-STATUS
               END-EVALUATE
               GO TO 906-05-R4212-APRVL-HDR-EXIT
           END-IF.
           IF SQLCODE NOT = 0
               MOVE DBLINK-DB2-ERROR TO ERROR-STATUS
               GO TO 906-05-R4212-APRVL-HDR-EXIT
           END-IF.
           MOVE DBLINK-R4212-APRVL-HDR TO DBLINK-RECORD-MADE-CURRENT.
           MOVE ' ' TO DBLINK-SET-NAME-WORK.
           MOVE ' ' TO DBLINK-CURSOR-NAME-WORK.
           PERFORM 985-CURR-R4212-APRVL-HDR
              THRU 985-CURR-R4212-APRVL-HDR-EXIT.
           IF ERROR-STATUS = DBLINK-DB2-ERROR
               GO TO 906-05-R4212-APRVL-HDR-EXIT
           END-IF.
           IF DBLINK-TYPE-SELECT = 'O'
               PERFORM 975-TO-R4212-APRVL-HDR
                  THRU 975-TO-R4212-APRVL-HDR-EXIT
           END-IF.
       906-05-R4212-APRVL-HDR-EXIT.
           EXIT.
      /
      *%-------------------------------------------------------------- *
      *%                                                               *
      *%                906-05-R4404-ADVNC ROUTINE                     *
      *%                                                               *
      *%-------------------------------------------------------------- *
       906-05-R4404-ADVNC.
           MOVE '906-05-R4404-ADVNC' TO DBLINK-CURR-PARAGRAPH.
           MOVE 'R4404-ADVNC' TO ERROR-RECORD.
           MOVE ZERO TO ERROR-STATUS.
           EXEC SQL
               SELECT
                  USER_CD
                 ,LAST_ACTVY_DT
                 ,UNVRS_CD
                 ,ADVNC_NBR
                 ,ADVNC_DT
                 ,ADVNC_AMT
                 ,ADVNC_STATUS
                 ,ADR_TYP_CD
                 ,CHECK_NBR
                 ,CHECK_DT
                 ,CMPLT_IND
                 ,APRVL_IND
                 ,CNCL_IND
                 ,CNCL_DT
                 ,HDR_ERROR_IND
                 ,HDR_CNTR_DTL
                 ,ADVNC_TYP
                 ,RULE_CLS_CD
                 ,COA_CD
                 ,ACCT_INDX_CD
                 ,FUND_CD
                 ,ORGN_CD
                 ,ACCT_CD
                 ,PRGRM_CD
                 ,ACTVY_CD
                 ,LCTN_CD
                 ,BANK_ACCT_CD
                 ,NSF_OVRDE
                 ,CASH_IND
                 ,BATCH_CHECK_IND
                 ,MNL_CHECK_IND
                 ,FSCL_YR
                 ,PSTNG_PRD
                 ,IMMDT_CHECK_IND
                 ,FK_TVL_IREF_ID
                 ,FK_TVL_ENTPSN_IND
                 ,EVT_SETF
                 ,FK_EVT_EVNT_NBR
                 ,EVT_SET_TS
               INTO
                  :ADV-USER-CD
                 ,:ADV-LAST-ACTVY-DT
                 ,:ADV-UNVRS-CD
                 ,:ADV-ADVNC-NBR
                 ,:ADV-ADVNC-DT
                 ,:ADV-ADVNC-AMT
                 ,:ADV-ADVNC-STATUS
                 ,:ADV-ADR-TYP-CD
                 ,:ADV-CHECK-NBR
                 ,:ADV-CHECK-DT
                 ,:ADV-CMPLT-IND
                 ,:ADV-APRVL-IND
                 ,:ADV-CNCL-IND
                 ,:ADV-CNCL-DT
                 ,:ADV-HDR-ERROR-IND
                 ,:ADV-HDR-CNTR-DTL
                 ,:ADV-ADVNC-TYP
                 ,:ADV-RULE-CLS-CD
                 ,:ADV-COA-CD
                 ,:ADV-ACCT-INDX-CD
                 ,:ADV-FUND-CD
                 ,:ADV-ORGN-CD
                 ,:ADV-ACCT-CD
                 ,:ADV-PRGRM-CD
                 ,:ADV-ACTVY-CD
                 ,:ADV-LCTN-CD
                 ,:ADV-BANK-ACCT-CD
                 ,:ADV-NSF-OVRDE
                 ,:ADV-CASH-IND
                 ,:ADV-BATCH-CHECK-IND
                 ,:ADV-MNL-CHECK-IND
                 ,:ADV-FSCL-YR
                 ,:ADV-PSTNG-PRD
                 ,:ADV-IMMDT-CHECK-IND
                 ,:ADV-FK-TVL-IREF-ID
                 ,:ADV-FK-TVL-ENTPSN-IND
                 ,:ADV-EVT-SETF
                 ,:ADV-FK-EVT-EVNT-NBR
                 ,:ADV-EVT-SET-TS
               FROM ADV_ADVNC_V
               WHERE ADVNC_NBR = :ADV-ADVNC-NBR
           END-EXEC.
           IF SQLCODE = +100
               EVALUATE DBLINK-TYPE-GET
                   WHEN DBLINK-CALC
                       MOVE DBLINK-NOT-FOUND TO ERROR-STATUS
                   WHEN DBLINK-CURR
                       MOVE DBLINK-NO-CURRENCY TO ERROR-STATUS
                   WHEN DBLINK-DBKEY
                       MOVE DBLINK-DBKEY-ERROR TO ERROR-STATUS
                   WHEN OTHER
                       MOVE DBLINK-DB2-ERROR TO ERROR-STATUS
               END-EVALUATE
               GO TO 906-05-R4404-ADVNC-EXIT
           END-IF.
           IF SQLCODE NOT = 0
               MOVE DBLINK-DB2-ERROR TO ERROR-STATUS
               GO TO 906-05-R4404-ADVNC-EXIT
           END-IF.
           MOVE DBLINK-R4404-ADVNC TO DBLINK-RECORD-MADE-CURRENT.
           MOVE ' ' TO DBLINK-SET-NAME-WORK.
           MOVE ' ' TO DBLINK-CURSOR-NAME-WORK.
           PERFORM 985-CURR-R4404-ADVNC
              THRU 985-CURR-R4404-ADVNC-EXIT.
           IF ERROR-STATUS = DBLINK-DB2-ERROR
               GO TO 906-05-R4404-ADVNC-EXIT
           END-IF.
           IF DBLINK-TYPE-SELECT = 'O'
               PERFORM 975-TO-R4404-ADVNC
                  THRU 975-TO-R4404-ADVNC-EXIT
           END-IF.
       906-05-R4404-ADVNC-EXIT.
           EXIT.

      *%****************************** *
      *% 975-TO-R4207-APRVD ROUTINE
      *%****************************** *
      *%   COPY CB754207.
CPYNME     COPY HVIDAPR.

      *%****************************** *
      *% 975-TO-R4404-ADVNC ROUTINE
      *%****************************** *
      *%   COPY CB754404.
CPYNME     COPY HVIDADV.

      *%****************************** *
      *% 975-TO-R4215-APRV-TMPLT ROUTINE
      *%****************************** *
      *%   COPY CB754215.
CPYNME     COPY HVIDAPV.

      *%****************************** *
      *% 975-TO-R4204-APRVL-J ROUTINE
      *%****************************** *
      *%   COPY CB754204.
CPYNME     COPY HVIDAPJ.

      *%****************************** *
      *% 975-TO-R4203-DOCUMENT ROUTINE
      *%****************************** *
      *%   COPY CB754203.
CPYNME     COPY HVIDDOC.

      *%****************************** *
      *% 975-TO-R4205-APRVL-LVL ROUTINE
      *%****************************** *
      *%   COPY CB754205.
CPYNME     COPY HVIDAPL.

      *%****************************** *
      *% 975-TO-R4212-APRVL-HDR ROUTINE
      *%****************************** *
      *%   COPY CB754212.
CPYNME     COPY HVIDAPH.

      *%****************************** *
      *% 975-TO-R4214-APRVL-AUD ROUTINE
      *%****************************** *
      *%   COPY CB754214.
CPYNME     COPY HVIDAPD.

      *%****************************** *
      *% 976-FROM-R4207-APRVD ROUTINE
      *%****************************** *
      *%   COPY CB764207.
CPYNME     COPY IDHVAPR.

      *%****************************** *
      *% 976-FROM-R4404-ADVNC ROUTINE
      *%****************************** *
      *%   COPY CB764404.
CPYNME     COPY IDHVADV.

      *%****************************** *
      *% 976-FROM-R4215-APRV-TMPLT ROUTINE
      *%****************************** *
      *%   COPY CB764215.
CPYNME     COPY IDHVAPV.

      *%****************************** *
      *% 976-FROM-R4204-APRVL-J ROUTINE
      *%****************************** *
      *%   COPY CB764204.
CPYNME     COPY IDHVAPJ.

      *%****************************** *
      *% 976-FROM-R4203-DOCUMENT ROUTINE
      *%****************************** *
      *%   COPY CB764203.
CPYNME     COPY IDHVDOC.

      *%****************************** *
      *% 976-FROM-R4205-APRVL-LVL ROUTINE
      *%****************************** *
      *%   COPY CB764205.
CPYNME     COPY IDHVAPL.

      *%****************************** *
      *% 976-FROM-R4212-APRVL-HDR ROUTINE
      *%****************************** *
      *%   COPY CB764212.
CPYNME     COPY IDHVAPH.

      *%****************************** *
      *% 976-FROM-R4214-APRVL-AUD ROUTINE
      *%****************************** *
      *%   COPY CB764214.
CPYNME     COPY IDHVAPD.
      /
      *%-------------------------------------------------------------- *
      *%                                                               *
      *%               985-CURR-R4207-APRVD ROUTINE                    *
      *%                                                               *
      *%-------------------------------------------------------------- *
       985-CURR-R4207-APRVD.
           MOVE '985-CURR-R4207-APRVD' TO DBLINK-CURR-PARAGRAPH.

      *%****************************** *
      *%INITIALIZE DBLINK SUBSCHEMA-CTRL
      *%****************************** *
           MOVE ZERO TO ERROR-STATUS.
           MOVE SPACES TO ERROR-AREA.
           MOVE SPACES TO ERROR-SET.
           MOVE SPACES TO ERROR-RECORD.
           MOVE 'R4207-APRVD' TO RECORD-NAME.
           MOVE 'F-APPROVAL' TO AREA-NAME.

      *%****************************** *
      *%CLOSE ALL RECORD-RELATED CURSORS
      *%****************************** *
           MOVE DBLINK-R4207-APRVD TO DBLINK-RECORD-MADE-CURRENT.
           MOVE ' ' TO DBLINK-CURSOR-NAME-WORK.
           IF ERROR-STATUS = DBLINK-DB2-ERROR
               GO TO 985-CURR-R4207-APRVD-EXIT
           END-IF.
           MOVE ' ' TO DBLINK-RECORD-MADE-CURRENT.

      *%****************************** *
      *%SET RECORD KEY
      *%****************************** *
           IF DBLINK-TYPE-GET NOT = DBLINK-CURR
               MOVE APR-SEQ-NBR TO DBLINK-R4207-APRVD-01
               MOVE APR-DOC-NBR TO DBLINK-R4207-APRVD-02
               MOVE APR-CHNG-SEQ-NBR TO DBLINK-R4207-APRVD-03
               MOVE APR-BANK-ACCT-CD TO DBLINK-R4207-APRVD-04
               MOVE APR-RVRSL-IND TO DBLINK-R4207-APRVD-05
           END-IF.

      *%****************************** *
      *%SET CURRENT OF RUN-UNIT
      *%****************************** *
           MOVE DBLINK-R4207-APRVD TO DBLINK-VIEW-NAME-CURRENT.
           MOVE DBLINK-R4207-APRVD-KEY TO DBLINK-VIEW-200-CURRENT.

      *%****************************** *
      *%SET KEYS FOR SETS WHICH RECORD OWNS
      *%****************************** *

      *%****************************** *
      *%SET KEYS FOR SETS IN WHICH RECORD IS MEMBER
      *%****************************** *
       985-CURR-R4207-APRVD-EXIT.
           EXIT.
      /
      *%-------------------------------------------------------------- *
      *%                                                               *
      *%             985-CURR-R4212-APRVL-HDR ROUTINE                  *
      *%                                                               *
      *%-------------------------------------------------------------- *
       985-CURR-R4212-APRVL-HDR.
           MOVE '985-CURR-R4212-APRVL-HDR' TO DBLINK-CURR-PARAGRAPH.

      *%****************************** *
      *%INITIALIZE DBLINK SUBSCHEMA-CTRL
      *%****************************** *
           MOVE ZERO TO ERROR-STATUS.
           MOVE SPACES TO ERROR-AREA.
           MOVE SPACES TO ERROR-SET.
           MOVE SPACES TO ERROR-RECORD.
           MOVE 'R4212-APRVL-HDR' TO RECORD-NAME.
           MOVE 'F-APPROVAL' TO AREA-NAME.

      *%****************************** *
      *%CLOSE ALL RECORD-RELATED CURSORS
      *%****************************** *
           MOVE DBLINK-R4212-APRVL-HDR TO DBLINK-RECORD-MADE-CURRENT.
           MOVE ' ' TO DBLINK-CURSOR-NAME-WORK.
           IF ERROR-STATUS = DBLINK-DB2-ERROR
               GO TO 985-CURR-R4212-APRVL-HDR-EXIT
           END-IF.
           MOVE ' ' TO DBLINK-RECORD-MADE-CURRENT.

      *%****************************** *
      *%SET RECORD KEY
      *%****************************** *
           IF DBLINK-TYPE-GET NOT = DBLINK-CURR
               MOVE APH-FSCL-YR TO DBLINK-R4212-APRVL-HDR-01
               MOVE APH-SEQ-NBR TO DBLINK-R4212-APRVL-HDR-02
               MOVE APH-DOC-NBR TO DBLINK-R4212-APRVL-HDR-03
               MOVE APH-CHNG-SEQ-NBR TO DBLINK-R4212-APRVL-HDR-04
           END-IF.

      *%****************************** *
      *%SET CURRENT OF RUN-UNIT
      *%****************************** *
           MOVE DBLINK-R4212-APRVL-HDR TO DBLINK-VIEW-NAME-CURRENT.
           MOVE DBLINK-R4212-APRVL-HDR-KEY TO DBLINK-VIEW-200-CURRENT.

      *%****************************** *
      *%SET KEYS FOR SETS WHICH RECORD OWNS
      *%****************************** *

      *%****************************** *
      *%SET S-4212-4214
      *%****************************** *
           MOVE DBLINK-R4212-APRVL-HDR-01 TO DBLINK-S-4212-4214-01.
           MOVE DBLINK-R4212-APRVL-HDR-02 TO DBLINK-S-4212-4214-02.
           MOVE DBLINK-R4212-APRVL-HDR-03 TO DBLINK-S-4212-4214-03.
           MOVE DBLINK-R4212-APRVL-HDR-04 TO DBLINK-S-4212-4214-04.
           MOVE LOW-VALUES TO DBLINK-S-4212-4214-KEY-M.

      *%****************************** *
      *%SET KEYS FOR SETS IN WHICH RECORD IS MEMBER
      *%****************************** *

      *%****************************** *
      *%SET S-4205-4212
      *%****************************** *
           MOVE DBLINK-NOT-MEMBER TO DBLINK-S-4205-4212-F
           IF APH-APL-SETF = DBLINK-MEMBER
               MOVE APH-APL-SETF TO DBLINK-S-4205-4212-F
               MOVE APH-FK-APL-SEQ-NBR TO DBLINK-S-4205-4212-01
               MOVE APH-FK-APL-USER-ID TO DBLINK-S-4205-4212-02
               MOVE APH-FK-APL-APV-TPLT-CD TO DBLINK-S-4205-4212-03
               MOVE APH-FK-APL-LVL-SEQ-NBR TO DBLINK-S-4205-4212-04
               MOVE APH-APL-SET-TS TO DBLINK-S-4205-4212-05
           END-IF.

      *%****************************** *
      *%SET S-INDX-APRVL
      *%****************************** *
           MOVE DBLINK-NOT-MEMBER TO DBLINK-S-INDX-APRVL-F
           IF APH-IDX-APRVL-SETF = DBLINK-MEMBER
               MOVE APH-IDX-APRVL-SETF TO DBLINK-S-INDX-APRVL-F
               MOVE APH-SEQ-NBR TO DBLINK-S-INDX-APRVL-01
               MOVE APH-DOC-NBR TO DBLINK-S-INDX-APRVL-02
               MOVE APH-CHNG-SEQ-NBR TO DBLINK-S-INDX-APRVL-03
               MOVE APH-IDX-APRVL-TS TO DBLINK-S-INDX-APRVL-04
           END-IF.

      *%****************************** *
      *%SET S-INDX-UNAPRVD
      *%****************************** *
           MOVE DBLINK-NOT-MEMBER TO DBLINK-S-INDX-UNAPRVD-F
           IF APH-IDX-UNAPRVD-SETF = DBLINK-MEMBER
               MOVE APH-IDX-UNAPRVD-SETF TO DBLINK-S-INDX-UNAPRVD-F
               MOVE APH-APRVL-ID TO DBLINK-S-INDX-UNAPRVD-01
               MOVE APH-SEQ-NBR TO DBLINK-S-INDX-UNAPRVD-02
               MOVE APH-DOC-NBR TO DBLINK-S-INDX-UNAPRVD-03
               MOVE APH-CHNG-SEQ-NBR TO DBLINK-S-INDX-UNAPRVD-04
           END-IF.
       985-CURR-R4212-APRVL-HDR-EXIT.
           EXIT.
      /
      *%-------------------------------------------------------------- *
      *%                                                               *
      *%             985-CURR-R4214-APRVL-AUD ROUTINE                  *
      *%                                                               *
      *%-------------------------------------------------------------- *
       985-CURR-R4214-APRVL-AUD.
           MOVE '985-CURR-R4214-APRVL-AUD' TO DBLINK-CURR-PARAGRAPH.

      *%****************************** *
      *%INITIALIZE DBLINK SUBSCHEMA-CTRL
      *%****************************** *
           MOVE ZERO TO ERROR-STATUS.
           MOVE SPACES TO ERROR-AREA.
           MOVE SPACES TO ERROR-SET.
           MOVE SPACES TO ERROR-RECORD.
           MOVE 'R4214-APRVL-AUD' TO RECORD-NAME.
           MOVE 'F-APPROVAL' TO AREA-NAME.

      *%****************************** *
      *%CLOSE ALL RECORD-RELATED CURSORS
      *%****************************** *
           MOVE DBLINK-R4214-APRVL-AUD TO DBLINK-RECORD-MADE-CURRENT.
           MOVE ' ' TO DBLINK-CURSOR-NAME-WORK.
           IF ERROR-STATUS = DBLINK-DB2-ERROR
               GO TO 985-CURR-R4214-APRVL-AUD-EXIT
           END-IF.
           MOVE ' ' TO DBLINK-RECORD-MADE-CURRENT.

      *%****************************** *
      *%SET RECORD KEY
      *%****************************** *
           IF DBLINK-TYPE-GET NOT = DBLINK-CURR
               MOVE APD-FK-APH-FSCL-YR TO DBLINK-R4214-APRVL-AUD-01
               MOVE APD-FK-APH-SEQ-NBR TO DBLINK-R4214-APRVL-AUD-02
               MOVE APD-FK-APH-DOC-NBR TO DBLINK-R4214-APRVL-AUD-03
               MOVE APD-FK-APH-CHG-SEQ-NBR TO DBLINK-R4214-APRVL-AUD-04
               MOVE APD-LEVEL-SEQ-NBR TO DBLINK-R4214-APRVL-AUD-05
           END-IF.

      *%****************************** *
      *%SET CURRENT OF RUN-UNIT
      *%****************************** *
           MOVE DBLINK-R4214-APRVL-AUD TO DBLINK-VIEW-NAME-CURRENT.
           MOVE DBLINK-R4214-APRVL-AUD-KEY TO DBLINK-VIEW-200-CURRENT.

      *%****************************** *
      *%SET KEYS FOR SETS WHICH RECORD OWNS
      *%****************************** *

      *%****************************** *
      *%SET KEYS FOR SETS IN WHICH RECORD IS MEMBER
      *%****************************** *

      *%****************************** *
      *%SET S-4212-4214
      *%****************************** *
           MOVE DBLINK-MEMBER TO DBLINK-S-4212-4214-F
           MOVE APD-FK-APH-FSCL-YR TO DBLINK-S-4212-4214-01.
           MOVE APD-FK-APH-SEQ-NBR TO DBLINK-S-4212-4214-02.
           MOVE APD-FK-APH-DOC-NBR TO DBLINK-S-4212-4214-03.
           MOVE APD-FK-APH-CHG-SEQ-NBR TO DBLINK-S-4212-4214-04.
           MOVE APD-LEVEL-SEQ-NBR TO DBLINK-S-4212-4214-05.
       985-CURR-R4214-APRVL-AUD-EXIT.
           EXIT.
      /
      *%-------------------------------------------------------------- *
      *%                                                               *
      *%               985-CURR-R4404-ADVNC ROUTINE                    *
      *%                                                               *
      *%-------------------------------------------------------------- *
       985-CURR-R4404-ADVNC.
           MOVE '985-CURR-R4404-ADVNC' TO DBLINK-CURR-PARAGRAPH.

      *%****************************** *
      *%INITIALIZE DBLINK SUBSCHEMA-CTRL
      *%****************************** *
           MOVE ZERO TO ERROR-STATUS.
           MOVE SPACES TO ERROR-AREA.
           MOVE SPACES TO ERROR-SET.
           MOVE SPACES TO ERROR-RECORD.
           MOVE 'R4404-ADVNC' TO RECORD-NAME.
           MOVE 'F-TRVL' TO AREA-NAME.

      *%****************************** *
      *%CLOSE ALL RECORD-RELATED CURSORS
      *%****************************** *
           MOVE DBLINK-R4404-ADVNC TO DBLINK-RECORD-MADE-CURRENT.
           MOVE ' ' TO DBLINK-CURSOR-NAME-WORK.
           IF ERROR-STATUS = DBLINK-DB2-ERROR
               GO TO 985-CURR-R4404-ADVNC-EXIT
           END-IF.
           MOVE ' ' TO DBLINK-RECORD-MADE-CURRENT.

      *%****************************** *
      *%SET RECORD KEY
      *%****************************** *
           IF DBLINK-TYPE-GET NOT = DBLINK-CURR
               MOVE ADV-ADVNC-NBR TO DBLINK-R4404-ADVNC-01
           END-IF.

      *%****************************** *
      *%SET CURRENT OF RUN-UNIT
      *%****************************** *
           MOVE DBLINK-R4404-ADVNC TO DBLINK-VIEW-NAME-CURRENT.
           MOVE DBLINK-R4404-ADVNC-KEY TO DBLINK-VIEW-200-CURRENT.

      *%****************************** *
      *%SET KEYS FOR SETS WHICH RECORD OWNS
      *%****************************** *

      *%****************************** *
      *%SET KEYS FOR SETS IN WHICH RECORD IS MEMBER
      *%****************************** *
       985-CURR-R4404-ADVNC-EXIT.
           EXIT.
      /
      *%-------------------------------------------------------------- *
      *%                                                               *
      *%                  986-RESET-KEYS ROUTINE                       *
      *%                                                               *
      *%-------------------------------------------------------------- *
       986-RESET-KEYS.
           MOVE '986-RESET-KEYS' TO DBLINK-CURR-PARAGRAPH.
           MOVE SPACES TO DBLINK-RECORD-KEYS.
           MOVE LOW-VALUES TO DBLINK-SET-KEYS.
       986-RESET-KEYS-EXIT.
           EXIT.
      /
      *%-------------------------------------------------------------- *
      *%                                                               *
      *%                 991-CLOSE-CURSORS ROUTINE                     *
      *%                                                               *
      *%-------------------------------------------------------------- *
       991-CLOSE-CURSORS.
       991-CLOSE-CURSORS-EXIT.
           EXIT.
      /
      *%-------------------------------------------------------------- *
      *%                                                               *
      *%                    996-COMMIT ROUTINE                         *
      *%                                                               *
      *%-------------------------------------------------------------- *
       996-COMMIT.
           MOVE '996-COMMIT' TO DBLINK-CURR-PARAGRAPH.
           EXEC SQL
               COMMIT WORK
           END-EXEC.
       996-COMMIT-EXIT.
           EXIT.
      /
      *%-------------------------------------------------------------- *
      *%                                                               *
      *%                  999-SQL-STATUS ROUTINE                       *
      *%                                                               *
      *%-------------------------------------------------------------- *
       999-SQL-STATUS.
           EXEC SQL
               INCLUDE BTCHERR
           END-EXEC.
       999-SQL-STATUS-EXIT.
           EXIT.

